[00:00:00]: 
System Memory:
	Memory Load: 49%
	Available Physical Memory: 4138m/8148m
	Available Page File: 6281m/13784m
	Available Virtual Memory: 134213490m/134217727m
	Available Extended Virtual Memory: 0m
[00:00:00]: 
Process Memory:
	Peak Working Set Size: 30m
	Working Set Size: 30m
	Quota Peak Page Pool Usage: 206k
	Quota Page Pool Usage: 202k
	Quota Peak Non Paged Pool Usage:14k
	Quota Non Paged Pool Usage: 14k
	Page File Usage: 5m
	Peak Page File Usage: 5m
[00:00:00]: PersistRootStorage is now APP:Klei//DoNotStarveTogether/267990328/Cluster_2/Caves/ 
[00:00:00]: Starting Up
[00:00:00]: Version: 490729
[00:00:00]: Current time: Wed Dec 22 16:56:54 2021

[00:00:00]: Don't Starve Together: 490729 WIN32
[00:00:00]: Build Date: 560
[00:00:00]: Mode: 64-bit
[00:00:00]: Parsing command line
[00:00:00]: Command Line Arguments: -monitor_parent_process 10152 -persistent_storage_root APP:Klei/ -conf_dir DoNotStarveTogether -cluster Cluster_2 -ownernetid 76561198228256056 -ownerdir 267990328 -backup_log_count 25 -backup_log_period 0 -ugc_directory C:\\Program Files (x86)\\Steam\\steamapps\\workshop -shard Caves -sigprefix DST_Secondary -region US -token *********************************************************************************** 
[00:00:00]: Initializing distribution platform
[00:00:00]: Initializing Minidump handler
[00:00:00]: ....Done
[00:00:00]: ....Done
[00:00:00]: Fixing DPI
[00:00:00]: ...Done
[00:00:00]: THREAD - started 'GAClient' (9592)
[00:00:00]: CurlRequestManager::ClientThread::Main()
[00:00:00]: Mounting file system databundles/klump.zip successful.
[00:00:00]: Mounting file system databundles/shaders.zip successful.
[00:00:00]: Mounting file system databundles/fonts.zip successful.
[00:00:00]: Mounting file system databundles/anim_dynamic.zip successful.
[00:00:00]: Mounting file system databundles/bigportraits.zip successful.
[00:00:00]: Mounting file system databundles/images.zip successful.
[00:00:00]: Mounting file system databundles/scripts.zip successful.
[00:00:00]: [Steam] SteamGameServer_Init(10998, 27017)
[00:00:01]: [Steam] SteamGameServer_Init success
[00:00:01]: ProfileIndex:2.98
[00:00:01]: [Connect] PendingConnection::Reset(true)
[00:00:01]: THREAD - started 'Ping Job Thread' (5144)
[00:00:01]: Platform: 1
[00:00:01]: Network tick rate: U=15(2), D=0
[00:00:01]: Network tick rate: U=15(2), D=0
[00:00:01]: Authorized application C:\Program Files (x86)\Steam\steamapps\common\Don't Starve Together\bin64\dontstarve_dedicated_server_nullrenderer_x64.exe is enabled in the firewall.
[00:00:01]: WindowsFirewall - Application already authorized
[00:00:01]: Overriding region to US
[00:00:01]: THREAD - started 'StreamInput' (1304)
[00:00:01]: OnLoadPermissionList: APP:Klei//DoNotStarveTogether/267990328/client_save/blocklist.txt (Failure)
[00:00:01]: OnLoadPermissionList: APP:Klei//DoNotStarveTogether/267990328/client_save/adminlist.txt (Failure)
[00:00:01]: OnLoadUserIdList: APP:Klei//DoNotStarveTogether/267990328/client_save/whitelist.txt (Failure)
[00:00:01]: Offline user ID: OU_76561198228256056
[00:00:01]: HardwareStats:
  OS                        
    name                      Microsoft Windows 10 Pro
    version                   10.0.19042
    platformSpecific          SP 0.0
    architecture              64 bits
  CPU                       
    clockSpeed                3912
    name                      Intel(R) Core(TM) i3-7100 CPU @ 3.90GHz
    manufacturer              GenuineIntel
    numCores                  2
    features                  SSE,SSE2,SSE3,SSSE3,SSE41,SSE42,AVX
  RAM                       
    megsOfRam                 8192
  GPU                       
    megsOfRam                 4095
    videoModeDescription      1366 x 768 x 4294967296 cores
    name                      NVIDIA GeForce GTX 1050 Ti
    driverVersion             27.21.14.5671
    driverDate                20200930000000.000000-000
    refreshRate               59

[00:00:01]: cGame::InitializeOnMainThread
[00:00:01]: Renderer initialize: Okay
[00:00:01]: AnimManager initialize: Okay
[00:00:01]: Buffers initialize: Okay
[00:00:01]: cDontStarveGame::DoGameSpecificInitialize()
[00:00:01]: GameSpecific initialize: Okay
[00:00:01]: cGame::StartPlaying
[00:00:01]: AppVersion::GetArchitecture() x64
[00:00:01]: LOADING LUA
[00:00:01]: DoLuaFile scripts/main.lua
[00:00:01]: DoLuaFile loading buffer scripts/main.lua
[00:00:02]:   taskgrouplist:	default	Together	
[00:00:02]:   taskgrouplist:	classic	Classic	
[00:00:02]:   taskgrouplist:	cave_default	Underground	
[00:00:02]:   taskgrouplist:	lavaarena_taskset	The Forge	
[00:00:02]:   taskgrouplist:	quagmire_taskset	The Gorge	
[00:00:02]: running main.lua
	
[00:00:02]: loaded modindex	
[00:00:02]: ModIndex: Beginning normal load sequence for dedicated server.
	
[00:00:02]: SUCCESS: Loaded modoverrides.lua	
[00:00:02]: modoverrides.lua enabling workshop-374550642	
[00:00:02]: modoverrides.lua enabling workshop-378160973	
[00:00:02]: modoverrides.lua enabling workshop-1682381560	
[00:00:02]: modoverrides.lua enabling workshop-375850593	
[00:00:02]: modoverrides.lua enabling workshop-1207269058	
[00:00:02]: modoverrides.lua enabling workshop-1185229307	
[00:00:02]: modoverrides.lua enabling workshop-1280567941	
[00:00:02]: modoverrides.lua enabling workshop-501385076	
[00:00:02]: modoverrides.lua enabling workshop-666155465	
[00:00:02]: modoverrides.lua enabling workshop-1458450094	
[00:00:02]: modoverrides.lua enabling workshop-1595631294	
[00:00:02]: ModIndex:GetModsToLoad inserting moddir, 	workshop-1280567941	
[00:00:02]: ModIndex:GetModsToLoad inserting moddir, 	workshop-1458450094	
[00:00:02]: ModIndex:GetModsToLoad inserting moddir, 	workshop-1595631294	
[00:00:02]: ModIndex:GetModsToLoad inserting moddir, 	workshop-1682381560	
[00:00:02]: ModIndex:GetModsToLoad inserting moddir, 	workshop-374550642	
[00:00:02]: ModIndex:GetModsToLoad inserting moddir, 	workshop-375850593	
[00:00:02]: ModIndex:GetModsToLoad inserting moddir, 	workshop-378160973	
[00:00:02]: ModIndex:GetModsToLoad inserting moddir, 	workshop-501385076	
[00:00:02]: ModIndex:GetModsToLoad inserting forcedmoddir, 	workshop-1207269058	
[00:00:02]: ModIndex:GetModsToLoad inserting forcedmoddir, 	workshop-1185229307	
[00:00:02]: ModIndex:GetModsToLoad inserting forcedmoddir, 	workshop-666155465	
[00:00:02]: Could not load mod_config_data/modconfiguration_workshop-1280567941_CLIENT	
[00:00:02]: Loading mod: workshop-1280567941 (Construction Planning) Version:1.7	
[00:00:02]: Could not load mod_config_data/modconfiguration_workshop-1458450094_CLIENT	
[00:00:02]: Loading mod: workshop-1458450094 (Auto Trap Reset) Version:2.1	
[00:00:02]: Could not load mod_config_data/modconfiguration_workshop-1595631294_CLIENT	
[00:00:02]: Loading mod: workshop-1595631294 (Smart Minisign) Version:1.1.5	
[00:00:02]: Could not load mod_config_data/modconfiguration_workshop-1682381560_CLIENT	
[00:00:02]: Loading mod: workshop-1682381560 (Level Up System) Version:1.1	
[00:00:02]: Could not load mod_config_data/modconfiguration_workshop-374550642_CLIENT	
[00:00:02]: Loading mod: workshop-374550642 (Increased Stack size) Version:1.62	
[00:00:02]: Could not load mod_config_data/modconfiguration_workshop-375850593_CLIENT	
[00:00:02]: Loading mod: workshop-375850593 (Extra Equip Slots) Version:1.8.0	
[00:00:02]: Could not load mod_config_data/modconfiguration_workshop-378160973_CLIENT	
[00:00:02]: Loading mod: workshop-378160973 (Global Positions) Version:1.7.3	
[00:00:02]: Could not load mod_config_data/modconfiguration_workshop-501385076_CLIENT	
[00:00:02]: Loading mod: workshop-501385076 (Quick Pick) Version:1.4.0	
[00:00:02]: Could not load mod_config_data/modconfiguration_workshop-1207269058_CLIENT	
[00:00:02]: Loading mod: workshop-1207269058 ( Simple Health Bar DST) Version:2.15	
[00:00:02]: Could not load mod_config_data/modconfiguration_workshop-1185229307_CLIENT	
[00:00:02]: Loading mod: workshop-1185229307 (Epic Healthbar) Version:9.2	
[00:00:02]: Could not load mod_config_data/modconfiguration_workshop-666155465_CLIENT	
[00:00:02]: Loading mod: workshop-666155465 (Show Me (Origin)) Version:0.57	
[00:00:02]: applying configuration_options from modoverrides.lua to mod workshop-374550642	
[00:00:02]: Overriding mod workshop-374550642's option MAXSTACKSIZE with value 99	
[00:00:02]: applying configuration_options from modoverrides.lua to mod workshop-378160973	
[00:00:02]: Overriding mod workshop-378160973's option FIREOPTIONS with value 2	
[00:00:02]: Overriding mod workshop-378160973's option SHOWFIREICONS with value true	
[00:00:02]: Overriding mod workshop-378160973's option SHAREMINIMAPPROGRESS with value true	
[00:00:02]: Overriding mod workshop-378160973's option SHOWPLAYERICONS with value true	
[00:00:02]: Overriding mod workshop-378160973's option OVERRIDEMODE with value false	
[00:00:02]: Overriding mod workshop-378160973's option SHOWPLAYERSOPTIONS with value 2	
[00:00:02]: Overriding mod workshop-378160973's option ENABLEPINGS with value true	
[00:00:02]: applying configuration_options from modoverrides.lua to mod workshop-1682381560	
[00:00:02]: Overriding mod workshop-1682381560's option EXP_PERCENT with value 1	
[00:00:02]: Overriding mod workshop-1682381560's option SHOWINFO with value 118	
[00:00:02]: Overriding mod workshop-1682381560's option INITIAL_STATE with value 1	
[00:00:02]: applying configuration_options from modoverrides.lua to mod workshop-375850593	
[00:00:02]: applying configuration_options from modoverrides.lua to mod workshop-1207269058	
[00:00:02]: applying configuration_options from modoverrides.lua to mod workshop-1185229307	
[00:00:02]: Overriding mod workshop-1185229307's option  with value 	
[00:00:02]: Overriding mod workshop-1185229307's option  with value 	
[00:00:02]: Overriding mod workshop-1185229307's option WETNESS_METER with value false	
[00:00:02]: Overriding mod workshop-1185229307's option NOEPIC with value false	
[00:00:02]: Overriding mod workshop-1185229307's option FRAME_PHASES with value true	
[00:00:02]: Overriding mod workshop-1185229307's option DAMAGE_NUMBERS with value true	
[00:00:02]: Overriding mod workshop-1185229307's option NONOEPIC with value false	
[00:00:02]: Overriding mod workshop-1185229307's option DAMAGE_RESISTANCE with value true	
[00:00:02]: Overriding mod workshop-1185229307's option HORIZONTAL_OFFSET with value 0	
[00:00:02]: applying configuration_options from modoverrides.lua to mod workshop-1280567941	
[00:00:02]: Overriding mod workshop-1280567941's option color with value 0.5	
[00:00:02]: Overriding mod workshop-1280567941's option language with value 2	
[00:00:02]: Overriding mod workshop-1280567941's option alpha with value 0.5	
[00:00:02]: Overriding mod workshop-1280567941's option chestwithsign with value 0	
[00:00:02]: applying configuration_options from modoverrides.lua to mod workshop-501385076	
[00:00:02]: Overriding mod workshop-501385076's option quick_pick_cactus with value true	
[00:00:02]: Overriding mod workshop-501385076's option quick_pick_plant_normal_ground with value true	
[00:00:02]: Overriding mod workshop-501385076's option quick_cook_on_fire with value true	
[00:00:02]: Overriding mod workshop-501385076's option quick_harvest with value true	
[00:00:02]: applying configuration_options from modoverrides.lua to mod workshop-666155465	
[00:00:02]: Overriding mod workshop-666155465's option chestR with value -1	
[00:00:02]: Overriding mod workshop-666155465's option food_style with value 0	
[00:00:02]: Overriding mod workshop-666155465's option display_hp with value -1	
[00:00:02]: Overriding mod workshop-666155465's option show_uses with value -1	
[00:00:02]: Overriding mod workshop-666155465's option show_food_units with value -1	
[00:00:02]: Overriding mod workshop-666155465's option lang with value auto	
[00:00:02]: Overriding mod workshop-666155465's option chestB with value -1	
[00:00:02]: Overriding mod workshop-666155465's option food_order with value 0	
[00:00:02]: Overriding mod workshop-666155465's option chestG with value -1	
[00:00:02]: Overriding mod workshop-666155465's option food_estimation with value -1	
[00:00:02]: applying configuration_options from modoverrides.lua to mod workshop-1458450094	
[00:00:02]: Overriding mod workshop-1458450094's option  with value 0	
[00:00:02]: Overriding mod workshop-1458450094's option  with value 0	
[00:00:02]: Overriding mod workshop-1458450094's option  with value 0	
[00:00:02]: Overriding mod workshop-1458450094's option  with value 0	
[00:00:02]: Overriding mod workshop-1458450094's option log with value false	
[00:00:02]: Overriding mod workshop-1458450094's option houndstooth with value false	
[00:00:02]: Overriding mod workshop-1458450094's option livinglog with value false	
[00:00:02]: Overriding mod workshop-1458450094's option stinger with value false	
[00:00:02]: Overriding mod workshop-1458450094's option rope with value false	
[00:00:02]: Overriding mod workshop-1458450094's option retraprandomy with value 120	
[00:00:02]: Overriding mod workshop-1458450094's option mode with value fix	
[00:00:02]: Overriding mod workshop-1458450094's option retraprandomx with value 10	
[00:00:02]: Overriding mod workshop-1458450094's option retrapfix with value 60	
[00:00:02]: applying configuration_options from modoverrides.lua to mod workshop-1595631294	
[00:00:02]: Overriding mod workshop-1595631294's option SaltBox with value false	
[00:00:02]: Overriding mod workshop-1595631294's option BundleItems with value false	
[00:00:02]: Overriding mod workshop-1595631294's option Digornot with value false	
[00:00:02]: Overriding mod workshop-1595631294's option ChangeSkin with value true	
[00:00:02]: Overriding mod workshop-1595631294's option Icebox with value false	
[00:00:02]: Overriding mod workshop-1595631294's option DragonflyChest with value false	
[00:00:02]: Mod: workshop-1185229307 (Epic Healthbar)	Loading modworldgenmain.lua	
[00:00:02]: Mod: workshop-1185229307 (Epic Healthbar)	  Mod had no modworldgenmain.lua. Skipping.	
[00:00:02]: Mod: workshop-1185229307 (Epic Healthbar)	Loading modmain.lua	
[00:00:03]: Mod: workshop-375850593 (Extra Equip Slots)	Loading modworldgenmain.lua	
[00:00:03]: Mod: workshop-375850593 (Extra Equip Slots)	  Mod had no modworldgenmain.lua. Skipping.	
[00:00:03]: Mod: workshop-375850593 (Extra Equip Slots)	Loading modmain.lua	
[00:00:03]: Mod: workshop-666155465 (Show Me (Origin))	Loading modworldgenmain.lua	
[00:00:03]: Mod: workshop-666155465 (Show Me (Origin))	  Mod had no modworldgenmain.lua. Skipping.	
[00:00:03]: Mod: workshop-666155465 (Show Me (Origin))	Loading modmain.lua	
[00:00:03]: ShowMe version:	0.57	
[00:00:03]: show_food_units	-1	-1	-1	
[00:00:03]: show_uses	-1	-1	-1	
[00:00:03]: Detected language for ShowMe: 	auto		
[00:00:03]: Mod: workshop-374550642 (Increased Stack size)	Loading modworldgenmain.lua	
[00:00:03]: Mod: workshop-374550642 (Increased Stack size)	  Mod had no modworldgenmain.lua. Skipping.	
[00:00:03]: Mod: workshop-374550642 (Increased Stack size)	Loading modmain.lua	
[00:00:03]: Mod: workshop-501385076 (Quick Pick)	Loading modworldgenmain.lua	
[00:00:03]: Mod: workshop-501385076 (Quick Pick)	  Mod had no modworldgenmain.lua. Skipping.	
[00:00:03]: Mod: workshop-501385076 (Quick Pick)	Loading modmain.lua	
[00:00:03]: Mod: workshop-1682381560 (Level Up System)	Loading modworldgenmain.lua	
[00:00:03]: Mod: workshop-1682381560 (Level Up System)	  Mod had no modworldgenmain.lua. Skipping.	
[00:00:03]: Mod: workshop-1682381560 (Level Up System)	Loading modmain.lua	
[00:00:03]: modimport: ../mods/workshop-1682381560/scripts/patches/wolfgangchanges.lua	
[00:00:03]: modimport: ../mods/workshop-1682381560/scripts/patches/wx78changes.lua	
[00:00:03]: modimport: ../mods/workshop-1682381560/scripts/patches/playerchanges.lua	
[00:00:03]: Mod: workshop-1280567941 (Construction Planning)	Loading modworldgenmain.lua	
[00:00:03]: Mod: workshop-1280567941 (Construction Planning)	  Mod had no modworldgenmain.lua. Skipping.	
[00:00:03]: Mod: workshop-1280567941 (Construction Planning)	Loading modmain.lua	
[00:00:03]: Mod: workshop-1458450094 (Auto Trap Reset)	Loading modworldgenmain.lua	
[00:00:03]: Mod: workshop-1458450094 (Auto Trap Reset)	  Mod had no modworldgenmain.lua. Skipping.	
[00:00:03]: Mod: workshop-1458450094 (Auto Trap Reset)	Loading modmain.lua	
[00:00:03]: Mod: workshop-378160973 (Global Positions)	Loading modworldgenmain.lua	
[00:00:03]: Mod: workshop-378160973 (Global Positions)	  Mod had no modworldgenmain.lua. Skipping.	
[00:00:03]: Mod: workshop-378160973 (Global Positions)	Loading modmain.lua	
[00:00:03]: ModIndex:GetModsToLoad inserting moddir, 	workshop-1280567941	
[00:00:03]: ModIndex:GetModsToLoad inserting moddir, 	workshop-1458450094	
[00:00:03]: ModIndex:GetModsToLoad inserting moddir, 	workshop-1595631294	
[00:00:03]: ModIndex:GetModsToLoad inserting moddir, 	workshop-1682381560	
[00:00:03]: ModIndex:GetModsToLoad inserting moddir, 	workshop-374550642	
[00:00:03]: ModIndex:GetModsToLoad inserting moddir, 	workshop-375850593	
[00:00:03]: ModIndex:GetModsToLoad inserting moddir, 	workshop-378160973	
[00:00:03]: ModIndex:GetModsToLoad inserting moddir, 	workshop-501385076	
[00:00:03]: ModIndex:GetModsToLoad inserting forcedmoddir, 	workshop-1207269058	
[00:00:03]: ModIndex:GetModsToLoad inserting forcedmoddir, 	workshop-1185229307	
[00:00:03]: ModIndex:GetModsToLoad inserting forcedmoddir, 	workshop-666155465	
[00:00:04]: Mod: workshop-1595631294 (Smart Minisign)	Loading modworldgenmain.lua	
[00:00:04]: Mod: workshop-1595631294 (Smart Minisign)	  Mod had no modworldgenmain.lua. Skipping.	
[00:00:04]: Mod: workshop-1595631294 (Smart Minisign)	Loading modmain.lua	
[00:00:04]: Mod: workshop-1207269058 ( Simple Health Bar DST)	Loading modworldgenmain.lua	
[00:00:04]: Mod: workshop-1207269058 ( Simple Health Bar DST)	  Mod had no modworldgenmain.lua. Skipping.	
[00:00:04]: Mod: workshop-1207269058 ( Simple Health Bar DST)	Loading modmain.lua	
[00:00:04]: Event data unavailable: lavaarena_event_server/lavaarena_achievement_quest_defs
[00:00:06]: LOADING LUA SUCCESS
[00:00:06]: Registering Server mod namespace "workshop-1207269058"
[00:00:06]: Registering Server mod namespace "showme"
[00:00:06]: Registering Server mod namespace "showmeshint"
[00:00:06]: Registering Server mod namespace "workshop-378160973"
[00:00:06]: Registering Server mod namespace "modlevelupsystem"
[00:00:06]: PlayerDeaths could not load morgue	
[00:00:06]: PlayerHistory could not load player_history	
[00:00:06]: ServerPreferences could not load server_preferences	
[00:00:06]: bloom_enabled	true	
[00:00:06]: OnFilesLoaded()	
[00:00:06]: OnUpdatePurchaseStateComplete	
[00:00:06]: Klump load on boot started.	
[00:00:06]: Klump files loaded: 	0	
[00:00:09]: Mod: workshop-1185229307 (Epic Healthbar)	Registering prefabs	
[00:00:09]: Mod: workshop-1185229307 (Epic Healthbar)	  Registering prefab file: prefabs/epichealth_proxy	
[00:00:09]: Mod: workshop-1185229307 (Epic Healthbar)	    epichealth_proxy	
[00:00:09]: Mod: workshop-1185229307 (Epic Healthbar)	  Registering default mod prefab	
[00:00:09]: Mod: workshop-375850593 (Extra Equip Slots)	Registering prefabs	
[00:00:09]: Mod: workshop-375850593 (Extra Equip Slots)	  Registering default mod prefab	
[00:00:09]: Mod: workshop-666155465 (Show Me (Origin))	Registering prefabs	
[00:00:09]: Mod: workshop-666155465 (Show Me (Origin))	  Registering default mod prefab	
[00:00:09]: Mod: workshop-374550642 (Increased Stack size)	Registering prefabs	
[00:00:09]: Mod: workshop-374550642 (Increased Stack size)	  Registering default mod prefab	
[00:00:09]: Mod: workshop-501385076 (Quick Pick)	Registering prefabs	
[00:00:09]: Mod: workshop-501385076 (Quick Pick)	  Registering default mod prefab	
[00:00:09]: Mod: workshop-1682381560 (Level Up System)	Registering prefabs	
[00:00:09]: Mod: workshop-1682381560 (Level Up System)	  Registering default mod prefab	
[00:00:09]: Mod: workshop-1280567941 (Construction Planning)	Registering prefabs	
[00:00:09]: Mod: workshop-1280567941 (Construction Planning)	  Registering prefab file: prefabs/virtualstruct	
[00:00:09]: Mod: workshop-1280567941 (Construction Planning)	    virtualfirepit	
[00:00:09]: Mod: workshop-1280567941 (Construction Planning)	    virtualcoldfirepit	
[00:00:09]: Mod: workshop-1280567941 (Construction Planning)	    virtualmushroom_light	
[00:00:09]: Mod: workshop-1280567941 (Construction Planning)	    virtualmushroom_light2	
[00:00:09]: Mod: workshop-1280567941 (Construction Planning)	    virtualtreasurechest	
[00:00:09]: Mod: workshop-1280567941 (Construction Planning)	    virtualhomesign	
[00:00:09]: Mod: workshop-1280567941 (Construction Planning)	    virtualpighouse	
[00:00:09]: Mod: workshop-1280567941 (Construction Planning)	    virtualrabbithouse	
[00:00:09]: Mod: workshop-1280567941 (Construction Planning)	    virtualbirdcage	
[00:00:09]: Mod: workshop-1280567941 (Construction Planning)	    virtualwardrobe	
[00:00:09]: Mod: workshop-1280567941 (Construction Planning)	    virtualscarecrow	
[00:00:09]: Mod: workshop-1280567941 (Construction Planning)	    virtualwinter_treestand	
[00:00:09]: Mod: workshop-1280567941 (Construction Planning)	    virtualendtable	
[00:00:09]: Mod: workshop-1280567941 (Construction Planning)	    virtualdragonflychest	
[00:00:09]: Mod: workshop-1280567941 (Construction Planning)	    virtualdragonflyfurnace	
[00:00:09]: Mod: workshop-1280567941 (Construction Planning)	    virtualmushroom_farm	
[00:00:09]: Mod: workshop-1280567941 (Construction Planning)	    virtualbeebox	
[00:00:09]: Mod: workshop-1280567941 (Construction Planning)	    virtualmeatrack	
[00:00:09]: Mod: workshop-1280567941 (Construction Planning)	    virtualcookpot	
[00:00:09]: Mod: workshop-1280567941 (Construction Planning)	    virtualicebox	
[00:00:09]: Mod: workshop-1280567941 (Construction Planning)	    virtualtent	
[00:00:09]: Mod: workshop-1280567941 (Construction Planning)	    virtualsiestahut	
[00:00:09]: Mod: workshop-1280567941 (Construction Planning)	    virtualsaltlick	
[00:00:09]: Mod: workshop-1280567941 (Construction Planning)	    virtualresearchlab	
[00:00:09]: Mod: workshop-1280567941 (Construction Planning)	    virtualresearchlab2	
[00:00:09]: Mod: workshop-1280567941 (Construction Planning)	    virtualresearchlab3	
[00:00:09]: Mod: workshop-1280567941 (Construction Planning)	    virtualresearchlab4	
[00:00:09]: Mod: workshop-1280567941 (Construction Planning)	    virtualcartographydesk	
[00:00:09]: Mod: workshop-1280567941 (Construction Planning)	    virtualsculptingtable	
[00:00:09]: Mod: workshop-1280567941 (Construction Planning)	    virtuallightning_rod	
[00:00:09]: Mod: workshop-1280567941 (Construction Planning)	    virtualsentryward	
[00:00:09]: Mod: workshop-1280567941 (Construction Planning)	    virtualmoondial	
[00:00:09]: Mod: workshop-1280567941 (Construction Planning)	    virtualtownportal	
[00:00:09]: Mod: workshop-1280567941 (Construction Planning)	    virtualgrass	
[00:00:09]: Mod: workshop-1280567941 (Construction Planning)	    virtualsapling	
[00:00:09]: Mod: workshop-1280567941 (Construction Planning)	    virtualberrybush	
[00:00:09]: Mod: workshop-1280567941 (Construction Planning)	    virtualberrybush2	
[00:00:09]: Mod: workshop-1280567941 (Construction Planning)	    virtualberrybush_juicy	
[00:00:09]: Mod: workshop-1280567941 (Construction Planning)	  Registering prefab file: prefabs/virtualwall	
[00:00:09]: Mod: workshop-1280567941 (Construction Planning)	    virtualwall_stone_item	
[00:00:09]: Mod: workshop-1280567941 (Construction Planning)	    virtualwall_stone	
[00:00:09]: Mod: workshop-1280567941 (Construction Planning)	    virtualwall_stone_item_placer	
[00:00:09]: Mod: workshop-1280567941 (Construction Planning)	  Registering prefab file: prefabs/virtualplantable	
[00:00:09]: Mod: workshop-1280567941 (Construction Planning)	    virtualdug_berrybush	
[00:00:09]: Mod: workshop-1280567941 (Construction Planning)	    virtualdug_berrybush_placer	
[00:00:09]: Mod: workshop-1280567941 (Construction Planning)	    virtualdug_berrybush2	
[00:00:09]: Mod: workshop-1280567941 (Construction Planning)	    virtualdug_berrybush2_placer	
[00:00:09]: Mod: workshop-1280567941 (Construction Planning)	    virtualdug_berrybush_juicy	
[00:00:09]: Mod: workshop-1280567941 (Construction Planning)	    virtualdug_berrybush_juicy_placer	
[00:00:09]: Mod: workshop-1280567941 (Construction Planning)	    virtualdug_sapling	
[00:00:09]: Mod: workshop-1280567941 (Construction Planning)	    virtualdug_sapling_placer	
[00:00:09]: Mod: workshop-1280567941 (Construction Planning)	    virtualdug_grass	
[00:00:09]: Mod: workshop-1280567941 (Construction Planning)	    virtualdug_grass_placer	
[00:00:09]: Mod: workshop-1280567941 (Construction Planning)	    virtualdug_marsh_bush	
[00:00:09]: Mod: workshop-1280567941 (Construction Planning)	    virtualdug_marsh_bush_placer	
[00:00:09]: Mod: workshop-1280567941 (Construction Planning)	  Registering prefab file: prefabs/virtualfarmplot	
[00:00:09]: Mod: workshop-1280567941 (Construction Planning)	    virtualfast_farmplot	
[00:00:09]: Mod: workshop-1280567941 (Construction Planning)	    virtualfast_farmplot_placer	
[00:00:09]: Mod: workshop-1280567941 (Construction Planning)	  Registering prefab file: prefabs/virtualfiresuppressor	
[00:00:09]: Mod: workshop-1280567941 (Construction Planning)	    virtualfiresuppressor	
[00:00:09]: Mod: workshop-1280567941 (Construction Planning)	  Registering prefab file: prefabs/virtualfence	
[00:00:09]: Mod: workshop-1280567941 (Construction Planning)	    virtualfence	
[00:00:09]: Mod: workshop-1280567941 (Construction Planning)	    virtualfence_item	
[00:00:09]: Mod: workshop-1280567941 (Construction Planning)	    virtualfence_item_placer	
[00:00:09]: Mod: workshop-1280567941 (Construction Planning)	    virtualfence_gate	
[00:00:09]: Mod: workshop-1280567941 (Construction Planning)	    virtualfence_gate_item	
[00:00:09]: Mod: workshop-1280567941 (Construction Planning)	    virtualfence_gate_item_placer	
[00:00:09]: Mod: workshop-1280567941 (Construction Planning)	  Registering default mod prefab	
[00:00:10]: Mod: workshop-1458450094 (Auto Trap Reset)	Registering prefabs	
[00:00:10]: Mod: workshop-1458450094 (Auto Trap Reset)	  Registering default mod prefab	
[00:00:10]: Mod: workshop-378160973 (Global Positions)	Registering prefabs	
[00:00:10]: Mod: workshop-378160973 (Global Positions)	  Registering prefab file: prefabs/globalposition_classified	
[00:00:10]: Mod: workshop-378160973 (Global Positions)	    globalposition_classified	
[00:00:10]: Mod: workshop-378160973 (Global Positions)	  Registering prefab file: prefabs/smoketrail	
[00:00:10]: Mod: workshop-378160973 (Global Positions)	    smoketrail	
[00:00:10]: Mod: workshop-378160973 (Global Positions)	  Registering prefab file: prefabs/globalmapicon_noproxy	
[00:00:10]: Mod: workshop-378160973 (Global Positions)	    globalmapicon_noproxy	
[00:00:10]: Mod: workshop-378160973 (Global Positions)	  Registering prefab file: prefabs/worldmapexplorer	
[00:00:10]: Mod: workshop-378160973 (Global Positions)	    worldmapexplorer	
[00:00:10]: Mod: workshop-378160973 (Global Positions)	  Registering prefab file: prefabs/pings	
[00:00:10]: Mod: workshop-378160973 (Global Positions)	    ping_generic	
[00:00:10]: Mod: workshop-378160973 (Global Positions)	    ping_omw	
[00:00:10]: Mod: workshop-378160973 (Global Positions)	    ping_danger	
[00:00:10]: Mod: workshop-378160973 (Global Positions)	    ping_explore	
[00:00:10]: Mod: workshop-378160973 (Global Positions)	    ping_gohere	
[00:00:10]: Mod: workshop-378160973 (Global Positions)	  Registering default mod prefab	
[00:00:10]: Mod: workshop-1595631294 (Smart Minisign)	Registering prefabs	
[00:00:10]: Mod: workshop-1595631294 (Smart Minisign)	  Registering default mod prefab	
[00:00:10]: Mod: workshop-1207269058 ( Simple Health Bar DST)	Registering prefabs	
[00:00:10]: Mod: workshop-1207269058 ( Simple Health Bar DST)	  Registering prefab file: prefabs/dychealthbar	
[00:00:12]: Mod: workshop-1207269058 ( Simple Health Bar DST)	    dyc_damagedisplay	
[00:00:12]: Mod: workshop-1207269058 ( Simple Health Bar DST)	    dyc_healthbarchild	
[00:00:12]: Mod: workshop-1207269058 ( Simple Health Bar DST)	    dyc_healthbar	
[00:00:12]: Mod: workshop-1207269058 ( Simple Health Bar DST)	  Registering default mod prefab	
[00:00:12]: 	Load FE	
[00:00:15]: 	Load FE: done	
[00:00:15]: THREAD - started 'FilesExistAsyncThread' (8108)
[00:00:15]: FilesExistAsyncThread started (19097 files)...
[00:00:15]: Check for write access: TRUE
[00:00:15]: Check for read access: TRUE
[00:00:15]: Available disk space for save files: 90062 MB
[00:00:15]: ModIndex: Load sequence finished successfully.	
[00:00:15]: Reset() returning
[00:00:15]: [IPC] Signal 'DST_Secondary_Kill' opened  #00000000000008F4
[00:00:15]: [IPC] Registering handler for signal #00000000000008F4
[00:00:15]: [IPC] Handle #00000000000008F4 added to the Eventhandles
[00:00:15]: [IPC] Signal 'DST_Secondary_Starting' opened  #00000000000008C8
[00:00:15]: [IPC] Sending signal... #00000000000008C8
[00:00:17]: [200] Account Communication Success (6)
[00:00:17]: Received (KU_ZLAVBAna) from TokenPurpose
[00:00:17]: Starting Dedicated Server Game	
[00:00:17]: Network tick rate: U=15(2), D=0
[00:00:17]: About to start a server with the following settings:
[00:00:17]:   Dedicated: true
[00:00:17]:   Online: true
[00:00:17]:   Passworded: true
[00:00:17]:   ServerPort: 10998
[00:00:17]:   SteamAuthPort: 8767
[00:00:17]:   SteamMasterServerPort: 27017
[00:00:17]:   ClanID: false
[00:00:17]:   ClanOnly: false
[00:00:17]:   ClanAdmin: false
[00:00:17]:   LanOnly: false
[00:00:17]:   FriendsOnly: false
[00:00:17]:   EnableAutosaver: true
[00:00:17]:   EncodeUserPath: true
[00:00:17]:   PVP: false
[00:00:17]:   MaxPlayers: 6
[00:00:17]:   GameMode: endless
[00:00:17]:   OverridenDNS: 
[00:00:17]:   PauseWhenEmpty: true
[00:00:17]:   IdleTimeout: 1800s
[00:00:17]:   VoteEnabled: false
[00:00:17]:   InternetBroadcasting: true
[00:00:17]:   Intent: cooperative
[00:00:17]: [Warning] Could not confirm port 10998 is open in the firewall. 
[00:00:17]: Could not load mod_config_data/modconfiguration_workshop-1682381560	
[00:00:17]: Could not load mod_config_data/modconfiguration_workshop-1207269058	
[00:00:17]: Could not load mod_config_data/modconfiguration_workshop-375850593	
[00:00:17]: Could not load mod_config_data/modconfiguration_workshop-1595631294	
[00:00:17]: Could not load mod_config_data/modconfiguration_workshop-1280567941	
[00:00:17]: Could not load mod_config_data/modconfiguration_workshop-374550642	
[00:00:17]: Could not load mod_config_data/modconfiguration_workshop-378160973	
[00:00:17]: Could not load mod_config_data/modconfiguration_workshop-666155465	
[00:00:17]: Could not load mod_config_data/modconfiguration_workshop-1185229307	
[00:00:17]: Online Server Started on port: 10998
[00:00:17]: SUCCESS: Loaded modoverrides.lua	
[00:00:17]: Found a level data override file with these contents:	
[00:00:17]: 	K: 	background_node_range	 V: 	table: 0000000017D8E6D0	
[00:00:17]: 		K: 	1	 V: 	0	
[00:00:17]: 		K: 	2	 V: 	1	
[00:00:17]: 	K: 	desc	 V: 	Delve into the caves... together!	
[00:00:17]: 	K: 	hideminimap	 V: 	false	
[00:00:17]: 	K: 	id	 V: 	DST_CAVE	
[00:00:17]: 	K: 	location	 V: 	cave	
[00:00:17]: 	K: 	max_playlist_position	 V: 	999	
[00:00:17]: 	K: 	min_playlist_position	 V: 	0	
[00:00:17]: 	K: 	name	 V: 	The Caves	
[00:00:17]: 	K: 	numrandom_set_pieces	 V: 	0	
[00:00:17]: 	K: 	override_level_string	 V: 	false	
[00:00:17]: 	K: 	overrides	 V: 	table: 0000000017D8E3B0	
[00:00:17]: 		K: 	atriumgate	 V: 	default	
[00:00:17]: 		K: 	banana	 V: 	default	
[00:00:17]: 		K: 	bats	 V: 	default	
[00:00:17]: 		K: 	bats_setting	 V: 	default	
[00:00:17]: 		K: 	beefaloheat	 V: 	default	
[00:00:17]: 		K: 	berrybush	 V: 	default	
[00:00:17]: 		K: 	boons	 V: 	default	
[00:00:17]: 		K: 	branching	 V: 	default	
[00:00:17]: 		K: 	brightmarecreatures	 V: 	default	
[00:00:17]: 		K: 	bunnymen	 V: 	default	
[00:00:17]: 		K: 	bunnymen_setting	 V: 	default	
[00:00:17]: 		K: 	cave_ponds	 V: 	default	
[00:00:17]: 		K: 	cave_spiders	 V: 	default	
[00:00:17]: 		K: 	cavelight	 V: 	default	
[00:00:17]: 		K: 	chess	 V: 	default	
[00:00:17]: 		K: 	day	 V: 	default	
[00:00:17]: 		K: 	dropeverythingondespawn	 V: 	default	
[00:00:17]: 		K: 	dustmoths	 V: 	default	
[00:00:17]: 		K: 	earthquakes	 V: 	default	
[00:00:17]: 		K: 	extrastartingitems	 V: 	default	
[00:00:17]: 		K: 	fern	 V: 	default	
[00:00:17]: 		K: 	fissure	 V: 	default	
[00:00:17]: 		K: 	flint	 V: 	default	
[00:00:17]: 		K: 	flower_cave	 V: 	default	
[00:00:17]: 		K: 	flower_cave_regrowth	 V: 	default	
[00:00:17]: 		K: 	fruitfly	 V: 	default	
[00:00:17]: 		K: 	grass	 V: 	default	
[00:00:17]: 		K: 	grassgekkos	 V: 	default	
[00:00:17]: 		K: 	krampus	 V: 	default	
[00:00:17]: 		K: 	layout_mode	 V: 	RestrictNodesByKey	
[00:00:17]: 		K: 	lichen	 V: 	default	
[00:00:17]: 		K: 	liefs	 V: 	default	
[00:00:17]: 		K: 	lightflier_flower_regrowth	 V: 	default	
[00:00:17]: 		K: 	lightfliers	 V: 	default	
[00:00:17]: 		K: 	loop	 V: 	default	
[00:00:17]: 		K: 	marshbush	 V: 	default	
[00:00:17]: 		K: 	merms	 V: 	default	
[00:00:17]: 		K: 	molebats	 V: 	default	
[00:00:17]: 		K: 	moles_setting	 V: 	default	
[00:00:17]: 		K: 	monkey	 V: 	default	
[00:00:17]: 		K: 	monkey_setting	 V: 	default	
[00:00:17]: 		K: 	mushgnome	 V: 	default	
[00:00:17]: 		K: 	mushroom	 V: 	default	
[00:00:17]: 		K: 	mushtree	 V: 	default	
[00:00:17]: 		K: 	mushtree_moon_regrowth	 V: 	default	
[00:00:17]: 		K: 	mushtree_regrowth	 V: 	default	
[00:00:17]: 		K: 	nightmarecreatures	 V: 	default	
[00:00:17]: 		K: 	pigs_setting	 V: 	default	
[00:00:17]: 		K: 	prefabswaps_start	 V: 	default	
[00:00:17]: 		K: 	reeds	 V: 	default	
[00:00:17]: 		K: 	regrowth	 V: 	default	
[00:00:17]: 		K: 	roads	 V: 	never	
[00:00:17]: 		K: 	rock	 V: 	default	
[00:00:17]: 		K: 	rocky	 V: 	default	
[00:00:17]: 		K: 	rocky_setting	 V: 	default	
[00:00:17]: 		K: 	sapling	 V: 	default	
[00:00:17]: 		K: 	season_start	 V: 	default	
[00:00:17]: 		K: 	seasonalstartingitems	 V: 	default	
[00:00:17]: 		K: 	shadowcreatures	 V: 	default	
[00:00:17]: 		K: 	slurper	 V: 	default	
[00:00:17]: 		K: 	slurtles	 V: 	default	
[00:00:17]: 		K: 	slurtles_setting	 V: 	default	
[00:00:17]: 		K: 	snurtles	 V: 	default	
[00:00:17]: 		K: 	spawnprotection	 V: 	default	
[00:00:17]: 		K: 	specialevent	 V: 	default	
[00:00:17]: 		K: 	spider_dropper	 V: 	default	
[00:00:17]: 		K: 	spider_hider	 V: 	default	
[00:00:17]: 		K: 	spider_spitter	 V: 	default	
[00:00:17]: 		K: 	spider_warriors	 V: 	default	
[00:00:17]: 		K: 	spiderqueen	 V: 	default	
[00:00:17]: 		K: 	spiders	 V: 	default	
[00:00:17]: 		K: 	spiders_setting	 V: 	default	
[00:00:17]: 		K: 	start_location	 V: 	caves	
[00:00:17]: 		K: 	task_set	 V: 	cave_default	
[00:00:17]: 		K: 	tentacles	 V: 	default	
[00:00:17]: 		K: 	toadstool	 V: 	default	
[00:00:17]: 		K: 	touchstone	 V: 	default	
[00:00:17]: 		K: 	trees	 V: 	default	
[00:00:17]: 		K: 	weather	 V: 	default	
[00:00:17]: 		K: 	world_size	 V: 	default	
[00:00:17]: 		K: 	wormattacks	 V: 	default	
[00:00:17]: 		K: 	wormhole_prefab	 V: 	tentacle_pillar	
[00:00:17]: 		K: 	wormlights	 V: 	default	
[00:00:17]: 		K: 	worms	 V: 	default	
[00:00:17]: 	K: 	required_prefabs	 V: 	table: 0000000017D8DB40	
[00:00:17]: 		K: 	1	 V: 	multiplayer_portal	
[00:00:17]: 	K: 	settings_desc	 V: 	Delve into the caves... together!	
[00:00:17]: 	K: 	settings_id	 V: 	DST_CAVE	
[00:00:17]: 	K: 	settings_name	 V: 	The Caves	
[00:00:17]: 	K: 	substitutes	 V: 	table: 0000000017D8DB90	
[00:00:17]: 	K: 	version	 V: 	4	
[00:00:17]: 	K: 	worldgen_desc	 V: 	Delve into the caves... together!	
[00:00:17]: 	K: 	worldgen_id	 V: 	DST_CAVE	
[00:00:17]: 	K: 	worldgen_name	 V: 	The Caves	
[00:00:17]: Loaded and applied level data override from ../leveldataoverride.lua	
[00:00:17]: Overwriting savedata with level data file.	
[00:00:17]: Not applying world gen overrides.	
[00:00:17]: Collecting garbage...
[00:00:17]: lua_gc took 0.05 seconds
[00:00:17]: ~ShardLuaProxy()
[00:00:17]: ~cEventLeaderboardProxy()
[00:00:17]: ~ItemServerLuaProxy()
[00:00:17]: ~InventoryLuaProxy()
[00:00:17]: ~NetworkLuaProxy()
[00:00:17]: ~SimLuaProxy()
[00:00:17]: FilesExistAsyncThread aborted.
[00:00:18]: ... FilesExistAsyncThread complete
[00:00:18]: lua_close took 0.18 seconds
[00:00:18]: ReleaseAll
[00:00:18]: ReleaseAll Finished
[00:00:18]: cGame::StartPlaying
[00:00:18]: AppVersion::GetArchitecture() x64
[00:00:18]: LOADING LUA
[00:00:18]: DoLuaFile scripts/main.lua
[00:00:18]: DoLuaFile loading buffer scripts/main.lua
[00:00:18]:   taskgrouplist:	default	Together	
[00:00:18]:   taskgrouplist:	classic	Classic	
[00:00:18]:   taskgrouplist:	cave_default	Underground	
[00:00:18]:   taskgrouplist:	lavaarena_taskset	The Forge	
[00:00:18]:   taskgrouplist:	quagmire_taskset	The Gorge	
[00:00:18]: running main.lua
	
[00:00:18]: loaded modindex	
[00:00:18]: ModIndex: Beginning normal load sequence for dedicated server.
	
[00:00:18]: SUCCESS: Loaded modoverrides.lua	
[00:00:18]: modoverrides.lua enabling workshop-374550642	
[00:00:18]: modoverrides.lua enabling workshop-378160973	
[00:00:18]: modoverrides.lua enabling workshop-1682381560	
[00:00:18]: modoverrides.lua enabling workshop-375850593	
[00:00:18]: modoverrides.lua enabling workshop-1207269058	
[00:00:18]: modoverrides.lua enabling workshop-1185229307	
[00:00:18]: modoverrides.lua enabling workshop-1280567941	
[00:00:18]: modoverrides.lua enabling workshop-501385076	
[00:00:18]: modoverrides.lua enabling workshop-666155465	
[00:00:18]: modoverrides.lua enabling workshop-1458450094	
[00:00:18]: modoverrides.lua enabling workshop-1595631294	
[00:00:18]: ModIndex:GetModsToLoad inserting moddir, 	workshop-1280567941	
[00:00:18]: ModIndex:GetModsToLoad inserting moddir, 	workshop-1458450094	
[00:00:18]: ModIndex:GetModsToLoad inserting moddir, 	workshop-1595631294	
[00:00:18]: ModIndex:GetModsToLoad inserting moddir, 	workshop-1682381560	
[00:00:18]: ModIndex:GetModsToLoad inserting moddir, 	workshop-374550642	
[00:00:18]: ModIndex:GetModsToLoad inserting moddir, 	workshop-375850593	
[00:00:18]: ModIndex:GetModsToLoad inserting moddir, 	workshop-378160973	
[00:00:18]: ModIndex:GetModsToLoad inserting moddir, 	workshop-501385076	
[00:00:18]: ModIndex:GetModsToLoad inserting forcedmoddir, 	workshop-1207269058	
[00:00:18]: ModIndex:GetModsToLoad inserting forcedmoddir, 	workshop-1185229307	
[00:00:18]: ModIndex:GetModsToLoad inserting forcedmoddir, 	workshop-666155465	
[00:00:18]: Could not load mod_config_data/modconfiguration_workshop-1280567941	
[00:00:18]: Loading mod: workshop-1280567941 (Construction Planning) Version:1.7	
[00:00:18]: Could not load mod_config_data/modconfiguration_workshop-1458450094	
[00:00:18]: Loading mod: workshop-1458450094 (Auto Trap Reset) Version:2.1	
[00:00:18]: Could not load mod_config_data/modconfiguration_workshop-1595631294	
[00:00:18]: Loading mod: workshop-1595631294 (Smart Minisign) Version:1.1.5	
[00:00:18]: Could not load mod_config_data/modconfiguration_workshop-1682381560	
[00:00:18]: Loading mod: workshop-1682381560 (Level Up System) Version:1.1	
[00:00:18]: Could not load mod_config_data/modconfiguration_workshop-374550642	
[00:00:18]: Loading mod: workshop-374550642 (Increased Stack size) Version:1.62	
[00:00:18]: Could not load mod_config_data/modconfiguration_workshop-375850593	
[00:00:18]: Loading mod: workshop-375850593 (Extra Equip Slots) Version:1.8.0	
[00:00:18]: Could not load mod_config_data/modconfiguration_workshop-378160973	
[00:00:18]: Loading mod: workshop-378160973 (Global Positions) Version:1.7.3	
[00:00:18]: Could not load mod_config_data/modconfiguration_workshop-501385076	
[00:00:18]: Loading mod: workshop-501385076 (Quick Pick) Version:1.4.0	
[00:00:18]: Could not load mod_config_data/modconfiguration_workshop-1207269058	
[00:00:18]: Loading mod: workshop-1207269058 ( Simple Health Bar DST) Version:2.15	
[00:00:18]: Could not load mod_config_data/modconfiguration_workshop-1185229307	
[00:00:18]: Loading mod: workshop-1185229307 (Epic Healthbar) Version:9.2	
[00:00:18]: Could not load mod_config_data/modconfiguration_workshop-666155465	
[00:00:18]: Loading mod: workshop-666155465 (Show Me (Origin)) Version:0.57	
[00:00:18]: applying configuration_options from modoverrides.lua to mod workshop-374550642	
[00:00:18]: Overriding mod workshop-374550642's option MAXSTACKSIZE with value 99	
[00:00:18]: applying configuration_options from modoverrides.lua to mod workshop-378160973	
[00:00:18]: Overriding mod workshop-378160973's option FIREOPTIONS with value 2	
[00:00:18]: Overriding mod workshop-378160973's option SHOWFIREICONS with value true	
[00:00:18]: Overriding mod workshop-378160973's option SHAREMINIMAPPROGRESS with value true	
[00:00:18]: Overriding mod workshop-378160973's option SHOWPLAYERICONS with value true	
[00:00:18]: Overriding mod workshop-378160973's option OVERRIDEMODE with value false	
[00:00:18]: Overriding mod workshop-378160973's option SHOWPLAYERSOPTIONS with value 2	
[00:00:18]: Overriding mod workshop-378160973's option ENABLEPINGS with value true	
[00:00:18]: applying configuration_options from modoverrides.lua to mod workshop-1682381560	
[00:00:18]: Overriding mod workshop-1682381560's option EXP_PERCENT with value 1	
[00:00:18]: Overriding mod workshop-1682381560's option SHOWINFO with value 118	
[00:00:18]: Overriding mod workshop-1682381560's option INITIAL_STATE with value 1	
[00:00:18]: applying configuration_options from modoverrides.lua to mod workshop-375850593	
[00:00:18]: applying configuration_options from modoverrides.lua to mod workshop-1207269058	
[00:00:18]: applying configuration_options from modoverrides.lua to mod workshop-1185229307	
[00:00:18]: Overriding mod workshop-1185229307's option  with value 	
[00:00:18]: Overriding mod workshop-1185229307's option  with value 	
[00:00:18]: Overriding mod workshop-1185229307's option WETNESS_METER with value false	
[00:00:18]: Overriding mod workshop-1185229307's option NOEPIC with value false	
[00:00:18]: Overriding mod workshop-1185229307's option FRAME_PHASES with value true	
[00:00:18]: Overriding mod workshop-1185229307's option DAMAGE_NUMBERS with value true	
[00:00:18]: Overriding mod workshop-1185229307's option NONOEPIC with value false	
[00:00:18]: Overriding mod workshop-1185229307's option DAMAGE_RESISTANCE with value true	
[00:00:18]: Overriding mod workshop-1185229307's option HORIZONTAL_OFFSET with value 0	
[00:00:18]: applying configuration_options from modoverrides.lua to mod workshop-1280567941	
[00:00:18]: Overriding mod workshop-1280567941's option color with value 0.5	
[00:00:18]: Overriding mod workshop-1280567941's option language with value 2	
[00:00:18]: Overriding mod workshop-1280567941's option alpha with value 0.5	
[00:00:18]: Overriding mod workshop-1280567941's option chestwithsign with value 0	
[00:00:18]: applying configuration_options from modoverrides.lua to mod workshop-501385076	
[00:00:18]: Overriding mod workshop-501385076's option quick_pick_cactus with value true	
[00:00:18]: Overriding mod workshop-501385076's option quick_pick_plant_normal_ground with value true	
[00:00:18]: Overriding mod workshop-501385076's option quick_cook_on_fire with value true	
[00:00:18]: Overriding mod workshop-501385076's option quick_harvest with value true	
[00:00:18]: applying configuration_options from modoverrides.lua to mod workshop-666155465	
[00:00:18]: Overriding mod workshop-666155465's option chestR with value -1	
[00:00:18]: Overriding mod workshop-666155465's option food_style with value 0	
[00:00:18]: Overriding mod workshop-666155465's option display_hp with value -1	
[00:00:18]: Overriding mod workshop-666155465's option show_uses with value -1	
[00:00:18]: Overriding mod workshop-666155465's option show_food_units with value -1	
[00:00:18]: Overriding mod workshop-666155465's option lang with value auto	
[00:00:18]: Overriding mod workshop-666155465's option chestB with value -1	
[00:00:18]: Overriding mod workshop-666155465's option food_order with value 0	
[00:00:18]: Overriding mod workshop-666155465's option chestG with value -1	
[00:00:18]: Overriding mod workshop-666155465's option food_estimation with value -1	
[00:00:18]: applying configuration_options from modoverrides.lua to mod workshop-1458450094	
[00:00:18]: Overriding mod workshop-1458450094's option  with value 0	
[00:00:18]: Overriding mod workshop-1458450094's option  with value 0	
[00:00:18]: Overriding mod workshop-1458450094's option  with value 0	
[00:00:18]: Overriding mod workshop-1458450094's option  with value 0	
[00:00:18]: Overriding mod workshop-1458450094's option log with value false	
[00:00:18]: Overriding mod workshop-1458450094's option houndstooth with value false	
[00:00:18]: Overriding mod workshop-1458450094's option livinglog with value false	
[00:00:18]: Overriding mod workshop-1458450094's option stinger with value false	
[00:00:18]: Overriding mod workshop-1458450094's option rope with value false	
[00:00:18]: Overriding mod workshop-1458450094's option retraprandomy with value 120	
[00:00:18]: Overriding mod workshop-1458450094's option mode with value fix	
[00:00:18]: Overriding mod workshop-1458450094's option retraprandomx with value 10	
[00:00:18]: Overriding mod workshop-1458450094's option retrapfix with value 60	
[00:00:18]: applying configuration_options from modoverrides.lua to mod workshop-1595631294	
[00:00:18]: Overriding mod workshop-1595631294's option SaltBox with value false	
[00:00:18]: Overriding mod workshop-1595631294's option BundleItems with value false	
[00:00:18]: Overriding mod workshop-1595631294's option Digornot with value false	
[00:00:18]: Overriding mod workshop-1595631294's option ChangeSkin with value true	
[00:00:18]: Overriding mod workshop-1595631294's option Icebox with value false	
[00:00:18]: Overriding mod workshop-1595631294's option DragonflyChest with value false	
[00:00:18]: Mod: workshop-1185229307 (Epic Healthbar)	Loading modworldgenmain.lua	
[00:00:18]: Mod: workshop-1185229307 (Epic Healthbar)	  Mod had no modworldgenmain.lua. Skipping.	
[00:00:18]: Mod: workshop-1185229307 (Epic Healthbar)	Loading modmain.lua	
[00:00:18]: Mod: workshop-375850593 (Extra Equip Slots)	Loading modworldgenmain.lua	
[00:00:18]: Mod: workshop-375850593 (Extra Equip Slots)	  Mod had no modworldgenmain.lua. Skipping.	
[00:00:18]: Mod: workshop-375850593 (Extra Equip Slots)	Loading modmain.lua	
[00:00:18]: Mod: workshop-666155465 (Show Me (Origin))	Loading modworldgenmain.lua	
[00:00:18]: Mod: workshop-666155465 (Show Me (Origin))	  Mod had no modworldgenmain.lua. Skipping.	
[00:00:18]: Mod: workshop-666155465 (Show Me (Origin))	Loading modmain.lua	
[00:00:18]: ShowMe version:	0.57	
[00:00:18]: show_food_units	-1	-1	-1	
[00:00:18]: show_uses	-1	-1	-1	
[00:00:18]: Detected language for ShowMe: 	auto		
[00:00:18]: Mod: workshop-374550642 (Increased Stack size)	Loading modworldgenmain.lua	
[00:00:18]: Mod: workshop-374550642 (Increased Stack size)	  Mod had no modworldgenmain.lua. Skipping.	
[00:00:18]: Mod: workshop-374550642 (Increased Stack size)	Loading modmain.lua	
[00:00:18]: Mod: workshop-501385076 (Quick Pick)	Loading modworldgenmain.lua	
[00:00:18]: Mod: workshop-501385076 (Quick Pick)	  Mod had no modworldgenmain.lua. Skipping.	
[00:00:18]: Mod: workshop-501385076 (Quick Pick)	Loading modmain.lua	
[00:00:18]: Mod: workshop-1682381560 (Level Up System)	Loading modworldgenmain.lua	
[00:00:18]: Mod: workshop-1682381560 (Level Up System)	  Mod had no modworldgenmain.lua. Skipping.	
[00:00:18]: Mod: workshop-1682381560 (Level Up System)	Loading modmain.lua	
[00:00:18]: modimport: ../mods/workshop-1682381560/scripts/patches/wolfgangchanges.lua	
[00:00:18]: modimport: ../mods/workshop-1682381560/scripts/patches/wx78changes.lua	
[00:00:18]: modimport: ../mods/workshop-1682381560/scripts/patches/playerchanges.lua	
[00:00:18]: Mod: workshop-1280567941 (Construction Planning)	Loading modworldgenmain.lua	
[00:00:18]: Mod: workshop-1280567941 (Construction Planning)	  Mod had no modworldgenmain.lua. Skipping.	
[00:00:18]: Mod: workshop-1280567941 (Construction Planning)	Loading modmain.lua	
[00:00:18]: Mod: workshop-1458450094 (Auto Trap Reset)	Loading modworldgenmain.lua	
[00:00:18]: Mod: workshop-1458450094 (Auto Trap Reset)	  Mod had no modworldgenmain.lua. Skipping.	
[00:00:18]: Mod: workshop-1458450094 (Auto Trap Reset)	Loading modmain.lua	
[00:00:18]: Mod: workshop-378160973 (Global Positions)	Loading modworldgenmain.lua	
[00:00:18]: Mod: workshop-378160973 (Global Positions)	  Mod had no modworldgenmain.lua. Skipping.	
[00:00:18]: Mod: workshop-378160973 (Global Positions)	Loading modmain.lua	
[00:00:18]: ModIndex:GetModsToLoad inserting moddir, 	workshop-1280567941	
[00:00:18]: ModIndex:GetModsToLoad inserting moddir, 	workshop-1458450094	
[00:00:18]: ModIndex:GetModsToLoad inserting moddir, 	workshop-1595631294	
[00:00:18]: ModIndex:GetModsToLoad inserting moddir, 	workshop-1682381560	
[00:00:18]: ModIndex:GetModsToLoad inserting moddir, 	workshop-374550642	
[00:00:18]: ModIndex:GetModsToLoad inserting moddir, 	workshop-375850593	
[00:00:18]: ModIndex:GetModsToLoad inserting moddir, 	workshop-378160973	
[00:00:18]: ModIndex:GetModsToLoad inserting moddir, 	workshop-501385076	
[00:00:18]: ModIndex:GetModsToLoad inserting forcedmoddir, 	workshop-1207269058	
[00:00:18]: ModIndex:GetModsToLoad inserting forcedmoddir, 	workshop-1185229307	
[00:00:18]: ModIndex:GetModsToLoad inserting forcedmoddir, 	workshop-666155465	
[00:00:18]: Mod: workshop-1595631294 (Smart Minisign)	Loading modworldgenmain.lua	
[00:00:18]: Mod: workshop-1595631294 (Smart Minisign)	  Mod had no modworldgenmain.lua. Skipping.	
[00:00:18]: Mod: workshop-1595631294 (Smart Minisign)	Loading modmain.lua	
[00:00:18]: Mod: workshop-1207269058 ( Simple Health Bar DST)	Loading modworldgenmain.lua	
[00:00:18]: Mod: workshop-1207269058 ( Simple Health Bar DST)	  Mod had no modworldgenmain.lua. Skipping.	
[00:00:18]: Mod: workshop-1207269058 ( Simple Health Bar DST)	Loading modmain.lua	
[00:00:37]: Event data unavailable: lavaarena_event_server/lavaarena_achievement_quest_defs
[00:00:37]: LOADING LUA SUCCESS
[00:00:37]: Registering Server mod namespace "workshop-1207269058"
[00:00:37]: Registering Server mod namespace "showme"
[00:00:37]: Registering Server mod namespace "showmeshint"
[00:00:37]: Registering Server mod namespace "workshop-378160973"
[00:00:37]: Registering Server mod namespace "modlevelupsystem"
[00:00:37]: PlayerDeaths could not load morgue	
[00:00:37]: PlayerHistory could not load player_history	
[00:00:37]: ServerPreferences could not load server_preferences	
[00:00:37]: bloom_enabled	true	
[00:00:37]: OnFilesLoaded()	
[00:00:37]: OnUpdatePurchaseStateComplete	
[00:00:37]: Loading world: session/7AA56935F2FFDB09/0000000097	
[00:00:37]: Save file is at version 5.09	
[00:00:37]: Klump load on boot started.	
[00:00:37]: Klump files loaded: 	0	
[00:00:37]: 	Unload FE	
[00:00:37]: 	Unload FE done	
[00:01:48]: Mod: workshop-1185229307 (Epic Healthbar)	Registering prefabs	
[00:01:48]: Mod: workshop-1185229307 (Epic Healthbar)	  Registering prefab file: prefabs/epichealth_proxy	
[00:01:48]: Mod: workshop-1185229307 (Epic Healthbar)	    epichealth_proxy	
[00:01:48]: Mod: workshop-1185229307 (Epic Healthbar)	  Registering default mod prefab	
[00:01:48]: Mod: workshop-375850593 (Extra Equip Slots)	Registering prefabs	
[00:01:48]: Mod: workshop-375850593 (Extra Equip Slots)	  Registering default mod prefab	
[00:01:48]: Mod: workshop-666155465 (Show Me (Origin))	Registering prefabs	
[00:01:48]: Mod: workshop-666155465 (Show Me (Origin))	  Registering default mod prefab	
[00:01:48]: Mod: workshop-374550642 (Increased Stack size)	Registering prefabs	
[00:01:48]: Mod: workshop-374550642 (Increased Stack size)	  Registering default mod prefab	
[00:01:48]: Mod: workshop-501385076 (Quick Pick)	Registering prefabs	
[00:01:48]: Mod: workshop-501385076 (Quick Pick)	  Registering default mod prefab	
[00:01:48]: Mod: workshop-1682381560 (Level Up System)	Registering prefabs	
[00:01:48]: Mod: workshop-1682381560 (Level Up System)	  Registering default mod prefab	
[00:01:48]: Mod: workshop-1280567941 (Construction Planning)	Registering prefabs	
[00:01:48]: Mod: workshop-1280567941 (Construction Planning)	  Registering prefab file: prefabs/virtualstruct	
[00:01:48]: Mod: workshop-1280567941 (Construction Planning)	    virtualfirepit	
[00:01:48]: Mod: workshop-1280567941 (Construction Planning)	    virtualcoldfirepit	
[00:01:48]: Mod: workshop-1280567941 (Construction Planning)	    virtualmushroom_light	
[00:01:48]: Mod: workshop-1280567941 (Construction Planning)	    virtualmushroom_light2	
[00:01:48]: Mod: workshop-1280567941 (Construction Planning)	    virtualtreasurechest	
[00:01:48]: Mod: workshop-1280567941 (Construction Planning)	    virtualhomesign	
[00:01:48]: Mod: workshop-1280567941 (Construction Planning)	    virtualpighouse	
[00:01:48]: Mod: workshop-1280567941 (Construction Planning)	    virtualrabbithouse	
[00:01:48]: Mod: workshop-1280567941 (Construction Planning)	    virtualbirdcage	
[00:01:48]: Mod: workshop-1280567941 (Construction Planning)	    virtualwardrobe	
[00:01:48]: Mod: workshop-1280567941 (Construction Planning)	    virtualscarecrow	
[00:01:48]: Mod: workshop-1280567941 (Construction Planning)	    virtualwinter_treestand	
[00:01:48]: Mod: workshop-1280567941 (Construction Planning)	    virtualendtable	
[00:01:48]: Mod: workshop-1280567941 (Construction Planning)	    virtualdragonflychest	
[00:01:48]: Mod: workshop-1280567941 (Construction Planning)	    virtualdragonflyfurnace	
[00:01:48]: Mod: workshop-1280567941 (Construction Planning)	    virtualmushroom_farm	
[00:01:48]: Mod: workshop-1280567941 (Construction Planning)	    virtualbeebox	
[00:01:48]: Mod: workshop-1280567941 (Construction Planning)	    virtualmeatrack	
[00:01:48]: Mod: workshop-1280567941 (Construction Planning)	    virtualcookpot	
[00:01:48]: Mod: workshop-1280567941 (Construction Planning)	    virtualicebox	
[00:01:48]: Mod: workshop-1280567941 (Construction Planning)	    virtualtent	
[00:01:48]: Mod: workshop-1280567941 (Construction Planning)	    virtualsiestahut	
[00:01:48]: Mod: workshop-1280567941 (Construction Planning)	    virtualsaltlick	
[00:01:48]: Mod: workshop-1280567941 (Construction Planning)	    virtualresearchlab	
[00:01:48]: Mod: workshop-1280567941 (Construction Planning)	    virtualresearchlab2	
[00:01:48]: Mod: workshop-1280567941 (Construction Planning)	    virtualresearchlab3	
[00:01:48]: Mod: workshop-1280567941 (Construction Planning)	    virtualresearchlab4	
[00:01:48]: Mod: workshop-1280567941 (Construction Planning)	    virtualcartographydesk	
[00:01:48]: Mod: workshop-1280567941 (Construction Planning)	    virtualsculptingtable	
[00:01:48]: Mod: workshop-1280567941 (Construction Planning)	    virtuallightning_rod	
[00:01:48]: Mod: workshop-1280567941 (Construction Planning)	    virtualsentryward	
[00:01:48]: Mod: workshop-1280567941 (Construction Planning)	    virtualmoondial	
[00:01:48]: Mod: workshop-1280567941 (Construction Planning)	    virtualtownportal	
[00:01:48]: Mod: workshop-1280567941 (Construction Planning)	    virtualgrass	
[00:01:48]: Mod: workshop-1280567941 (Construction Planning)	    virtualsapling	
[00:01:48]: Mod: workshop-1280567941 (Construction Planning)	    virtualberrybush	
[00:01:48]: Mod: workshop-1280567941 (Construction Planning)	    virtualberrybush2	
[00:01:48]: Mod: workshop-1280567941 (Construction Planning)	    virtualberrybush_juicy	
[00:01:48]: Mod: workshop-1280567941 (Construction Planning)	  Registering prefab file: prefabs/virtualwall	
[00:01:48]: Mod: workshop-1280567941 (Construction Planning)	    virtualwall_stone_item	
[00:01:48]: Mod: workshop-1280567941 (Construction Planning)	    virtualwall_stone	
[00:01:48]: Mod: workshop-1280567941 (Construction Planning)	    virtualwall_stone_item_placer	
[00:01:48]: Mod: workshop-1280567941 (Construction Planning)	  Registering prefab file: prefabs/virtualplantable	
[00:01:48]: Mod: workshop-1280567941 (Construction Planning)	    virtualdug_berrybush	
[00:01:48]: Mod: workshop-1280567941 (Construction Planning)	    virtualdug_berrybush_placer	
[00:01:48]: Mod: workshop-1280567941 (Construction Planning)	    virtualdug_berrybush2	
[00:01:48]: Mod: workshop-1280567941 (Construction Planning)	    virtualdug_berrybush2_placer	
[00:01:48]: Mod: workshop-1280567941 (Construction Planning)	    virtualdug_berrybush_juicy	
[00:01:48]: Mod: workshop-1280567941 (Construction Planning)	    virtualdug_berrybush_juicy_placer	
[00:01:48]: Mod: workshop-1280567941 (Construction Planning)	    virtualdug_sapling	
[00:01:48]: Mod: workshop-1280567941 (Construction Planning)	    virtualdug_sapling_placer	
[00:01:48]: Mod: workshop-1280567941 (Construction Planning)	    virtualdug_grass	
[00:01:48]: Mod: workshop-1280567941 (Construction Planning)	    virtualdug_grass_placer	
[00:01:48]: Mod: workshop-1280567941 (Construction Planning)	    virtualdug_marsh_bush	
[00:01:48]: Mod: workshop-1280567941 (Construction Planning)	    virtualdug_marsh_bush_placer	
[00:01:48]: Mod: workshop-1280567941 (Construction Planning)	  Registering prefab file: prefabs/virtualfarmplot	
[00:01:48]: Mod: workshop-1280567941 (Construction Planning)	    virtualfast_farmplot	
[00:01:48]: Mod: workshop-1280567941 (Construction Planning)	    virtualfast_farmplot_placer	
[00:01:48]: Mod: workshop-1280567941 (Construction Planning)	  Registering prefab file: prefabs/virtualfiresuppressor	
[00:01:48]: Mod: workshop-1280567941 (Construction Planning)	    virtualfiresuppressor	
[00:01:48]: Mod: workshop-1280567941 (Construction Planning)	  Registering prefab file: prefabs/virtualfence	
[00:01:48]: Mod: workshop-1280567941 (Construction Planning)	    virtualfence	
[00:01:48]: Mod: workshop-1280567941 (Construction Planning)	    virtualfence_item	
[00:01:48]: Mod: workshop-1280567941 (Construction Planning)	    virtualfence_item_placer	
[00:01:48]: Mod: workshop-1280567941 (Construction Planning)	    virtualfence_gate	
[00:01:48]: Mod: workshop-1280567941 (Construction Planning)	    virtualfence_gate_item	
[00:01:48]: Mod: workshop-1280567941 (Construction Planning)	    virtualfence_gate_item_placer	
[00:01:48]: Mod: workshop-1280567941 (Construction Planning)	  Registering default mod prefab	
[00:01:48]: Mod: workshop-1458450094 (Auto Trap Reset)	Registering prefabs	
[00:01:48]: Mod: workshop-1458450094 (Auto Trap Reset)	  Registering default mod prefab	
[00:01:48]: Mod: workshop-378160973 (Global Positions)	Registering prefabs	
[00:01:48]: Mod: workshop-378160973 (Global Positions)	  Registering prefab file: prefabs/globalposition_classified	
[00:01:48]: Mod: workshop-378160973 (Global Positions)	    globalposition_classified	
[00:01:48]: Mod: workshop-378160973 (Global Positions)	  Registering prefab file: prefabs/smoketrail	
[00:01:48]: Mod: workshop-378160973 (Global Positions)	    smoketrail	
[00:01:48]: Mod: workshop-378160973 (Global Positions)	  Registering prefab file: prefabs/globalmapicon_noproxy	
[00:01:48]: Mod: workshop-378160973 (Global Positions)	    globalmapicon_noproxy	
[00:01:48]: Mod: workshop-378160973 (Global Positions)	  Registering prefab file: prefabs/worldmapexplorer	
[00:01:48]: Mod: workshop-378160973 (Global Positions)	    worldmapexplorer	
[00:01:48]: Mod: workshop-378160973 (Global Positions)	  Registering prefab file: prefabs/pings	
[00:01:48]: Mod: workshop-378160973 (Global Positions)	    ping_generic	
[00:01:48]: Mod: workshop-378160973 (Global Positions)	    ping_omw	
[00:01:48]: Mod: workshop-378160973 (Global Positions)	    ping_danger	
[00:01:48]: Mod: workshop-378160973 (Global Positions)	    ping_explore	
[00:01:48]: Mod: workshop-378160973 (Global Positions)	    ping_gohere	
[00:01:48]: Mod: workshop-378160973 (Global Positions)	  Registering default mod prefab	
[00:01:48]: Mod: workshop-1595631294 (Smart Minisign)	Registering prefabs	
[00:01:48]: Mod: workshop-1595631294 (Smart Minisign)	  Registering default mod prefab	
[00:01:48]: Mod: workshop-1207269058 ( Simple Health Bar DST)	Registering prefabs	
[00:01:48]: Mod: workshop-1207269058 ( Simple Health Bar DST)	  Registering prefab file: prefabs/dychealthbar	
[00:01:48]: Mod: workshop-1207269058 ( Simple Health Bar DST)	    dyc_damagedisplay	
[00:01:48]: Mod: workshop-1207269058 ( Simple Health Bar DST)	    dyc_healthbarchild	
[00:01:48]: Mod: workshop-1207269058 ( Simple Health Bar DST)	    dyc_healthbar	
[00:01:48]: Mod: workshop-1207269058 ( Simple Health Bar DST)	  Registering default mod prefab	
[00:01:48]: 	LOAD BE	
[00:02:33]: 	LOAD BE: done	
[00:02:33]: Begin Session: 7AA56935F2FFDB09
[00:02:33]: saving to server_temp/server_save	
[00:02:34]: MiniMapComponent::AddAtlas( minimap/minimap_data.xml )
[00:02:34]: MiniMapComponent::AddAtlas( ../mods/workshop-378160973/minimap/campfire.xml )
[00:02:34]: MiniMapComponent::AddAtlas( ../mods/workshop-378160973/minimap/ping_generic.xml )
[00:02:34]: MiniMapComponent::AddAtlas( ../mods/workshop-378160973/minimap/ping_gohere.xml )
[00:02:34]: MiniMapComponent::AddAtlas( ../mods/workshop-378160973/minimap/ping_explore.xml )
[00:02:34]: MiniMapComponent::AddAtlas( ../mods/workshop-378160973/minimap/ping_danger.xml )
[00:02:34]: MiniMapComponent::AddAtlas( ../mods/workshop-378160973/minimap/ping_omw.xml )
[00:02:34]: Loading 18 new character(s)	
[00:02:40]: Total 18 character(s) loaded	
[00:02:44]: Loading Nav Grid	
[00:02:44]: World generated on build 487848 with save version: 5.09, using seed: 1639622048	
[00:02:44]: setting 	summerlength	15	
[00:02:44]: setting 	cavemoonphase	half	
[00:02:44]: setting 	iscavefullmoon	false	
[00:02:44]: setting 	isnightmaredawn	false	
[00:02:44]: setting 	elapseddaysinseason	15	
[00:02:44]: setting 	isfullmoon	false	
[00:02:44]: setting 	moisture	5859.4018554688	
[00:02:44]: setting 	cavephase	day	
[00:02:44]: setting 	iscavewaxingmoon	true	
[00:02:44]: setting 	isnightmarewild	true	
[00:02:44]: setting 	nightmaretimeinphase	0.63781414809884	
[00:02:44]: setting 	precipitationrate	0	
[00:02:44]: setting 	iswet	false	
[00:02:44]: setting 	isnewmoon	false	
[00:02:44]: setting 	precipitation	none	
[00:02:44]: setting 	israining	false	
[00:02:44]: setting 	isnightmarewarn	false	
[00:02:44]: setting 	iswinter	false	
[00:02:44]: setting 	season	autumn	
[00:02:44]: setting 	remainingdaysinseason	5	
[00:02:44]: setting 	winterlength	15	
[00:02:44]: setting 	iscaveday	true	
[00:02:44]: setting 	moistureceil	8747.2041015625	
[00:02:44]: setting 	isday	false	
[00:02:44]: setting 	springlength	20	
[00:02:44]: setting 	wetness	0	
[00:02:44]: setting 	iscavedusk	false	
[00:02:44]: setting 	isalterawake	false	
[00:02:44]: setting 	isnightmarecalm	false	
[00:02:44]: setting 	isnight	true	
[00:02:44]: setting 	isdusk	false	
[00:02:44]: setting 	isspring	false	
[00:02:44]: setting 	isautumn	true	
[00:02:44]: setting 	issnowing	false	
[00:02:44]: setting 	iswaxingmoon	true	
[00:02:44]: setting 	phase	night	
[00:02:44]: setting 	snowlevel	0	
[00:02:44]: setting 	issnowcovered	false	
[00:02:44]: setting 	autumnlength	20	
[00:02:44]: setting 	pop	0.64138267357766	
[00:02:44]: setting 	nightmaretime	545.67212221483	
[00:02:44]: setting 	seasonprogress	0.75	
[00:02:44]: setting 	moonphase	new	
[00:02:44]: setting 	nightmarephase	wild	
[00:02:44]: setting 	cycles	85	
[00:02:44]: setting 	timeinphase	0.34910456339518	
[00:02:44]: setting 	iscavenight	false	
[00:02:44]: setting 	iscavenewmoon	false	
[00:02:44]: setting 	issummer	false	
[00:02:44]: setting 	temperature	13.16917637445	
[00:02:44]: setting 	time	0.17455228169759	
[00:02:44]: [Shard] Secondary shard is waiting for LUA...
[00:02:51]: SWITCHING 	false	
[00:02:51]: Reconstructing topology	
[00:02:51]: 	...Sorting points	
[00:02:51]: 	...Sorting edges	
[00:02:51]: 	...Connecting nodes	
[00:02:51]: 	...Validating connections	
[00:02:51]: 	...Housekeeping	
[00:02:51]: 	...Done!	
[00:02:51]: 1 uploads added to server. From server_temp
[00:02:51]: About to start a shard with these settings:
[00:02:51]:   ShardName: Caves
[00:02:51]:   ShardID: 507218932
[00:02:51]:   ShardRole: SECONDARY
[00:02:51]:   MasterHost: 127.0.0.1
[00:02:51]:   MasterBind: (null)
[00:02:51]:   MasterPort: 10888
[00:02:51]: [Shard] Connecting to master...
[00:02:51]: Telling Client our new session identifier: 7AA56935F2FFDB09
[00:02:51]: Check for write access: TRUE
[00:02:51]: Check for read access: TRUE
[00:02:51]: Available disk space for save files: 90061 MB
[00:02:51]: ModIndex: Load sequence finished successfully.	
[00:02:51]: Reset() returning
[00:02:52]: [Shard] Connection to master failed. Waiting to reconnect...
[00:02:52]: Validating portal[9] <-> 1[9] (inactive)	
[00:02:52]: Validating portal[5] <-> 1[5] (inactive)	
[00:02:52]: Validating portal[7] <-> 1[7] (inactive)	
[00:02:52]: Validating portal[3] <-> 1[3] (inactive)	
[00:02:52]: Validating portal[2] <-> 1[2] (inactive)	
[00:02:52]: Validating portal[8] <-> 1[8] (inactive)	
[00:02:52]: Validating portal[4] <-> 1[4] (inactive)	
[00:02:52]: Validating portal[6] <-> 1[6] (inactive)	
[00:02:52]: Validating portal[1] <-> 1[1] (inactive)	
[00:02:52]: Validating portal[10] <-> 1[10] (inactive)	
[00:02:52]: Could not find anim build FROMNUM
[00:02:52]: Could not find anim build FROMNUM
[00:02:52]: Could not find anim build FROMNUM
[00:02:52]: Could not find anim build FROMNUM
[00:02:52]: Could not find anim build FROMNUM
[00:02:57]: About to start a shard with these settings:
[00:02:57]:   ShardName: Caves
[00:02:57]:   ShardID: 507218932
[00:02:57]:   ShardRole: SECONDARY
[00:02:57]:   MasterHost: 127.0.0.1
[00:02:57]:   MasterBind: (null)
[00:02:57]:   MasterPort: 10888
[00:02:57]: [Shard] Connecting to master...
[00:02:57]: [Shard] Sending secondary shard information to master...
[00:02:57]: Registering secondary shard in US lobby
[00:02:58]: [Shard] secondary shard is now ready!
[00:02:58]: World 1 is now connected	
[00:02:58]: Validating portal[9] <-> 1[9] (active)	
[00:02:58]: Validating portal[5] <-> 1[5] (active)	
[00:02:58]: Validating portal[7] <-> 1[7] (active)	
[00:02:58]: Validating portal[3] <-> 1[3] (active)	
[00:02:58]: Validating portal[2] <-> 1[2] (active)	
[00:02:58]: Validating portal[8] <-> 1[8] (active)	
[00:02:58]: Validating portal[4] <-> 1[4] (active)	
[00:02:58]: Validating portal[6] <-> 1[6] (active)	
[00:02:58]: Validating portal[1] <-> 1[1] (active)	
[00:02:58]: Validating portal[10] <-> 1[10] (active)	
[00:02:59]: [Shard] secondary shard LUA is now ready!
[00:02:59]: [IPC] Signal 'DST_Secondary_Ready' opened  #0000000000000A24
[00:02:59]: [IPC] Sending signal... #0000000000000A24
[00:02:59]: Sim paused
[00:03:28]: Sim unpaused
[00:07:57]: Registering secondary shard in US lobby
[00:10:07]: Available disk space for save files: 90064 MB
[00:10:08]: Serializing world: session/7AA56935F2FFDB09/0000000098
[00:10:08]: Truncating to snapshot #98...
[00:10:08]:  - session/7AA56935F2FFDB09/0000000092
[00:10:08]:    1 file(s) removed
[00:12:57]: Registering secondary shard in US lobby
[00:17:57]: Registering secondary shard in US lobby
[00:18:08]: Available disk space for save files: 90059 MB
[00:18:09]: Serializing world: session/7AA56935F2FFDB09/0000000099
[00:18:09]: Truncating to snapshot #99...
[00:18:09]:  - session/7AA56935F2FFDB09/0000000093
[00:18:09]:    1 file(s) removed
[00:22:57]: Registering secondary shard in US lobby
[00:26:09]: Available disk space for save files: 90055 MB
[00:26:09]: Serializing world: session/7AA56935F2FFDB09/0000000100
[00:26:09]: Truncating to snapshot #100...
[00:26:09]:  - session/7AA56935F2FFDB09/0000000094
[00:26:09]:    1 file(s) removed
[00:26:48]: [Shard] #1 -> session/7AA56935F2FFDB09/A7KDAAFIPB34/0000000101
[00:26:48]: [Shard] Received migration #1 data for (KU_ZLAVBAna)
[00:26:51]: New incoming connection 127.0.0.1|55120 <1310291571795956657>
[00:26:51]: Client connected from [LAN] 127.0.0.1|55120 <1310291571795956657>
[00:26:51]: ValidateGameSessionToken pgs-usc^KU_ZLAVBAna^DontStarveTogether^VdUFUpc/CKzBydArFHci9kiZRKgIwbsMOTiuJQ4KClk= for <1310291571795956657>
[00:26:52]: Client authenticated: (KU_ZLAVBAna) matheusavatar31
[00:26:52]: [Steam] Authenticated host '76561198228256056'
[00:26:52]: [Shard] Completed incoming migration #1 for (KU_ZLAVBAna)
[00:27:00]: Resuming user: session/7AA56935F2FFDB09/A7KDAAFIPB34/0000000101
[00:27:00]: Player will spawn close to portal #1	
[00:27:00]: Spawning player at: [Load] (425.99, 0.00, 398.35)	
[00:27:57]: Registering secondary shard in US lobby
[00:30:17]: [200] Account Communication Success (6)
[00:30:17]: Received (KU_ZLAVBAna) from TokenPurpose
[00:32:57]: Registering secondary shard in US lobby
[00:34:10]: Available disk space for save files: 90050 MB
[00:34:10]: Serializing user: session/7AA56935F2FFDB09/A7KDAAFIPB34/0000000101
[00:34:10]: Serializing world: session/7AA56935F2FFDB09/0000000101
[00:35:02]: Activating portal[1] to 1	
[00:35:03]: Serializing user: session/7AA56935F2FFDB09/A7KDAAFIPB34/0000000102
[00:35:03]: [Shard] Migration request: (KU_ZLAVBAna) to [SHDMASTER](1)
[00:35:03]: [Shard] #2 <- session/7AA56935F2FFDB09/A7KDAAFIPB34/0000000102
[00:35:03]: CloseConnectionWithReason: ID_DST_SHARD_SILENT_DISCONNECT
[00:35:03]: [Steam] SendUserDisconnect for '76561198228256056'
[00:37:57]: Registering secondary shard in US lobby
[00:42:21]: Available disk space for save files: 90064 MB
[00:42:21]: Serializing world: session/7AA56935F2FFDB09/0000000102
[00:42:21]: Truncating to snapshot #102...
[00:42:21]:  - session/7AA56935F2FFDB09/0000000095
[00:42:22]:  - session/7AA56935F2FFDB09/0000000096
[00:42:22]:    2 file(s) removed
[00:42:57]: Registering secondary shard in US lobby
[00:47:57]: Registering secondary shard in US lobby
[00:50:22]: Available disk space for save files: 90062 MB
[00:50:23]: Serializing world: session/7AA56935F2FFDB09/0000000103
[00:50:23]: Truncating to snapshot #103...
[00:50:23]:  - session/7AA56935F2FFDB09/0000000097
[00:50:23]:    1 file(s) removed
[00:52:57]: Registering secondary shard in US lobby
[00:57:57]: Registering secondary shard in US lobby
[00:58:23]: Available disk space for save files: 90057 MB
[00:58:24]: Serializing world: session/7AA56935F2FFDB09/0000000104
[00:58:24]: Truncating to snapshot #104...
[00:58:24]:  - session/7AA56935F2FFDB09/0000000098
[00:58:24]:    1 file(s) removed
[01:00:17]: [200] Account Communication Success (6)
[01:00:17]: Received (KU_ZLAVBAna) from TokenPurpose
[01:02:57]: Registering secondary shard in US lobby
[01:06:25]: Available disk space for save files: 90057 MB
[01:06:26]: Serializing world: session/7AA56935F2FFDB09/0000000105
[01:06:26]: Truncating to snapshot #105...
[01:06:26]:  - session/7AA56935F2FFDB09/0000000099
[01:06:26]:    1 file(s) removed
[01:07:57]: Registering secondary shard in US lobby
[01:12:57]: Registering secondary shard in US lobby
[01:14:27]: Available disk space for save files: 90051 MB
[01:14:28]: Serializing world: session/7AA56935F2FFDB09/0000000106
[01:14:28]: Truncating to snapshot #106...
[01:14:28]:  - session/7AA56935F2FFDB09/0000000100
[01:14:28]:  - session/7AA56935F2FFDB09/A7KDAAFIPB34/0000000085
[01:14:28]:    2 file(s) removed
[01:17:57]: Registering secondary shard in US lobby
[01:22:29]: Available disk space for save files: 90048 MB
[01:22:30]: Serializing world: session/7AA56935F2FFDB09/0000000107
[01:22:30]: Truncating to snapshot #107...
[01:22:30]:  - session/7AA56935F2FFDB09/0000000101
[01:22:30]:  - session/7AA56935F2FFDB09/A7KDAAFIPB34/0000000101
[01:22:30]:    2 file(s) removed
[01:22:57]: Registering secondary shard in US lobby
[01:27:57]: Registering secondary shard in US lobby
[01:30:17]: [200] Account Communication Success (6)
[01:30:17]: Received (KU_ZLAVBAna) from TokenPurpose
[01:30:30]: Available disk space for save files: 90042 MB
[01:30:31]: Serializing world: session/7AA56935F2FFDB09/0000000108
[01:30:31]: Truncating to snapshot #108...
[01:30:31]:  - session/7AA56935F2FFDB09/0000000102
[01:30:31]:    1 file(s) removed
[01:32:57]: Registering secondary shard in US lobby
[01:37:57]: Registering secondary shard in US lobby
[01:38:33]: Available disk space for save files: 90035 MB
[01:38:33]: Serializing world: session/7AA56935F2FFDB09/0000000109
[01:38:33]: Truncating to snapshot #109...
[01:38:33]:  - session/7AA56935F2FFDB09/0000000103
[01:38:33]:    1 file(s) removed
[01:42:57]: Registering secondary shard in US lobby
[01:46:36]: Available disk space for save files: 90029 MB
[01:46:37]: Serializing world: session/7AA56935F2FFDB09/0000000110
[01:46:37]: Truncating to snapshot #110...
[01:46:37]:  - session/7AA56935F2FFDB09/0000000104
[01:46:37]:    1 file(s) removed
[01:47:57]: Registering secondary shard in US lobby
[01:52:57]: Registering secondary shard in US lobby
[01:54:37]: Available disk space for save files: 90022 MB
[01:54:38]: Serializing world: session/7AA56935F2FFDB09/0000000111
[01:54:38]: Truncating to snapshot #111...
[01:54:38]:  - session/7AA56935F2FFDB09/0000000105
[01:54:38]:    1 file(s) removed
[01:57:57]: Registering secondary shard in US lobby
[02:00:17]: [200] Account Communication Success (6)
[02:00:17]: Received (KU_ZLAVBAna) from TokenPurpose
[02:02:38]: Available disk space for save files: 90019 MB
[02:02:39]: Serializing world: session/7AA56935F2FFDB09/0000000112
[02:02:39]: Truncating to snapshot #112...
[02:02:39]:  - session/7AA56935F2FFDB09/0000000106
[02:02:39]:    1 file(s) removed
[02:02:57]: Registering secondary shard in US lobby
[02:07:57]: Registering secondary shard in US lobby
[02:10:42]: Available disk space for save files: 90012 MB
[02:10:42]: Serializing world: session/7AA56935F2FFDB09/0000000113
[02:10:42]: Truncating to snapshot #113...
[02:10:42]:  - session/7AA56935F2FFDB09/0000000107
[02:10:42]:    1 file(s) removed
[02:11:15]: [Shard] #3 -> session/7AA56935F2FFDB09/A7KDAAFIPB34/0000000114
[02:11:15]: [Shard] Received migration #3 data for (KU_ZLAVBAna)
[02:11:20]: New incoming connection 127.0.0.1|53476 <2056002304152841374>
[02:11:20]: Client connected from [LAN] 127.0.0.1|53476 <2056002304152841374>
[02:11:20]: ValidateGameSessionToken pgs-usc^KU_ZLAVBAna^DontStarveTogether^MWEZKidZL0XEfjWc7BvAUjvBZnx8gsfml8/sRa1Lp1s= for <2056002304152841374>
[02:11:21]: Client authenticated: (KU_ZLAVBAna) matheusavatar31
[02:11:21]: [Steam] Authenticated host '76561198228256056'
[02:11:21]: [Shard] Completed incoming migration #3 for (KU_ZLAVBAna)
[02:11:28]: [Shard] #4 -> session/7AA56935F2FFDB09/A7ILL29CBGFH/0000000114
[02:11:28]: [Shard] Received migration #4 data for (KU_LQYInS7n)
[02:11:31]: Resuming user: session/7AA56935F2FFDB09/A7KDAAFIPB34/0000000114
[02:11:32]: Player will spawn close to portal #1	
[02:11:32]: Spawning player at: [Load] (426.71, 0.00, 397.20)	
[02:11:33]: New incoming connection 201.17.157.246|22318 <6214752124674745783>
[02:11:33]: Client connected from 201.17.157.246|22318 <6214752124674745783>
[02:11:33]: ValidateGameSessionToken pgs-usc^KU_LQYInS7n^DontStarveTogether^EOw3folgzA2cRbboQSIsIJqjSgi8xoy6uwVkID6L1+k= for <6214752124674745783>
[02:11:34]: Client authenticated: (KU_LQYInS7n) Cássio
[02:11:34]: [Steam] SendUserConnectAndAuthenticate for '76561198872520041'
[02:11:34]: [Steam] Authenticated client '76561198872520041'
[02:11:34]: [Shard] Completed incoming migration #4 for (KU_LQYInS7n)
[02:11:42]: Resuming user: session/7AA56935F2FFDB09/A7ILL29CBGFH/0000000114
[02:11:42]: Player will spawn close to portal #1	
[02:11:42]: Spawning player at: [Load] (421.91, 0.00, 395.78)	
[02:12:57]: Registering secondary shard in US lobby
[02:17:57]: Registering secondary shard in US lobby
[02:18:43]: Available disk space for save files: 90006 MB
[02:18:43]: Serializing user: session/7AA56935F2FFDB09/A7KDAAFIPB34/0000000114
[02:18:43]: Serializing user: session/7AA56935F2FFDB09/A7ILL29CBGFH/0000000114
[02:18:44]: Serializing world: session/7AA56935F2FFDB09/0000000114
[02:22:03]: Activating portal[1] to 1	
[02:22:03]: Serializing user: session/7AA56935F2FFDB09/A7ILL29CBGFH/0000000115
[02:22:03]: [Shard] Migration request: (KU_LQYInS7n) to [SHDMASTER](1)
[02:22:04]: [Shard] #5 <- session/7AA56935F2FFDB09/A7ILL29CBGFH/0000000115
[02:22:04]: CloseConnectionWithReason: ID_DST_SHARD_SILENT_DISCONNECT
[02:22:04]: [Steam] SendUserDisconnect for '76561198872520041'
[02:22:57]: Registering secondary shard in US lobby
[02:25:53]: Activating portal[1] to 1	
[02:25:54]: Serializing user: session/7AA56935F2FFDB09/A7KDAAFIPB34/0000000115
[02:25:54]: [Shard] Migration request: (KU_ZLAVBAna) to [SHDMASTER](1)
[02:25:54]: [Shard] #6 <- session/7AA56935F2FFDB09/A7KDAAFIPB34/0000000115
[02:25:54]: CloseConnectionWithReason: ID_DST_SHARD_SILENT_DISCONNECT
[02:25:54]: [Steam] SendUserDisconnect for '76561198228256056'
[02:26:44]: Available disk space for save files: 89999 MB
[02:26:45]: Serializing world: session/7AA56935F2FFDB09/0000000115
[02:26:45]: Truncating to snapshot #115...
[02:26:45]:  - session/7AA56935F2FFDB09/0000000108
[02:26:45]:  - session/7AA56935F2FFDB09/0000000109
[02:26:45]:    2 file(s) removed
[02:27:57]: Registering secondary shard in US lobby
[02:30:16]: [200] Account Communication Success (6)
[02:30:16]: Received (KU_ZLAVBAna) from TokenPurpose
[02:32:57]: Registering secondary shard in US lobby
[02:34:46]: Available disk space for save files: 89996 MB
[02:34:47]: Serializing world: session/7AA56935F2FFDB09/0000000116
[02:34:47]: Truncating to snapshot #116...
[02:34:47]:  - session/7AA56935F2FFDB09/0000000110
[02:34:47]:    1 file(s) removed
[02:37:57]: Registering secondary shard in US lobby
[02:42:48]: Available disk space for save files: 89992 MB
[02:42:48]: Serializing world: session/7AA56935F2FFDB09/0000000117
[02:42:48]: Truncating to snapshot #117...
[02:42:48]:  - session/7AA56935F2FFDB09/0000000111
[02:42:48]:    1 file(s) removed
[02:42:57]: Registering secondary shard in US lobby
[02:47:57]: Registering secondary shard in US lobby
[02:50:54]: Available disk space for save files: 90003 MB
[02:50:54]: Serializing world: session/7AA56935F2FFDB09/0000000118
[02:50:54]: Truncating to snapshot #118...
[02:50:54]:  - session/7AA56935F2FFDB09/0000000112
[02:50:54]:    1 file(s) removed
[02:52:57]: Registering secondary shard in US lobby
[02:57:57]: Registering secondary shard in US lobby
[02:58:55]: Available disk space for save files: 89999 MB
[02:58:56]: Serializing world: session/7AA56935F2FFDB09/0000000119
[02:58:56]: Truncating to snapshot #119...
[02:58:56]:  - session/7AA56935F2FFDB09/0000000113
[02:58:56]:  - session/7AA56935F2FFDB09/A7KDAAFIPB34/0000000102
[02:58:56]:    2 file(s) removed
[03:00:16]: [200] Account Communication Success (6)
[03:00:16]: Received (KU_ZLAVBAna) from TokenPurpose
[03:02:57]: Registering secondary shard in US lobby
[03:06:57]: Available disk space for save files: 89999 MB
[03:06:57]: Serializing world: session/7AA56935F2FFDB09/0000000120
[03:06:57]: Truncating to snapshot #120...
[03:06:57]:  - session/7AA56935F2FFDB09/0000000114
[03:06:57]:  - session/7AA56935F2FFDB09/A7ILL29CBGFH/0000000114
[03:06:57]:  - session/7AA56935F2FFDB09/A7KDAAFIPB34/0000000114
[03:06:58]:    3 file(s) removed
[03:07:57]: Registering secondary shard in US lobby
[03:12:57]: Registering secondary shard in US lobby
[03:14:59]: Available disk space for save files: 89995 MB
[03:15:00]: Serializing world: session/7AA56935F2FFDB09/0000000121
[03:15:00]: Truncating to snapshot #121...
[03:15:00]:  - session/7AA56935F2FFDB09/0000000115
[03:15:00]:    1 file(s) removed
[03:17:57]: Registering secondary shard in US lobby
[03:22:57]: Registering secondary shard in US lobby
[03:23:00]: Available disk space for save files: 89990 MB
[03:23:01]: Serializing world: session/7AA56935F2FFDB09/0000000122
[03:23:01]: Truncating to snapshot #122...
[03:23:01]:  - session/7AA56935F2FFDB09/0000000116
[03:23:01]:    1 file(s) removed
[03:27:57]: Registering secondary shard in US lobby
[03:30:16]: [200] Account Communication Success (6)
[03:30:16]: Received (KU_ZLAVBAna) from TokenPurpose
[03:31:01]: Available disk space for save files: 89986 MB
[03:31:02]: Serializing world: session/7AA56935F2FFDB09/0000000123
[03:31:02]: Truncating to snapshot #123...
[03:31:02]:  - session/7AA56935F2FFDB09/0000000117
[03:31:02]:    1 file(s) removed
[03:32:57]: Registering secondary shard in US lobby
[03:37:57]: Registering secondary shard in US lobby
[03:39:02]: Available disk space for save files: 89982 MB
[03:39:03]: Serializing world: session/7AA56935F2FFDB09/0000000124
[03:39:03]: Truncating to snapshot #124...
[03:39:03]:  - session/7AA56935F2FFDB09/0000000118
[03:39:03]:    1 file(s) removed
[03:42:57]: Registering secondary shard in US lobby
[03:47:04]: Available disk space for save files: 89978 MB
[03:47:04]: Serializing world: session/7AA56935F2FFDB09/0000000125
[03:47:04]: Truncating to snapshot #125...
[03:47:04]:  - session/7AA56935F2FFDB09/0000000119
[03:47:04]:    1 file(s) removed
[03:47:57]: Registering secondary shard in US lobby
[03:52:57]: Registering secondary shard in US lobby
[03:55:05]: Available disk space for save files: 89973 MB
[03:55:05]: Serializing world: session/7AA56935F2FFDB09/0000000126
[03:55:05]: Truncating to snapshot #126...
[03:55:05]:  - session/7AA56935F2FFDB09/0000000120
[03:55:05]:    1 file(s) removed
[03:57:57]: Registering secondary shard in US lobby
[04:00:16]: [200] Account Communication Success (6)
[04:00:16]: Received (KU_ZLAVBAna) from TokenPurpose
[04:02:57]: Registering secondary shard in US lobby
[04:03:06]: Available disk space for save files: 89969 MB
[04:03:07]: Serializing world: session/7AA56935F2FFDB09/0000000127
[04:03:07]: Truncating to snapshot #127...
[04:03:07]:  - session/7AA56935F2FFDB09/0000000121
[04:03:07]:    1 file(s) removed
[04:07:57]: Registering secondary shard in US lobby
[04:11:08]: Available disk space for save files: 89965 MB
[04:11:09]: Serializing world: session/7AA56935F2FFDB09/0000000128
[04:11:09]: Truncating to snapshot #128...
[04:11:09]:  - session/7AA56935F2FFDB09/0000000122
[04:11:09]:    1 file(s) removed
[04:12:57]: Registering secondary shard in US lobby
[04:17:57]: Registering secondary shard in US lobby
