[00:00:00]: 
System Memory:
	Memory Load: 58%
	Available Physical Memory: 3382m/8148m
	Available Page File: 5053m/13012m
	Available Virtual Memory: 134213490m/134217727m
	Available Extended Virtual Memory: 0m
[00:00:00]: 
Process Memory:
	Peak Working Set Size: 30m
	Working Set Size: 30m
	Quota Peak Page Pool Usage: 206k
	Quota Page Pool Usage: 202k
	Quota Peak Non Paged Pool Usage:14k
	Quota Non Paged Pool Usage: 14k
	Page File Usage: 5m
	Peak Page File Usage: 5m
[00:00:00]: PersistRootStorage is now APP:Klei//DoNotStarveTogether/267990328/Cluster_2/Caves/ 
[00:00:00]: Starting Up
[00:00:00]: Version: 490729
[00:00:00]: Current time: Thu Dec 23 15:27:40 2021

[00:00:00]: Don't Starve Together: 490729 WIN32
[00:00:00]: Build Date: 560
[00:00:00]: Mode: 64-bit
[00:00:00]: Parsing command line
[00:00:00]: Command Line Arguments: -monitor_parent_process 10252 -persistent_storage_root APP:Klei/ -conf_dir DoNotStarveTogether -cluster Cluster_2 -ownernetid 76561198228256056 -ownerdir 267990328 -backup_log_count 25 -backup_log_period 0 -ugc_directory C:\\Program Files (x86)\\Steam\\steamapps\\workshop -shard Caves -sigprefix DST_Secondary -region US -token *********************************************************************************** 
[00:00:00]: Initializing distribution platform
[00:00:00]: Initializing Minidump handler
[00:00:00]: ....Done
[00:00:00]: ....Done
[00:00:00]: Fixing DPI
[00:00:00]: ...Done
[00:00:00]: THREAD - started 'GAClient' (7752)
[00:00:00]: CurlRequestManager::ClientThread::Main()
[00:00:00]: Mounting file system databundles/klump.zip successful.
[00:00:00]: Mounting file system databundles/shaders.zip successful.
[00:00:00]: Mounting file system databundles/fonts.zip successful.
[00:00:00]: Mounting file system databundles/anim_dynamic.zip successful.
[00:00:00]: Mounting file system databundles/bigportraits.zip successful.
[00:00:00]: Mounting file system databundles/images.zip successful.
[00:00:00]: Mounting file system databundles/scripts.zip successful.
[00:00:00]: [Steam] SteamGameServer_Init(10998, 27017)
[00:00:02]: [Steam] SteamGameServer_Init success
[00:00:02]: ProfileIndex:6.18
[00:00:02]: [Connect] PendingConnection::Reset(true)
[00:00:02]: Platform: 1
[00:00:02]: THREAD - started 'Ping Job Thread' (7916)
[00:00:02]: Network tick rate: U=15(2), D=0
[00:00:02]: Network tick rate: U=15(2), D=0
[00:00:02]: Authorized application C:\Program Files (x86)\Steam\steamapps\common\Don't Starve Together\bin64\dontstarve_dedicated_server_nullrenderer_x64.exe is enabled in the firewall.
[00:00:02]: WindowsFirewall - Application already authorized
[00:00:02]: Overriding region to US
[00:00:02]: THREAD - started 'StreamInput' (6180)
[00:00:02]: OnLoadPermissionList: APP:Klei//DoNotStarveTogether/267990328/client_save/blocklist.txt (Failure)
[00:00:03]: OnLoadPermissionList: APP:Klei//DoNotStarveTogether/267990328/client_save/adminlist.txt (Failure)
[00:00:03]: OnLoadUserIdList: APP:Klei//DoNotStarveTogether/267990328/client_save/whitelist.txt (Failure)
[00:00:03]: Offline user ID: OU_76561198228256056
[00:00:03]: HardwareStats:
  OS                        
    name                      Microsoft Windows 10 Pro
    version                   10.0.19042
    platformSpecific          SP 0.0
    architecture              64 bits
  CPU                       
    clockSpeed                3912
    name                      Intel(R) Core(TM) i3-7100 CPU @ 3.90GHz
    manufacturer              GenuineIntel
    numCores                  2
    features                  SSE,SSE2,SSE3,SSSE3,SSE41,SSE42,AVX
  RAM                       
    megsOfRam                 8192
  GPU                       
    megsOfRam                 4095
    videoModeDescription      1366 x 768 x 4294967296 cores
    name                      NVIDIA GeForce GTX 1050 Ti
    driverVersion             27.21.14.5671
    driverDate                20200930000000.000000-000
    refreshRate               59

[00:00:03]: cGame::InitializeOnMainThread
[00:00:03]: Renderer initialize: Okay
[00:00:03]: AnimManager initialize: Okay
[00:00:03]: Buffers initialize: Okay
[00:00:03]: cDontStarveGame::DoGameSpecificInitialize()
[00:00:03]: GameSpecific initialize: Okay
[00:00:03]: cGame::StartPlaying
[00:00:03]: AppVersion::GetArchitecture() x64
[00:00:03]: LOADING LUA
[00:00:03]: DoLuaFile scripts/main.lua
[00:00:03]: DoLuaFile loading buffer scripts/main.lua
[00:00:03]:   taskgrouplist:	default	Together	
[00:00:03]:   taskgrouplist:	classic	Classic	
[00:00:03]:   taskgrouplist:	cave_default	Underground	
[00:00:03]:   taskgrouplist:	lavaarena_taskset	The Forge	
[00:00:03]:   taskgrouplist:	quagmire_taskset	The Gorge	
[00:00:03]: running main.lua
	
[00:00:04]: loaded modindex	
[00:00:04]: ModIndex: Beginning normal load sequence for dedicated server.
	
[00:00:04]: SUCCESS: Loaded modoverrides.lua	
[00:00:04]: modoverrides.lua enabling workshop-374550642	
[00:00:04]: modoverrides.lua enabling workshop-378160973	
[00:00:04]: modoverrides.lua enabling workshop-1682381560	
[00:00:04]: modoverrides.lua enabling workshop-375850593	
[00:00:04]: modoverrides.lua enabling workshop-1207269058	
[00:00:04]: modoverrides.lua enabling workshop-1185229307	
[00:00:04]: modoverrides.lua enabling workshop-1280567941	
[00:00:04]: modoverrides.lua enabling workshop-501385076	
[00:00:04]: modoverrides.lua enabling workshop-666155465	
[00:00:04]: modoverrides.lua enabling workshop-1458450094	
[00:00:04]: modoverrides.lua enabling workshop-1595631294	
[00:00:04]: ModIndex:GetModsToLoad inserting moddir, 	workshop-1280567941	
[00:00:04]: ModIndex:GetModsToLoad inserting moddir, 	workshop-1458450094	
[00:00:04]: ModIndex:GetModsToLoad inserting moddir, 	workshop-1595631294	
[00:00:04]: ModIndex:GetModsToLoad inserting moddir, 	workshop-1682381560	
[00:00:04]: ModIndex:GetModsToLoad inserting moddir, 	workshop-374550642	
[00:00:04]: ModIndex:GetModsToLoad inserting moddir, 	workshop-375850593	
[00:00:04]: ModIndex:GetModsToLoad inserting moddir, 	workshop-378160973	
[00:00:04]: ModIndex:GetModsToLoad inserting moddir, 	workshop-501385076	
[00:00:04]: ModIndex:GetModsToLoad inserting forcedmoddir, 	workshop-1207269058	
[00:00:04]: ModIndex:GetModsToLoad inserting forcedmoddir, 	workshop-1185229307	
[00:00:04]: ModIndex:GetModsToLoad inserting forcedmoddir, 	workshop-666155465	
[00:00:04]: Could not load mod_config_data/modconfiguration_workshop-1280567941_CLIENT	
[00:00:04]: Loading mod: workshop-1280567941 (Construction Planning) Version:1.7	
[00:00:04]: Could not load mod_config_data/modconfiguration_workshop-1458450094_CLIENT	
[00:00:04]: Loading mod: workshop-1458450094 (Auto Trap Reset) Version:2.1	
[00:00:04]: Could not load mod_config_data/modconfiguration_workshop-1595631294_CLIENT	
[00:00:04]: Loading mod: workshop-1595631294 (Smart Minisign) Version:1.1.5	
[00:00:04]: Could not load mod_config_data/modconfiguration_workshop-1682381560_CLIENT	
[00:00:04]: Loading mod: workshop-1682381560 (Level Up System) Version:1.1	
[00:00:04]: Could not load mod_config_data/modconfiguration_workshop-374550642_CLIENT	
[00:00:04]: Loading mod: workshop-374550642 (Increased Stack size) Version:1.62	
[00:00:04]: Could not load mod_config_data/modconfiguration_workshop-375850593_CLIENT	
[00:00:04]: Loading mod: workshop-375850593 (Extra Equip Slots) Version:1.8.0	
[00:00:04]: Could not load mod_config_data/modconfiguration_workshop-378160973_CLIENT	
[00:00:04]: Loading mod: workshop-378160973 (Global Positions) Version:1.7.3	
[00:00:04]: Could not load mod_config_data/modconfiguration_workshop-501385076_CLIENT	
[00:00:04]: Loading mod: workshop-501385076 (Quick Pick) Version:1.4.0	
[00:00:04]: Could not load mod_config_data/modconfiguration_workshop-1207269058_CLIENT	
[00:00:04]: Loading mod: workshop-1207269058 ( Simple Health Bar DST) Version:2.15	
[00:00:04]: Could not load mod_config_data/modconfiguration_workshop-1185229307_CLIENT	
[00:00:04]: Loading mod: workshop-1185229307 (Epic Healthbar) Version:9.2	
[00:00:04]: Could not load mod_config_data/modconfiguration_workshop-666155465_CLIENT	
[00:00:04]: Loading mod: workshop-666155465 (Show Me (Origin)) Version:0.57	
[00:00:04]: applying configuration_options from modoverrides.lua to mod workshop-374550642	
[00:00:04]: Overriding mod workshop-374550642's option MAXSTACKSIZE with value 99	
[00:00:04]: applying configuration_options from modoverrides.lua to mod workshop-378160973	
[00:00:04]: Overriding mod workshop-378160973's option FIREOPTIONS with value 2	
[00:00:04]: Overriding mod workshop-378160973's option SHOWFIREICONS with value true	
[00:00:04]: Overriding mod workshop-378160973's option SHAREMINIMAPPROGRESS with value true	
[00:00:04]: Overriding mod workshop-378160973's option SHOWPLAYERICONS with value true	
[00:00:04]: Overriding mod workshop-378160973's option OVERRIDEMODE with value false	
[00:00:04]: Overriding mod workshop-378160973's option SHOWPLAYERSOPTIONS with value 2	
[00:00:04]: Overriding mod workshop-378160973's option ENABLEPINGS with value true	
[00:00:04]: applying configuration_options from modoverrides.lua to mod workshop-1682381560	
[00:00:04]: Overriding mod workshop-1682381560's option EXP_PERCENT with value 1	
[00:00:04]: Overriding mod workshop-1682381560's option SHOWINFO with value 118	
[00:00:04]: Overriding mod workshop-1682381560's option INITIAL_STATE with value 1	
[00:00:04]: applying configuration_options from modoverrides.lua to mod workshop-375850593	
[00:00:04]: applying configuration_options from modoverrides.lua to mod workshop-1207269058	
[00:00:04]: applying configuration_options from modoverrides.lua to mod workshop-1185229307	
[00:00:04]: Overriding mod workshop-1185229307's option  with value 	
[00:00:04]: Overriding mod workshop-1185229307's option  with value 	
[00:00:04]: Overriding mod workshop-1185229307's option WETNESS_METER with value false	
[00:00:04]: Overriding mod workshop-1185229307's option NOEPIC with value false	
[00:00:04]: Overriding mod workshop-1185229307's option FRAME_PHASES with value true	
[00:00:04]: Overriding mod workshop-1185229307's option DAMAGE_NUMBERS with value true	
[00:00:04]: Overriding mod workshop-1185229307's option NONOEPIC with value false	
[00:00:04]: Overriding mod workshop-1185229307's option DAMAGE_RESISTANCE with value true	
[00:00:04]: Overriding mod workshop-1185229307's option HORIZONTAL_OFFSET with value 0	
[00:00:04]: applying configuration_options from modoverrides.lua to mod workshop-1280567941	
[00:00:04]: Overriding mod workshop-1280567941's option color with value 0.5	
[00:00:04]: Overriding mod workshop-1280567941's option language with value 2	
[00:00:04]: Overriding mod workshop-1280567941's option alpha with value 0.5	
[00:00:04]: Overriding mod workshop-1280567941's option chestwithsign with value 0	
[00:00:04]: applying configuration_options from modoverrides.lua to mod workshop-501385076	
[00:00:04]: Overriding mod workshop-501385076's option quick_pick_cactus with value true	
[00:00:04]: Overriding mod workshop-501385076's option quick_pick_plant_normal_ground with value true	
[00:00:04]: Overriding mod workshop-501385076's option quick_cook_on_fire with value true	
[00:00:04]: Overriding mod workshop-501385076's option quick_harvest with value true	
[00:00:04]: applying configuration_options from modoverrides.lua to mod workshop-666155465	
[00:00:04]: Overriding mod workshop-666155465's option chestR with value -1	
[00:00:04]: Overriding mod workshop-666155465's option food_style with value 0	
[00:00:04]: Overriding mod workshop-666155465's option display_hp with value -1	
[00:00:04]: Overriding mod workshop-666155465's option show_uses with value -1	
[00:00:04]: Overriding mod workshop-666155465's option show_food_units with value -1	
[00:00:04]: Overriding mod workshop-666155465's option lang with value auto	
[00:00:04]: Overriding mod workshop-666155465's option chestB with value -1	
[00:00:04]: Overriding mod workshop-666155465's option food_order with value 0	
[00:00:04]: Overriding mod workshop-666155465's option chestG with value -1	
[00:00:04]: Overriding mod workshop-666155465's option food_estimation with value -1	
[00:00:04]: applying configuration_options from modoverrides.lua to mod workshop-1458450094	
[00:00:04]: Overriding mod workshop-1458450094's option  with value 0	
[00:00:04]: Overriding mod workshop-1458450094's option  with value 0	
[00:00:04]: Overriding mod workshop-1458450094's option  with value 0	
[00:00:04]: Overriding mod workshop-1458450094's option  with value 0	
[00:00:04]: Overriding mod workshop-1458450094's option log with value false	
[00:00:04]: Overriding mod workshop-1458450094's option houndstooth with value false	
[00:00:04]: Overriding mod workshop-1458450094's option livinglog with value false	
[00:00:04]: Overriding mod workshop-1458450094's option stinger with value false	
[00:00:04]: Overriding mod workshop-1458450094's option rope with value false	
[00:00:04]: Overriding mod workshop-1458450094's option retraprandomy with value 120	
[00:00:04]: Overriding mod workshop-1458450094's option mode with value fix	
[00:00:04]: Overriding mod workshop-1458450094's option retraprandomx with value 10	
[00:00:04]: Overriding mod workshop-1458450094's option retrapfix with value 60	
[00:00:04]: applying configuration_options from modoverrides.lua to mod workshop-1595631294	
[00:00:04]: Overriding mod workshop-1595631294's option SaltBox with value false	
[00:00:04]: Overriding mod workshop-1595631294's option BundleItems with value false	
[00:00:04]: Overriding mod workshop-1595631294's option Digornot with value false	
[00:00:04]: Overriding mod workshop-1595631294's option ChangeSkin with value true	
[00:00:04]: Overriding mod workshop-1595631294's option Icebox with value false	
[00:00:04]: Overriding mod workshop-1595631294's option DragonflyChest with value false	
[00:00:04]: Mod: workshop-1185229307 (Epic Healthbar)	Loading modworldgenmain.lua	
[00:00:04]: Mod: workshop-1185229307 (Epic Healthbar)	  Mod had no modworldgenmain.lua. Skipping.	
[00:00:04]: Mod: workshop-1185229307 (Epic Healthbar)	Loading modmain.lua	
[00:00:04]: Mod: workshop-375850593 (Extra Equip Slots)	Loading modworldgenmain.lua	
[00:00:04]: Mod: workshop-375850593 (Extra Equip Slots)	  Mod had no modworldgenmain.lua. Skipping.	
[00:00:04]: Mod: workshop-375850593 (Extra Equip Slots)	Loading modmain.lua	
[00:00:04]: Mod: workshop-666155465 (Show Me (Origin))	Loading modworldgenmain.lua	
[00:00:04]: Mod: workshop-666155465 (Show Me (Origin))	  Mod had no modworldgenmain.lua. Skipping.	
[00:00:04]: Mod: workshop-666155465 (Show Me (Origin))	Loading modmain.lua	
[00:00:04]: ShowMe version:	0.57	
[00:00:04]: show_food_units	-1	-1	-1	
[00:00:04]: show_uses	-1	-1	-1	
[00:00:04]: Detected language for ShowMe: 	auto		
[00:00:04]: Mod: workshop-374550642 (Increased Stack size)	Loading modworldgenmain.lua	
[00:00:04]: Mod: workshop-374550642 (Increased Stack size)	  Mod had no modworldgenmain.lua. Skipping.	
[00:00:04]: Mod: workshop-374550642 (Increased Stack size)	Loading modmain.lua	
[00:00:05]: Mod: workshop-501385076 (Quick Pick)	Loading modworldgenmain.lua	
[00:00:05]: Mod: workshop-501385076 (Quick Pick)	  Mod had no modworldgenmain.lua. Skipping.	
[00:00:05]: Mod: workshop-501385076 (Quick Pick)	Loading modmain.lua	
[00:00:05]: Mod: workshop-1682381560 (Level Up System)	Loading modworldgenmain.lua	
[00:00:05]: Mod: workshop-1682381560 (Level Up System)	  Mod had no modworldgenmain.lua. Skipping.	
[00:00:05]: Mod: workshop-1682381560 (Level Up System)	Loading modmain.lua	
[00:00:05]: modimport: ../mods/workshop-1682381560/scripts/patches/wolfgangchanges.lua	
[00:00:05]: modimport: ../mods/workshop-1682381560/scripts/patches/wx78changes.lua	
[00:00:05]: modimport: ../mods/workshop-1682381560/scripts/patches/playerchanges.lua	
[00:00:05]: Mod: workshop-1280567941 (Construction Planning)	Loading modworldgenmain.lua	
[00:00:05]: Mod: workshop-1280567941 (Construction Planning)	  Mod had no modworldgenmain.lua. Skipping.	
[00:00:05]: Mod: workshop-1280567941 (Construction Planning)	Loading modmain.lua	
[00:00:05]: Mod: workshop-1458450094 (Auto Trap Reset)	Loading modworldgenmain.lua	
[00:00:05]: Mod: workshop-1458450094 (Auto Trap Reset)	  Mod had no modworldgenmain.lua. Skipping.	
[00:00:05]: Mod: workshop-1458450094 (Auto Trap Reset)	Loading modmain.lua	
[00:00:05]: Mod: workshop-378160973 (Global Positions)	Loading modworldgenmain.lua	
[00:00:05]: Mod: workshop-378160973 (Global Positions)	  Mod had no modworldgenmain.lua. Skipping.	
[00:00:05]: Mod: workshop-378160973 (Global Positions)	Loading modmain.lua	
[00:00:05]: ModIndex:GetModsToLoad inserting moddir, 	workshop-1280567941	
[00:00:05]: ModIndex:GetModsToLoad inserting moddir, 	workshop-1458450094	
[00:00:05]: ModIndex:GetModsToLoad inserting moddir, 	workshop-1595631294	
[00:00:05]: ModIndex:GetModsToLoad inserting moddir, 	workshop-1682381560	
[00:00:05]: ModIndex:GetModsToLoad inserting moddir, 	workshop-374550642	
[00:00:05]: ModIndex:GetModsToLoad inserting moddir, 	workshop-375850593	
[00:00:05]: ModIndex:GetModsToLoad inserting moddir, 	workshop-378160973	
[00:00:05]: ModIndex:GetModsToLoad inserting moddir, 	workshop-501385076	
[00:00:05]: ModIndex:GetModsToLoad inserting forcedmoddir, 	workshop-1207269058	
[00:00:05]: ModIndex:GetModsToLoad inserting forcedmoddir, 	workshop-1185229307	
[00:00:05]: ModIndex:GetModsToLoad inserting forcedmoddir, 	workshop-666155465	
[00:00:05]: Mod: workshop-1595631294 (Smart Minisign)	Loading modworldgenmain.lua	
[00:00:05]: Mod: workshop-1595631294 (Smart Minisign)	  Mod had no modworldgenmain.lua. Skipping.	
[00:00:05]: Mod: workshop-1595631294 (Smart Minisign)	Loading modmain.lua	
[00:00:05]: Mod: workshop-1207269058 ( Simple Health Bar DST)	Loading modworldgenmain.lua	
[00:00:05]: Mod: workshop-1207269058 ( Simple Health Bar DST)	  Mod had no modworldgenmain.lua. Skipping.	
[00:00:05]: Mod: workshop-1207269058 ( Simple Health Bar DST)	Loading modmain.lua	
[00:00:06]: Event data unavailable: lavaarena_event_server/lavaarena_achievement_quest_defs
[00:00:08]: LOADING LUA SUCCESS
[00:00:08]: Registering Server mod namespace "workshop-1207269058"
[00:00:08]: Registering Server mod namespace "showme"
[00:00:08]: Registering Server mod namespace "showmeshint"
[00:00:08]: Registering Server mod namespace "workshop-378160973"
[00:00:08]: Registering Server mod namespace "modlevelupsystem"
[00:00:08]: PlayerDeaths could not load morgue	
[00:00:08]: PlayerHistory could not load player_history	
[00:00:08]: ServerPreferences could not load server_preferences	
[00:00:08]: bloom_enabled	true	
[00:00:08]: OnFilesLoaded()	
[00:00:08]: OnUpdatePurchaseStateComplete	
[00:00:08]: Klump load on boot started.	
[00:00:08]: Klump files loaded: 	0	
[00:00:10]: Mod: workshop-1185229307 (Epic Healthbar)	Registering prefabs	
[00:00:10]: Mod: workshop-1185229307 (Epic Healthbar)	  Registering prefab file: prefabs/epichealth_proxy	
[00:00:10]: Mod: workshop-1185229307 (Epic Healthbar)	    epichealth_proxy	
[00:00:10]: Mod: workshop-1185229307 (Epic Healthbar)	  Registering default mod prefab	
[00:00:10]: Mod: workshop-375850593 (Extra Equip Slots)	Registering prefabs	
[00:00:10]: Mod: workshop-375850593 (Extra Equip Slots)	  Registering default mod prefab	
[00:00:10]: Mod: workshop-666155465 (Show Me (Origin))	Registering prefabs	
[00:00:10]: Mod: workshop-666155465 (Show Me (Origin))	  Registering default mod prefab	
[00:00:10]: Mod: workshop-374550642 (Increased Stack size)	Registering prefabs	
[00:00:10]: Mod: workshop-374550642 (Increased Stack size)	  Registering default mod prefab	
[00:00:10]: Mod: workshop-501385076 (Quick Pick)	Registering prefabs	
[00:00:10]: Mod: workshop-501385076 (Quick Pick)	  Registering default mod prefab	
[00:00:10]: Mod: workshop-1682381560 (Level Up System)	Registering prefabs	
[00:00:10]: Mod: workshop-1682381560 (Level Up System)	  Registering default mod prefab	
[00:00:10]: Mod: workshop-1280567941 (Construction Planning)	Registering prefabs	
[00:00:10]: Mod: workshop-1280567941 (Construction Planning)	  Registering prefab file: prefabs/virtualstruct	
[00:00:10]: Mod: workshop-1280567941 (Construction Planning)	    virtualfirepit	
[00:00:10]: Mod: workshop-1280567941 (Construction Planning)	    virtualcoldfirepit	
[00:00:10]: Mod: workshop-1280567941 (Construction Planning)	    virtualmushroom_light	
[00:00:10]: Mod: workshop-1280567941 (Construction Planning)	    virtualmushroom_light2	
[00:00:10]: Mod: workshop-1280567941 (Construction Planning)	    virtualtreasurechest	
[00:00:10]: Mod: workshop-1280567941 (Construction Planning)	    virtualhomesign	
[00:00:10]: Mod: workshop-1280567941 (Construction Planning)	    virtualpighouse	
[00:00:10]: Mod: workshop-1280567941 (Construction Planning)	    virtualrabbithouse	
[00:00:10]: Mod: workshop-1280567941 (Construction Planning)	    virtualbirdcage	
[00:00:10]: Mod: workshop-1280567941 (Construction Planning)	    virtualwardrobe	
[00:00:10]: Mod: workshop-1280567941 (Construction Planning)	    virtualscarecrow	
[00:00:10]: Mod: workshop-1280567941 (Construction Planning)	    virtualwinter_treestand	
[00:00:10]: Mod: workshop-1280567941 (Construction Planning)	    virtualendtable	
[00:00:10]: Mod: workshop-1280567941 (Construction Planning)	    virtualdragonflychest	
[00:00:10]: Mod: workshop-1280567941 (Construction Planning)	    virtualdragonflyfurnace	
[00:00:10]: Mod: workshop-1280567941 (Construction Planning)	    virtualmushroom_farm	
[00:00:10]: Mod: workshop-1280567941 (Construction Planning)	    virtualbeebox	
[00:00:10]: Mod: workshop-1280567941 (Construction Planning)	    virtualmeatrack	
[00:00:10]: Mod: workshop-1280567941 (Construction Planning)	    virtualcookpot	
[00:00:10]: Mod: workshop-1280567941 (Construction Planning)	    virtualicebox	
[00:00:10]: Mod: workshop-1280567941 (Construction Planning)	    virtualtent	
[00:00:10]: Mod: workshop-1280567941 (Construction Planning)	    virtualsiestahut	
[00:00:10]: Mod: workshop-1280567941 (Construction Planning)	    virtualsaltlick	
[00:00:10]: Mod: workshop-1280567941 (Construction Planning)	    virtualresearchlab	
[00:00:10]: Mod: workshop-1280567941 (Construction Planning)	    virtualresearchlab2	
[00:00:10]: Mod: workshop-1280567941 (Construction Planning)	    virtualresearchlab3	
[00:00:10]: Mod: workshop-1280567941 (Construction Planning)	    virtualresearchlab4	
[00:00:10]: Mod: workshop-1280567941 (Construction Planning)	    virtualcartographydesk	
[00:00:10]: Mod: workshop-1280567941 (Construction Planning)	    virtualsculptingtable	
[00:00:10]: Mod: workshop-1280567941 (Construction Planning)	    virtuallightning_rod	
[00:00:10]: Mod: workshop-1280567941 (Construction Planning)	    virtualsentryward	
[00:00:10]: Mod: workshop-1280567941 (Construction Planning)	    virtualmoondial	
[00:00:10]: Mod: workshop-1280567941 (Construction Planning)	    virtualtownportal	
[00:00:10]: Mod: workshop-1280567941 (Construction Planning)	    virtualgrass	
[00:00:10]: Mod: workshop-1280567941 (Construction Planning)	    virtualsapling	
[00:00:10]: Mod: workshop-1280567941 (Construction Planning)	    virtualberrybush	
[00:00:10]: Mod: workshop-1280567941 (Construction Planning)	    virtualberrybush2	
[00:00:10]: Mod: workshop-1280567941 (Construction Planning)	    virtualberrybush_juicy	
[00:00:10]: Mod: workshop-1280567941 (Construction Planning)	  Registering prefab file: prefabs/virtualwall	
[00:00:11]: Mod: workshop-1280567941 (Construction Planning)	    virtualwall_stone_item	
[00:00:11]: Mod: workshop-1280567941 (Construction Planning)	    virtualwall_stone	
[00:00:11]: Mod: workshop-1280567941 (Construction Planning)	    virtualwall_stone_item_placer	
[00:00:11]: Mod: workshop-1280567941 (Construction Planning)	  Registering prefab file: prefabs/virtualplantable	
[00:00:11]: Mod: workshop-1280567941 (Construction Planning)	    virtualdug_berrybush	
[00:00:11]: Mod: workshop-1280567941 (Construction Planning)	    virtualdug_berrybush_placer	
[00:00:11]: Mod: workshop-1280567941 (Construction Planning)	    virtualdug_berrybush2	
[00:00:11]: Mod: workshop-1280567941 (Construction Planning)	    virtualdug_berrybush2_placer	
[00:00:11]: Mod: workshop-1280567941 (Construction Planning)	    virtualdug_berrybush_juicy	
[00:00:11]: Mod: workshop-1280567941 (Construction Planning)	    virtualdug_berrybush_juicy_placer	
[00:00:11]: Mod: workshop-1280567941 (Construction Planning)	    virtualdug_sapling	
[00:00:11]: Mod: workshop-1280567941 (Construction Planning)	    virtualdug_sapling_placer	
[00:00:11]: Mod: workshop-1280567941 (Construction Planning)	    virtualdug_grass	
[00:00:11]: Mod: workshop-1280567941 (Construction Planning)	    virtualdug_grass_placer	
[00:00:11]: Mod: workshop-1280567941 (Construction Planning)	    virtualdug_marsh_bush	
[00:00:11]: Mod: workshop-1280567941 (Construction Planning)	    virtualdug_marsh_bush_placer	
[00:00:11]: Mod: workshop-1280567941 (Construction Planning)	  Registering prefab file: prefabs/virtualfarmplot	
[00:00:11]: Mod: workshop-1280567941 (Construction Planning)	    virtualfast_farmplot	
[00:00:11]: Mod: workshop-1280567941 (Construction Planning)	    virtualfast_farmplot_placer	
[00:00:11]: Mod: workshop-1280567941 (Construction Planning)	  Registering prefab file: prefabs/virtualfiresuppressor	
[00:00:11]: Mod: workshop-1280567941 (Construction Planning)	    virtualfiresuppressor	
[00:00:11]: Mod: workshop-1280567941 (Construction Planning)	  Registering prefab file: prefabs/virtualfence	
[00:00:11]: Mod: workshop-1280567941 (Construction Planning)	    virtualfence	
[00:00:11]: Mod: workshop-1280567941 (Construction Planning)	    virtualfence_item	
[00:00:11]: Mod: workshop-1280567941 (Construction Planning)	    virtualfence_item_placer	
[00:00:11]: Mod: workshop-1280567941 (Construction Planning)	    virtualfence_gate	
[00:00:11]: Mod: workshop-1280567941 (Construction Planning)	    virtualfence_gate_item	
[00:00:11]: Mod: workshop-1280567941 (Construction Planning)	    virtualfence_gate_item_placer	
[00:00:11]: Mod: workshop-1280567941 (Construction Planning)	  Registering default mod prefab	
[00:00:12]: Mod: workshop-1458450094 (Auto Trap Reset)	Registering prefabs	
[00:00:12]: Mod: workshop-1458450094 (Auto Trap Reset)	  Registering default mod prefab	
[00:00:12]: Mod: workshop-378160973 (Global Positions)	Registering prefabs	
[00:00:12]: Mod: workshop-378160973 (Global Positions)	  Registering prefab file: prefabs/globalposition_classified	
[00:00:12]: Mod: workshop-378160973 (Global Positions)	    globalposition_classified	
[00:00:12]: Mod: workshop-378160973 (Global Positions)	  Registering prefab file: prefabs/smoketrail	
[00:00:12]: Mod: workshop-378160973 (Global Positions)	    smoketrail	
[00:00:12]: Mod: workshop-378160973 (Global Positions)	  Registering prefab file: prefabs/globalmapicon_noproxy	
[00:00:12]: Mod: workshop-378160973 (Global Positions)	    globalmapicon_noproxy	
[00:00:12]: Mod: workshop-378160973 (Global Positions)	  Registering prefab file: prefabs/worldmapexplorer	
[00:00:12]: Mod: workshop-378160973 (Global Positions)	    worldmapexplorer	
[00:00:12]: Mod: workshop-378160973 (Global Positions)	  Registering prefab file: prefabs/pings	
[00:00:12]: Mod: workshop-378160973 (Global Positions)	    ping_generic	
[00:00:12]: Mod: workshop-378160973 (Global Positions)	    ping_omw	
[00:00:12]: Mod: workshop-378160973 (Global Positions)	    ping_danger	
[00:00:12]: Mod: workshop-378160973 (Global Positions)	    ping_explore	
[00:00:12]: Mod: workshop-378160973 (Global Positions)	    ping_gohere	
[00:00:12]: Mod: workshop-378160973 (Global Positions)	  Registering default mod prefab	
[00:00:13]: Mod: workshop-1595631294 (Smart Minisign)	Registering prefabs	
[00:00:13]: Mod: workshop-1595631294 (Smart Minisign)	  Registering default mod prefab	
[00:00:13]: Mod: workshop-1207269058 ( Simple Health Bar DST)	Registering prefabs	
[00:00:13]: Mod: workshop-1207269058 ( Simple Health Bar DST)	  Registering prefab file: prefabs/dychealthbar	
[00:00:15]: Mod: workshop-1207269058 ( Simple Health Bar DST)	    dyc_damagedisplay	
[00:00:15]: Mod: workshop-1207269058 ( Simple Health Bar DST)	    dyc_healthbarchild	
[00:00:15]: Mod: workshop-1207269058 ( Simple Health Bar DST)	    dyc_healthbar	
[00:00:15]: Mod: workshop-1207269058 ( Simple Health Bar DST)	  Registering default mod prefab	
[00:00:16]: 	Load FE	
[00:00:16]: 	Load FE: done	
[00:00:16]: THREAD - started 'FilesExistAsyncThread' (9484)
[00:00:16]: FilesExistAsyncThread started (19097 files)...
[00:00:16]: Check for write access: TRUE
[00:00:16]: Check for read access: TRUE
[00:00:16]: Available disk space for save files: 100724 MB
[00:00:16]: ModIndex: Load sequence finished successfully.	
[00:00:16]: Reset() returning
[00:00:16]: [IPC] Signal 'DST_Secondary_Kill' opened  #00000000000008B0
[00:00:16]: [IPC] Registering handler for signal #00000000000008B0
[00:00:16]: [IPC] Handle #00000000000008B0 added to the Eventhandles
[00:00:16]: [IPC] Signal 'DST_Secondary_Starting' opened  #0000000000000910
[00:00:16]: [IPC] Sending signal... #0000000000000910
[00:00:17]: [200] Account Communication Success (6)
[00:00:17]: Received (KU_ZLAVBAna) from TokenPurpose
[00:00:17]: Starting Dedicated Server Game	
[00:00:18]: Network tick rate: U=15(2), D=0
[00:00:18]: About to start a server with the following settings:
[00:00:18]:   Dedicated: true
[00:00:18]:   Online: true
[00:00:18]:   Passworded: true
[00:00:18]:   ServerPort: 10998
[00:00:18]:   SteamAuthPort: 8767
[00:00:18]:   SteamMasterServerPort: 27017
[00:00:18]:   ClanID: false
[00:00:18]:   ClanOnly: false
[00:00:18]:   ClanAdmin: false
[00:00:18]:   LanOnly: false
[00:00:18]:   FriendsOnly: false
[00:00:18]:   EnableAutosaver: true
[00:00:18]:   EncodeUserPath: true
[00:00:18]:   PVP: false
[00:00:18]:   MaxPlayers: 6
[00:00:18]:   GameMode: endless
[00:00:18]:   OverridenDNS: 
[00:00:18]:   PauseWhenEmpty: true
[00:00:18]:   IdleTimeout: 1800s
[00:00:18]:   VoteEnabled: false
[00:00:18]:   InternetBroadcasting: true
[00:00:18]:   Intent: cooperative
[00:00:18]: [Warning] Could not confirm port 10998 is open in the firewall. 
[00:00:18]: Could not load mod_config_data/modconfiguration_workshop-1682381560	
[00:00:18]: Could not load mod_config_data/modconfiguration_workshop-1207269058	
[00:00:18]: Could not load mod_config_data/modconfiguration_workshop-375850593	
[00:00:18]: Could not load mod_config_data/modconfiguration_workshop-1595631294	
[00:00:18]: Could not load mod_config_data/modconfiguration_workshop-374550642	
[00:00:18]: Could not load mod_config_data/modconfiguration_workshop-378160973	
[00:00:18]: Could not load mod_config_data/modconfiguration_workshop-1280567941	
[00:00:18]: Could not load mod_config_data/modconfiguration_workshop-666155465	
[00:00:18]: Could not load mod_config_data/modconfiguration_workshop-1185229307	
[00:00:18]: Online Server Started on port: 10998
[00:00:18]: SUCCESS: Loaded modoverrides.lua	
[00:00:18]: Found a level data override file with these contents:	
[00:00:18]: 	K: 	background_node_range	 V: 	table: 000000000AC2EAB0	
[00:00:18]: 		K: 	1	 V: 	0	
[00:00:18]: 		K: 	2	 V: 	1	
[00:00:18]: 	K: 	desc	 V: 	Delve into the caves... together!	
[00:00:18]: 	K: 	hideminimap	 V: 	false	
[00:00:18]: 	K: 	id	 V: 	DST_CAVE	
[00:00:18]: 	K: 	location	 V: 	cave	
[00:00:18]: 	K: 	max_playlist_position	 V: 	999	
[00:00:18]: 	K: 	min_playlist_position	 V: 	0	
[00:00:18]: 	K: 	name	 V: 	The Caves	
[00:00:18]: 	K: 	numrandom_set_pieces	 V: 	0	
[00:00:18]: 	K: 	override_level_string	 V: 	false	
[00:00:18]: 	K: 	overrides	 V: 	table: 000000000AC2EBA0	
[00:00:18]: 		K: 	atriumgate	 V: 	default	
[00:00:18]: 		K: 	banana	 V: 	default	
[00:00:18]: 		K: 	bats	 V: 	default	
[00:00:18]: 		K: 	bats_setting	 V: 	default	
[00:00:18]: 		K: 	beefaloheat	 V: 	default	
[00:00:18]: 		K: 	berrybush	 V: 	default	
[00:00:18]: 		K: 	boons	 V: 	default	
[00:00:18]: 		K: 	branching	 V: 	default	
[00:00:18]: 		K: 	brightmarecreatures	 V: 	default	
[00:00:18]: 		K: 	bunnymen	 V: 	default	
[00:00:18]: 		K: 	bunnymen_setting	 V: 	default	
[00:00:18]: 		K: 	cave_ponds	 V: 	default	
[00:00:18]: 		K: 	cave_spiders	 V: 	default	
[00:00:18]: 		K: 	cavelight	 V: 	default	
[00:00:18]: 		K: 	chess	 V: 	default	
[00:00:18]: 		K: 	day	 V: 	default	
[00:00:18]: 		K: 	dropeverythingondespawn	 V: 	default	
[00:00:18]: 		K: 	dustmoths	 V: 	default	
[00:00:18]: 		K: 	earthquakes	 V: 	default	
[00:00:18]: 		K: 	extrastartingitems	 V: 	default	
[00:00:18]: 		K: 	fern	 V: 	default	
[00:00:18]: 		K: 	fissure	 V: 	default	
[00:00:18]: 		K: 	flint	 V: 	default	
[00:00:18]: 		K: 	flower_cave	 V: 	default	
[00:00:18]: 		K: 	flower_cave_regrowth	 V: 	default	
[00:00:18]: 		K: 	fruitfly	 V: 	default	
[00:00:18]: 		K: 	grass	 V: 	default	
[00:00:18]: 		K: 	grassgekkos	 V: 	default	
[00:00:18]: 		K: 	krampus	 V: 	default	
[00:00:18]: 		K: 	layout_mode	 V: 	RestrictNodesByKey	
[00:00:18]: 		K: 	lichen	 V: 	default	
[00:00:18]: 		K: 	liefs	 V: 	default	
[00:00:18]: 		K: 	lightflier_flower_regrowth	 V: 	default	
[00:00:18]: 		K: 	lightfliers	 V: 	default	
[00:00:18]: 		K: 	loop	 V: 	default	
[00:00:18]: 		K: 	marshbush	 V: 	default	
[00:00:18]: 		K: 	merms	 V: 	default	
[00:00:18]: 		K: 	molebats	 V: 	default	
[00:00:18]: 		K: 	moles_setting	 V: 	default	
[00:00:18]: 		K: 	monkey	 V: 	default	
[00:00:18]: 		K: 	monkey_setting	 V: 	default	
[00:00:18]: 		K: 	mushgnome	 V: 	default	
[00:00:18]: 		K: 	mushroom	 V: 	default	
[00:00:18]: 		K: 	mushtree	 V: 	default	
[00:00:18]: 		K: 	mushtree_moon_regrowth	 V: 	default	
[00:00:18]: 		K: 	mushtree_regrowth	 V: 	default	
[00:00:18]: 		K: 	nightmarecreatures	 V: 	default	
[00:00:18]: 		K: 	pigs_setting	 V: 	default	
[00:00:18]: 		K: 	prefabswaps_start	 V: 	default	
[00:00:18]: 		K: 	reeds	 V: 	default	
[00:00:18]: 		K: 	regrowth	 V: 	default	
[00:00:18]: 		K: 	roads	 V: 	never	
[00:00:18]: 		K: 	rock	 V: 	default	
[00:00:18]: 		K: 	rocky	 V: 	default	
[00:00:18]: 		K: 	rocky_setting	 V: 	default	
[00:00:18]: 		K: 	sapling	 V: 	default	
[00:00:18]: 		K: 	season_start	 V: 	default	
[00:00:18]: 		K: 	seasonalstartingitems	 V: 	default	
[00:00:18]: 		K: 	shadowcreatures	 V: 	default	
[00:00:18]: 		K: 	slurper	 V: 	default	
[00:00:18]: 		K: 	slurtles	 V: 	default	
[00:00:18]: 		K: 	slurtles_setting	 V: 	default	
[00:00:18]: 		K: 	snurtles	 V: 	default	
[00:00:18]: 		K: 	spawnprotection	 V: 	default	
[00:00:18]: 		K: 	specialevent	 V: 	default	
[00:00:18]: 		K: 	spider_dropper	 V: 	default	
[00:00:18]: 		K: 	spider_hider	 V: 	default	
[00:00:18]: 		K: 	spider_spitter	 V: 	default	
[00:00:18]: 		K: 	spider_warriors	 V: 	default	
[00:00:18]: 		K: 	spiderqueen	 V: 	default	
[00:00:18]: 		K: 	spiders	 V: 	default	
[00:00:18]: 		K: 	spiders_setting	 V: 	default	
[00:00:18]: 		K: 	start_location	 V: 	caves	
[00:00:18]: 		K: 	task_set	 V: 	cave_default	
[00:00:18]: 		K: 	tentacles	 V: 	default	
[00:00:18]: 		K: 	toadstool	 V: 	default	
[00:00:18]: 		K: 	touchstone	 V: 	default	
[00:00:18]: 		K: 	trees	 V: 	default	
[00:00:18]: 		K: 	weather	 V: 	default	
[00:00:18]: 		K: 	world_size	 V: 	default	
[00:00:18]: 		K: 	wormattacks	 V: 	default	
[00:00:18]: 		K: 	wormhole_prefab	 V: 	tentacle_pillar	
[00:00:18]: 		K: 	wormlights	 V: 	default	
[00:00:18]: 		K: 	worms	 V: 	default	
[00:00:18]: 	K: 	required_prefabs	 V: 	table: 000000000AC30540	
[00:00:18]: 		K: 	1	 V: 	multiplayer_portal	
[00:00:18]: 	K: 	settings_desc	 V: 	Delve into the caves... together!	
[00:00:18]: 	K: 	settings_id	 V: 	DST_CAVE	
[00:00:18]: 	K: 	settings_name	 V: 	The Caves	
[00:00:18]: 	K: 	substitutes	 V: 	table: 000000000AC35BD0	
[00:00:18]: 	K: 	version	 V: 	4	
[00:00:18]: 	K: 	worldgen_desc	 V: 	Delve into the caves... together!	
[00:00:18]: 	K: 	worldgen_id	 V: 	DST_CAVE	
[00:00:18]: 	K: 	worldgen_name	 V: 	The Caves	
[00:00:18]: Loaded and applied level data override from ../leveldataoverride.lua	
[00:00:18]: Overwriting savedata with level data file.	
[00:00:18]: Not applying world gen overrides.	
[00:00:18]: Collecting garbage...
[00:00:18]: lua_gc took 0.12 seconds
[00:00:18]: ~ShardLuaProxy()
[00:00:18]: ~cEventLeaderboardProxy()
[00:00:18]: ~ItemServerLuaProxy()
[00:00:18]: ~InventoryLuaProxy()
[00:00:18]: ~NetworkLuaProxy()
[00:00:18]: ~SimLuaProxy()
[00:00:18]: FilesExistAsyncThread aborted.
[00:00:18]: ... FilesExistAsyncThread complete
[00:00:18]: lua_close took 0.10 seconds
[00:00:18]: ReleaseAll
[00:00:18]: ReleaseAll Finished
[00:00:18]: cGame::StartPlaying
[00:00:18]: AppVersion::GetArchitecture() x64
[00:00:18]: LOADING LUA
[00:00:18]: DoLuaFile scripts/main.lua
[00:00:18]: DoLuaFile loading buffer scripts/main.lua
[00:00:19]:   taskgrouplist:	default	Together	
[00:00:19]:   taskgrouplist:	classic	Classic	
[00:00:19]:   taskgrouplist:	cave_default	Underground	
[00:00:19]:   taskgrouplist:	lavaarena_taskset	The Forge	
[00:00:19]:   taskgrouplist:	quagmire_taskset	The Gorge	
[00:00:19]: running main.lua
	
[00:00:19]: loaded modindex	
[00:00:19]: ModIndex: Beginning normal load sequence for dedicated server.
	
[00:00:19]: SUCCESS: Loaded modoverrides.lua	
[00:00:19]: modoverrides.lua enabling workshop-374550642	
[00:00:19]: modoverrides.lua enabling workshop-378160973	
[00:00:19]: modoverrides.lua enabling workshop-1682381560	
[00:00:19]: modoverrides.lua enabling workshop-375850593	
[00:00:19]: modoverrides.lua enabling workshop-1207269058	
[00:00:19]: modoverrides.lua enabling workshop-1185229307	
[00:00:19]: modoverrides.lua enabling workshop-1280567941	
[00:00:19]: modoverrides.lua enabling workshop-501385076	
[00:00:19]: modoverrides.lua enabling workshop-666155465	
[00:00:19]: modoverrides.lua enabling workshop-1458450094	
[00:00:19]: modoverrides.lua enabling workshop-1595631294	
[00:00:19]: ModIndex:GetModsToLoad inserting moddir, 	workshop-1280567941	
[00:00:19]: ModIndex:GetModsToLoad inserting moddir, 	workshop-1458450094	
[00:00:19]: ModIndex:GetModsToLoad inserting moddir, 	workshop-1595631294	
[00:00:19]: ModIndex:GetModsToLoad inserting moddir, 	workshop-1682381560	
[00:00:19]: ModIndex:GetModsToLoad inserting moddir, 	workshop-374550642	
[00:00:19]: ModIndex:GetModsToLoad inserting moddir, 	workshop-375850593	
[00:00:19]: ModIndex:GetModsToLoad inserting moddir, 	workshop-378160973	
[00:00:19]: ModIndex:GetModsToLoad inserting moddir, 	workshop-501385076	
[00:00:19]: ModIndex:GetModsToLoad inserting forcedmoddir, 	workshop-1207269058	
[00:00:19]: ModIndex:GetModsToLoad inserting forcedmoddir, 	workshop-1185229307	
[00:00:19]: ModIndex:GetModsToLoad inserting forcedmoddir, 	workshop-666155465	
[00:00:19]: Could not load mod_config_data/modconfiguration_workshop-1280567941	
[00:00:19]: Loading mod: workshop-1280567941 (Construction Planning) Version:1.7	
[00:00:19]: Could not load mod_config_data/modconfiguration_workshop-1458450094	
[00:00:19]: Loading mod: workshop-1458450094 (Auto Trap Reset) Version:2.1	
[00:00:19]: Could not load mod_config_data/modconfiguration_workshop-1595631294	
[00:00:19]: Loading mod: workshop-1595631294 (Smart Minisign) Version:1.1.5	
[00:00:19]: Could not load mod_config_data/modconfiguration_workshop-1682381560	
[00:00:19]: Loading mod: workshop-1682381560 (Level Up System) Version:1.1	
[00:00:19]: Could not load mod_config_data/modconfiguration_workshop-374550642	
[00:00:19]: Loading mod: workshop-374550642 (Increased Stack size) Version:1.62	
[00:00:19]: Could not load mod_config_data/modconfiguration_workshop-375850593	
[00:00:19]: Loading mod: workshop-375850593 (Extra Equip Slots) Version:1.8.0	
[00:00:19]: Could not load mod_config_data/modconfiguration_workshop-378160973	
[00:00:19]: Loading mod: workshop-378160973 (Global Positions) Version:1.7.3	
[00:00:19]: Could not load mod_config_data/modconfiguration_workshop-501385076	
[00:00:19]: Loading mod: workshop-501385076 (Quick Pick) Version:1.4.0	
[00:00:19]: Could not load mod_config_data/modconfiguration_workshop-1207269058	
[00:00:19]: Loading mod: workshop-1207269058 ( Simple Health Bar DST) Version:2.15	
[00:00:19]: Could not load mod_config_data/modconfiguration_workshop-1185229307	
[00:00:19]: Loading mod: workshop-1185229307 (Epic Healthbar) Version:9.2	
[00:00:19]: Could not load mod_config_data/modconfiguration_workshop-666155465	
[00:00:19]: Loading mod: workshop-666155465 (Show Me (Origin)) Version:0.57	
[00:00:19]: applying configuration_options from modoverrides.lua to mod workshop-374550642	
[00:00:19]: Overriding mod workshop-374550642's option MAXSTACKSIZE with value 99	
[00:00:19]: applying configuration_options from modoverrides.lua to mod workshop-378160973	
[00:00:19]: Overriding mod workshop-378160973's option FIREOPTIONS with value 2	
[00:00:19]: Overriding mod workshop-378160973's option SHOWFIREICONS with value true	
[00:00:19]: Overriding mod workshop-378160973's option SHAREMINIMAPPROGRESS with value true	
[00:00:19]: Overriding mod workshop-378160973's option SHOWPLAYERICONS with value true	
[00:00:19]: Overriding mod workshop-378160973's option OVERRIDEMODE with value false	
[00:00:19]: Overriding mod workshop-378160973's option SHOWPLAYERSOPTIONS with value 2	
[00:00:19]: Overriding mod workshop-378160973's option ENABLEPINGS with value true	
[00:00:19]: applying configuration_options from modoverrides.lua to mod workshop-1682381560	
[00:00:19]: Overriding mod workshop-1682381560's option EXP_PERCENT with value 1	
[00:00:19]: Overriding mod workshop-1682381560's option SHOWINFO with value 118	
[00:00:19]: Overriding mod workshop-1682381560's option INITIAL_STATE with value 1	
[00:00:19]: applying configuration_options from modoverrides.lua to mod workshop-375850593	
[00:00:19]: applying configuration_options from modoverrides.lua to mod workshop-1207269058	
[00:00:19]: applying configuration_options from modoverrides.lua to mod workshop-1185229307	
[00:00:19]: Overriding mod workshop-1185229307's option  with value 	
[00:00:19]: Overriding mod workshop-1185229307's option  with value 	
[00:00:19]: Overriding mod workshop-1185229307's option WETNESS_METER with value false	
[00:00:19]: Overriding mod workshop-1185229307's option NOEPIC with value false	
[00:00:19]: Overriding mod workshop-1185229307's option FRAME_PHASES with value true	
[00:00:19]: Overriding mod workshop-1185229307's option DAMAGE_NUMBERS with value true	
[00:00:19]: Overriding mod workshop-1185229307's option NONOEPIC with value false	
[00:00:19]: Overriding mod workshop-1185229307's option DAMAGE_RESISTANCE with value true	
[00:00:19]: Overriding mod workshop-1185229307's option HORIZONTAL_OFFSET with value 0	
[00:00:19]: applying configuration_options from modoverrides.lua to mod workshop-1280567941	
[00:00:19]: Overriding mod workshop-1280567941's option color with value 0.5	
[00:00:19]: Overriding mod workshop-1280567941's option language with value 2	
[00:00:19]: Overriding mod workshop-1280567941's option alpha with value 0.5	
[00:00:19]: Overriding mod workshop-1280567941's option chestwithsign with value 0	
[00:00:19]: applying configuration_options from modoverrides.lua to mod workshop-501385076	
[00:00:19]: Overriding mod workshop-501385076's option quick_pick_cactus with value true	
[00:00:19]: Overriding mod workshop-501385076's option quick_pick_plant_normal_ground with value true	
[00:00:19]: Overriding mod workshop-501385076's option quick_cook_on_fire with value true	
[00:00:19]: Overriding mod workshop-501385076's option quick_harvest with value true	
[00:00:19]: applying configuration_options from modoverrides.lua to mod workshop-666155465	
[00:00:19]: Overriding mod workshop-666155465's option chestR with value -1	
[00:00:19]: Overriding mod workshop-666155465's option food_style with value 0	
[00:00:19]: Overriding mod workshop-666155465's option display_hp with value -1	
[00:00:19]: Overriding mod workshop-666155465's option show_uses with value -1	
[00:00:19]: Overriding mod workshop-666155465's option show_food_units with value -1	
[00:00:19]: Overriding mod workshop-666155465's option lang with value auto	
[00:00:19]: Overriding mod workshop-666155465's option chestB with value -1	
[00:00:19]: Overriding mod workshop-666155465's option food_order with value 0	
[00:00:19]: Overriding mod workshop-666155465's option chestG with value -1	
[00:00:19]: Overriding mod workshop-666155465's option food_estimation with value -1	
[00:00:19]: applying configuration_options from modoverrides.lua to mod workshop-1458450094	
[00:00:19]: Overriding mod workshop-1458450094's option  with value 0	
[00:00:19]: Overriding mod workshop-1458450094's option  with value 0	
[00:00:19]: Overriding mod workshop-1458450094's option  with value 0	
[00:00:19]: Overriding mod workshop-1458450094's option  with value 0	
[00:00:19]: Overriding mod workshop-1458450094's option log with value false	
[00:00:19]: Overriding mod workshop-1458450094's option houndstooth with value false	
[00:00:19]: Overriding mod workshop-1458450094's option livinglog with value false	
[00:00:19]: Overriding mod workshop-1458450094's option stinger with value false	
[00:00:19]: Overriding mod workshop-1458450094's option rope with value false	
[00:00:19]: Overriding mod workshop-1458450094's option retraprandomy with value 120	
[00:00:19]: Overriding mod workshop-1458450094's option mode with value fix	
[00:00:19]: Overriding mod workshop-1458450094's option retraprandomx with value 10	
[00:00:19]: Overriding mod workshop-1458450094's option retrapfix with value 60	
[00:00:19]: applying configuration_options from modoverrides.lua to mod workshop-1595631294	
[00:00:19]: Overriding mod workshop-1595631294's option SaltBox with value false	
[00:00:19]: Overriding mod workshop-1595631294's option BundleItems with value false	
[00:00:19]: Overriding mod workshop-1595631294's option Digornot with value false	
[00:00:19]: Overriding mod workshop-1595631294's option ChangeSkin with value true	
[00:00:19]: Overriding mod workshop-1595631294's option Icebox with value false	
[00:00:19]: Overriding mod workshop-1595631294's option DragonflyChest with value false	
[00:00:19]: Mod: workshop-1185229307 (Epic Healthbar)	Loading modworldgenmain.lua	
[00:00:19]: Mod: workshop-1185229307 (Epic Healthbar)	  Mod had no modworldgenmain.lua. Skipping.	
[00:00:19]: Mod: workshop-1185229307 (Epic Healthbar)	Loading modmain.lua	
[00:00:19]: Mod: workshop-375850593 (Extra Equip Slots)	Loading modworldgenmain.lua	
[00:00:19]: Mod: workshop-375850593 (Extra Equip Slots)	  Mod had no modworldgenmain.lua. Skipping.	
[00:00:19]: Mod: workshop-375850593 (Extra Equip Slots)	Loading modmain.lua	
[00:00:19]: Mod: workshop-666155465 (Show Me (Origin))	Loading modworldgenmain.lua	
[00:00:19]: Mod: workshop-666155465 (Show Me (Origin))	  Mod had no modworldgenmain.lua. Skipping.	
[00:00:19]: Mod: workshop-666155465 (Show Me (Origin))	Loading modmain.lua	
[00:00:19]: ShowMe version:	0.57	
[00:00:19]: show_food_units	-1	-1	-1	
[00:00:19]: show_uses	-1	-1	-1	
[00:00:19]: Detected language for ShowMe: 	auto		
[00:00:19]: Mod: workshop-374550642 (Increased Stack size)	Loading modworldgenmain.lua	
[00:00:19]: Mod: workshop-374550642 (Increased Stack size)	  Mod had no modworldgenmain.lua. Skipping.	
[00:00:19]: Mod: workshop-374550642 (Increased Stack size)	Loading modmain.lua	
[00:00:19]: Mod: workshop-501385076 (Quick Pick)	Loading modworldgenmain.lua	
[00:00:19]: Mod: workshop-501385076 (Quick Pick)	  Mod had no modworldgenmain.lua. Skipping.	
[00:00:19]: Mod: workshop-501385076 (Quick Pick)	Loading modmain.lua	
[00:00:19]: Mod: workshop-1682381560 (Level Up System)	Loading modworldgenmain.lua	
[00:00:19]: Mod: workshop-1682381560 (Level Up System)	  Mod had no modworldgenmain.lua. Skipping.	
[00:00:19]: Mod: workshop-1682381560 (Level Up System)	Loading modmain.lua	
[00:00:19]: modimport: ../mods/workshop-1682381560/scripts/patches/wolfgangchanges.lua	
[00:00:19]: modimport: ../mods/workshop-1682381560/scripts/patches/wx78changes.lua	
[00:00:19]: modimport: ../mods/workshop-1682381560/scripts/patches/playerchanges.lua	
[00:00:19]: Mod: workshop-1280567941 (Construction Planning)	Loading modworldgenmain.lua	
[00:00:19]: Mod: workshop-1280567941 (Construction Planning)	  Mod had no modworldgenmain.lua. Skipping.	
[00:00:19]: Mod: workshop-1280567941 (Construction Planning)	Loading modmain.lua	
[00:00:19]: Mod: workshop-1458450094 (Auto Trap Reset)	Loading modworldgenmain.lua	
[00:00:19]: Mod: workshop-1458450094 (Auto Trap Reset)	  Mod had no modworldgenmain.lua. Skipping.	
[00:00:19]: Mod: workshop-1458450094 (Auto Trap Reset)	Loading modmain.lua	
[00:00:19]: Mod: workshop-378160973 (Global Positions)	Loading modworldgenmain.lua	
[00:00:19]: Mod: workshop-378160973 (Global Positions)	  Mod had no modworldgenmain.lua. Skipping.	
[00:00:19]: Mod: workshop-378160973 (Global Positions)	Loading modmain.lua	
[00:00:19]: ModIndex:GetModsToLoad inserting moddir, 	workshop-1280567941	
[00:00:19]: ModIndex:GetModsToLoad inserting moddir, 	workshop-1458450094	
[00:00:19]: ModIndex:GetModsToLoad inserting moddir, 	workshop-1595631294	
[00:00:19]: ModIndex:GetModsToLoad inserting moddir, 	workshop-1682381560	
[00:00:19]: ModIndex:GetModsToLoad inserting moddir, 	workshop-374550642	
[00:00:19]: ModIndex:GetModsToLoad inserting moddir, 	workshop-375850593	
[00:00:19]: ModIndex:GetModsToLoad inserting moddir, 	workshop-378160973	
[00:00:19]: ModIndex:GetModsToLoad inserting moddir, 	workshop-501385076	
[00:00:19]: ModIndex:GetModsToLoad inserting forcedmoddir, 	workshop-1207269058	
[00:00:19]: ModIndex:GetModsToLoad inserting forcedmoddir, 	workshop-1185229307	
[00:00:19]: ModIndex:GetModsToLoad inserting forcedmoddir, 	workshop-666155465	
[00:00:19]: Mod: workshop-1595631294 (Smart Minisign)	Loading modworldgenmain.lua	
[00:00:19]: Mod: workshop-1595631294 (Smart Minisign)	  Mod had no modworldgenmain.lua. Skipping.	
[00:00:19]: Mod: workshop-1595631294 (Smart Minisign)	Loading modmain.lua	
[00:00:19]: Mod: workshop-1207269058 ( Simple Health Bar DST)	Loading modworldgenmain.lua	
[00:00:19]: Mod: workshop-1207269058 ( Simple Health Bar DST)	  Mod had no modworldgenmain.lua. Skipping.	
[00:00:19]: Mod: workshop-1207269058 ( Simple Health Bar DST)	Loading modmain.lua	
[00:00:20]: Event data unavailable: lavaarena_event_server/lavaarena_achievement_quest_defs
[00:00:20]: LOADING LUA SUCCESS
[00:00:20]: Registering Server mod namespace "workshop-1207269058"
[00:00:20]: Registering Server mod namespace "showme"
[00:00:20]: Registering Server mod namespace "showmeshint"
[00:00:20]: Registering Server mod namespace "workshop-378160973"
[00:00:20]: Registering Server mod namespace "modlevelupsystem"
[00:00:20]: PlayerDeaths could not load morgue	
[00:00:20]: PlayerHistory could not load player_history	
[00:00:20]: ServerPreferences could not load server_preferences	
[00:00:20]: bloom_enabled	true	
[00:00:20]: OnFilesLoaded()	
[00:00:20]: OnUpdatePurchaseStateComplete	
[00:00:20]: Loading world: session/7AA56935F2FFDB09/0000000156	
[00:00:20]: Save file is at version 5.09	
[00:00:20]: Klump load on boot started.	
[00:00:20]: Klump files loaded: 	0	
[00:00:20]: 	Unload FE	
[00:00:20]: 	Unload FE done	
[00:00:22]: Mod: workshop-1185229307 (Epic Healthbar)	Registering prefabs	
[00:00:22]: Mod: workshop-1185229307 (Epic Healthbar)	  Registering prefab file: prefabs/epichealth_proxy	
[00:00:22]: Mod: workshop-1185229307 (Epic Healthbar)	    epichealth_proxy	
[00:00:22]: Mod: workshop-1185229307 (Epic Healthbar)	  Registering default mod prefab	
[00:00:22]: Mod: workshop-375850593 (Extra Equip Slots)	Registering prefabs	
[00:00:22]: Mod: workshop-375850593 (Extra Equip Slots)	  Registering default mod prefab	
[00:00:22]: Mod: workshop-666155465 (Show Me (Origin))	Registering prefabs	
[00:00:22]: Mod: workshop-666155465 (Show Me (Origin))	  Registering default mod prefab	
[00:00:22]: Mod: workshop-374550642 (Increased Stack size)	Registering prefabs	
[00:00:22]: Mod: workshop-374550642 (Increased Stack size)	  Registering default mod prefab	
[00:00:22]: Mod: workshop-501385076 (Quick Pick)	Registering prefabs	
[00:00:22]: Mod: workshop-501385076 (Quick Pick)	  Registering default mod prefab	
[00:00:22]: Mod: workshop-1682381560 (Level Up System)	Registering prefabs	
[00:00:22]: Mod: workshop-1682381560 (Level Up System)	  Registering default mod prefab	
[00:00:22]: Mod: workshop-1280567941 (Construction Planning)	Registering prefabs	
[00:00:22]: Mod: workshop-1280567941 (Construction Planning)	  Registering prefab file: prefabs/virtualstruct	
[00:00:22]: Mod: workshop-1280567941 (Construction Planning)	    virtualfirepit	
[00:00:22]: Mod: workshop-1280567941 (Construction Planning)	    virtualcoldfirepit	
[00:00:22]: Mod: workshop-1280567941 (Construction Planning)	    virtualmushroom_light	
[00:00:22]: Mod: workshop-1280567941 (Construction Planning)	    virtualmushroom_light2	
[00:00:22]: Mod: workshop-1280567941 (Construction Planning)	    virtualtreasurechest	
[00:00:22]: Mod: workshop-1280567941 (Construction Planning)	    virtualhomesign	
[00:00:22]: Mod: workshop-1280567941 (Construction Planning)	    virtualpighouse	
[00:00:22]: Mod: workshop-1280567941 (Construction Planning)	    virtualrabbithouse	
[00:00:22]: Mod: workshop-1280567941 (Construction Planning)	    virtualbirdcage	
[00:00:22]: Mod: workshop-1280567941 (Construction Planning)	    virtualwardrobe	
[00:00:22]: Mod: workshop-1280567941 (Construction Planning)	    virtualscarecrow	
[00:00:22]: Mod: workshop-1280567941 (Construction Planning)	    virtualwinter_treestand	
[00:00:22]: Mod: workshop-1280567941 (Construction Planning)	    virtualendtable	
[00:00:22]: Mod: workshop-1280567941 (Construction Planning)	    virtualdragonflychest	
[00:00:22]: Mod: workshop-1280567941 (Construction Planning)	    virtualdragonflyfurnace	
[00:00:22]: Mod: workshop-1280567941 (Construction Planning)	    virtualmushroom_farm	
[00:00:22]: Mod: workshop-1280567941 (Construction Planning)	    virtualbeebox	
[00:00:22]: Mod: workshop-1280567941 (Construction Planning)	    virtualmeatrack	
[00:00:22]: Mod: workshop-1280567941 (Construction Planning)	    virtualcookpot	
[00:00:22]: Mod: workshop-1280567941 (Construction Planning)	    virtualicebox	
[00:00:22]: Mod: workshop-1280567941 (Construction Planning)	    virtualtent	
[00:00:22]: Mod: workshop-1280567941 (Construction Planning)	    virtualsiestahut	
[00:00:22]: Mod: workshop-1280567941 (Construction Planning)	    virtualsaltlick	
[00:00:22]: Mod: workshop-1280567941 (Construction Planning)	    virtualresearchlab	
[00:00:22]: Mod: workshop-1280567941 (Construction Planning)	    virtualresearchlab2	
[00:00:22]: Mod: workshop-1280567941 (Construction Planning)	    virtualresearchlab3	
[00:00:22]: Mod: workshop-1280567941 (Construction Planning)	    virtualresearchlab4	
[00:00:22]: Mod: workshop-1280567941 (Construction Planning)	    virtualcartographydesk	
[00:00:22]: Mod: workshop-1280567941 (Construction Planning)	    virtualsculptingtable	
[00:00:22]: Mod: workshop-1280567941 (Construction Planning)	    virtuallightning_rod	
[00:00:22]: Mod: workshop-1280567941 (Construction Planning)	    virtualsentryward	
[00:00:22]: Mod: workshop-1280567941 (Construction Planning)	    virtualmoondial	
[00:00:22]: Mod: workshop-1280567941 (Construction Planning)	    virtualtownportal	
[00:00:22]: Mod: workshop-1280567941 (Construction Planning)	    virtualgrass	
[00:00:22]: Mod: workshop-1280567941 (Construction Planning)	    virtualsapling	
[00:00:22]: Mod: workshop-1280567941 (Construction Planning)	    virtualberrybush	
[00:00:22]: Mod: workshop-1280567941 (Construction Planning)	    virtualberrybush2	
[00:00:22]: Mod: workshop-1280567941 (Construction Planning)	    virtualberrybush_juicy	
[00:00:22]: Mod: workshop-1280567941 (Construction Planning)	  Registering prefab file: prefabs/virtualwall	
[00:00:22]: Mod: workshop-1280567941 (Construction Planning)	    virtualwall_stone_item	
[00:00:22]: Mod: workshop-1280567941 (Construction Planning)	    virtualwall_stone	
[00:00:22]: Mod: workshop-1280567941 (Construction Planning)	    virtualwall_stone_item_placer	
[00:00:22]: Mod: workshop-1280567941 (Construction Planning)	  Registering prefab file: prefabs/virtualplantable	
[00:00:22]: Mod: workshop-1280567941 (Construction Planning)	    virtualdug_berrybush	
[00:00:22]: Mod: workshop-1280567941 (Construction Planning)	    virtualdug_berrybush_placer	
[00:00:22]: Mod: workshop-1280567941 (Construction Planning)	    virtualdug_berrybush2	
[00:00:22]: Mod: workshop-1280567941 (Construction Planning)	    virtualdug_berrybush2_placer	
[00:00:22]: Mod: workshop-1280567941 (Construction Planning)	    virtualdug_berrybush_juicy	
[00:00:22]: Mod: workshop-1280567941 (Construction Planning)	    virtualdug_berrybush_juicy_placer	
[00:00:22]: Mod: workshop-1280567941 (Construction Planning)	    virtualdug_sapling	
[00:00:22]: Mod: workshop-1280567941 (Construction Planning)	    virtualdug_sapling_placer	
[00:00:22]: Mod: workshop-1280567941 (Construction Planning)	    virtualdug_grass	
[00:00:22]: Mod: workshop-1280567941 (Construction Planning)	    virtualdug_grass_placer	
[00:00:22]: Mod: workshop-1280567941 (Construction Planning)	    virtualdug_marsh_bush	
[00:00:22]: Mod: workshop-1280567941 (Construction Planning)	    virtualdug_marsh_bush_placer	
[00:00:22]: Mod: workshop-1280567941 (Construction Planning)	  Registering prefab file: prefabs/virtualfarmplot	
[00:00:22]: Mod: workshop-1280567941 (Construction Planning)	    virtualfast_farmplot	
[00:00:22]: Mod: workshop-1280567941 (Construction Planning)	    virtualfast_farmplot_placer	
[00:00:22]: Mod: workshop-1280567941 (Construction Planning)	  Registering prefab file: prefabs/virtualfiresuppressor	
[00:00:22]: Mod: workshop-1280567941 (Construction Planning)	    virtualfiresuppressor	
[00:00:22]: Mod: workshop-1280567941 (Construction Planning)	  Registering prefab file: prefabs/virtualfence	
[00:00:22]: Mod: workshop-1280567941 (Construction Planning)	    virtualfence	
[00:00:22]: Mod: workshop-1280567941 (Construction Planning)	    virtualfence_item	
[00:00:22]: Mod: workshop-1280567941 (Construction Planning)	    virtualfence_item_placer	
[00:00:22]: Mod: workshop-1280567941 (Construction Planning)	    virtualfence_gate	
[00:00:22]: Mod: workshop-1280567941 (Construction Planning)	    virtualfence_gate_item	
[00:00:22]: Mod: workshop-1280567941 (Construction Planning)	    virtualfence_gate_item_placer	
[00:00:22]: Mod: workshop-1280567941 (Construction Planning)	  Registering default mod prefab	
[00:00:23]: Mod: workshop-1458450094 (Auto Trap Reset)	Registering prefabs	
[00:00:23]: Mod: workshop-1458450094 (Auto Trap Reset)	  Registering default mod prefab	
[00:00:23]: Mod: workshop-378160973 (Global Positions)	Registering prefabs	
[00:00:23]: Mod: workshop-378160973 (Global Positions)	  Registering prefab file: prefabs/globalposition_classified	
[00:00:23]: Mod: workshop-378160973 (Global Positions)	    globalposition_classified	
[00:00:23]: Mod: workshop-378160973 (Global Positions)	  Registering prefab file: prefabs/smoketrail	
[00:00:23]: Mod: workshop-378160973 (Global Positions)	    smoketrail	
[00:00:23]: Mod: workshop-378160973 (Global Positions)	  Registering prefab file: prefabs/globalmapicon_noproxy	
[00:00:23]: Mod: workshop-378160973 (Global Positions)	    globalmapicon_noproxy	
[00:00:23]: Mod: workshop-378160973 (Global Positions)	  Registering prefab file: prefabs/worldmapexplorer	
[00:00:23]: Mod: workshop-378160973 (Global Positions)	    worldmapexplorer	
[00:00:23]: Mod: workshop-378160973 (Global Positions)	  Registering prefab file: prefabs/pings	
[00:00:23]: Mod: workshop-378160973 (Global Positions)	    ping_generic	
[00:00:23]: Mod: workshop-378160973 (Global Positions)	    ping_omw	
[00:00:23]: Mod: workshop-378160973 (Global Positions)	    ping_danger	
[00:00:23]: Mod: workshop-378160973 (Global Positions)	    ping_explore	
[00:00:23]: Mod: workshop-378160973 (Global Positions)	    ping_gohere	
[00:00:23]: Mod: workshop-378160973 (Global Positions)	  Registering default mod prefab	
[00:00:23]: Mod: workshop-1595631294 (Smart Minisign)	Registering prefabs	
[00:00:23]: Mod: workshop-1595631294 (Smart Minisign)	  Registering default mod prefab	
[00:00:23]: Mod: workshop-1207269058 ( Simple Health Bar DST)	Registering prefabs	
[00:00:23]: Mod: workshop-1207269058 ( Simple Health Bar DST)	  Registering prefab file: prefabs/dychealthbar	
[00:00:23]: Mod: workshop-1207269058 ( Simple Health Bar DST)	    dyc_damagedisplay	
[00:00:23]: Mod: workshop-1207269058 ( Simple Health Bar DST)	    dyc_healthbarchild	
[00:00:23]: Mod: workshop-1207269058 ( Simple Health Bar DST)	    dyc_healthbar	
[00:00:23]: Mod: workshop-1207269058 ( Simple Health Bar DST)	  Registering default mod prefab	
[00:00:23]: 	LOAD BE	
[00:01:28]: 	LOAD BE: done	
[00:01:28]: Begin Session: 7AA56935F2FFDB09
[00:01:28]: saving to server_temp/server_save	
[00:01:28]: MiniMapComponent::AddAtlas( minimap/minimap_data.xml )
[00:01:28]: MiniMapComponent::AddAtlas( ../mods/workshop-378160973/minimap/campfire.xml )
[00:01:28]: MiniMapComponent::AddAtlas( ../mods/workshop-378160973/minimap/ping_generic.xml )
[00:01:28]: MiniMapComponent::AddAtlas( ../mods/workshop-378160973/minimap/ping_gohere.xml )
[00:01:28]: MiniMapComponent::AddAtlas( ../mods/workshop-378160973/minimap/ping_explore.xml )
[00:01:28]: MiniMapComponent::AddAtlas( ../mods/workshop-378160973/minimap/ping_danger.xml )
[00:01:28]: MiniMapComponent::AddAtlas( ../mods/workshop-378160973/minimap/ping_omw.xml )
[00:01:28]: Loading 18 new character(s)	
[00:01:35]: Total 18 character(s) loaded	
[00:01:39]: Loading Nav Grid	
[00:01:39]: World generated on build 487848 with save version: 5.09, using seed: 1639622048	
[00:01:39]: setting 	summerlength	15	
[00:01:39]: setting 	cavemoonphase	quarter	
[00:01:39]: setting 	iscavefullmoon	false	
[00:01:39]: setting 	isnightmaredawn	false	
[00:01:39]: setting 	elapseddaysinseason	2	
[00:01:39]: setting 	isfullmoon	false	
[00:01:39]: setting 	moisture	3162.2880859375	
[00:01:39]: setting 	cavephase	dusk	
[00:01:39]: setting 	iscavewaxingmoon	true	
[00:01:39]: setting 	isnightmarewild	true	
[00:01:39]: setting 	nightmaretimeinphase	0.53991667251178	
[00:01:39]: setting 	precipitationrate	0	
[00:01:39]: setting 	iswet	false	
[00:01:39]: setting 	isnewmoon	false	
[00:01:39]: setting 	precipitation	none	
[00:01:39]: setting 	israining	false	
[00:01:39]: setting 	isnightmarewarn	false	
[00:01:39]: setting 	iswinter	false	
[00:01:39]: setting 	season	autumn	
[00:01:39]: setting 	remainingdaysinseason	18	
[00:01:39]: setting 	winterlength	15	
[00:01:39]: setting 	iscaveday	false	
[00:01:39]: setting 	moistureceil	8613.0126953125	
[00:01:39]: setting 	isday	false	
[00:01:39]: setting 	springlength	20	
[00:01:39]: setting 	wetness	0	
[00:01:39]: setting 	iscavedusk	true	
[00:01:39]: setting 	isalterawake	false	
[00:01:39]: setting 	isnightmarecalm	false	
[00:01:39]: setting 	isnight	true	
[00:01:39]: setting 	isdusk	false	
[00:01:39]: setting 	isspring	false	
[00:01:39]: setting 	isautumn	true	
[00:01:39]: setting 	issnowing	false	
[00:01:39]: setting 	iswaxingmoon	true	
[00:01:39]: setting 	phase	night	
[00:01:39]: setting 	snowlevel	0	
[00:01:39]: setting 	issnowcovered	false	
[00:01:39]: setting 	autumnlength	20	
[00:01:39]: setting 	pop	0.33282315776523	
[00:01:39]: setting 	nightmaretime	530.98750087677	
[00:01:39]: setting 	seasonprogress	0.1	
[00:01:39]: setting 	moonphase	new	
[00:01:39]: setting 	nightmarephase	wild	
[00:01:39]: setting 	cycles	142	
[00:01:39]: setting 	timeinphase	0.99999166666627	
[00:01:39]: setting 	iscavenight	false	
[00:01:39]: setting 	iscavenewmoon	false	
[00:01:39]: setting 	issummer	false	
[00:01:39]: setting 	temperature	30.338746062029	
[00:01:39]: setting 	time	0.81249791666657	
[00:01:39]: [Shard] Secondary shard is waiting for LUA...
[00:01:45]: SWITCHING 	false	
[00:01:45]: Reconstructing topology	
[00:01:45]: 	...Sorting points	
[00:01:45]: 	...Sorting edges	
[00:01:45]: 	...Connecting nodes	
[00:01:45]: 	...Validating connections	
[00:01:46]: 	...Housekeeping	
[00:01:46]: 	...Done!	
[00:01:46]: 1 uploads added to server. From server_temp
[00:01:46]: About to start a shard with these settings:
[00:01:46]:   ShardName: Caves
[00:01:46]:   ShardID: 507218932
[00:01:46]:   ShardRole: SECONDARY
[00:01:46]:   MasterHost: 127.0.0.1
[00:01:46]:   MasterBind: (null)
[00:01:46]:   MasterPort: 10888
[00:01:46]: [Shard] Connecting to master...
[00:01:46]: Telling Client our new session identifier: 7AA56935F2FFDB09
[00:01:46]: Check for write access: TRUE
[00:01:46]: Check for read access: TRUE
[00:01:46]: Available disk space for save files: 100730 MB
[00:01:46]: ModIndex: Load sequence finished successfully.	
[00:01:46]: Reset() returning
[00:01:46]: [Shard] Connection to master failed. Waiting to reconnect...
[00:01:47]: Validating portal[9] <-> 1[9] (inactive)	
[00:01:47]: Validating portal[6] <-> 1[6] (inactive)	
[00:01:47]: Validating portal[10] <-> 1[10] (inactive)	
[00:01:47]: Validating portal[4] <-> 1[4] (inactive)	
[00:01:47]: Validating portal[3] <-> 1[3] (inactive)	
[00:01:47]: Validating portal[7] <-> 1[7] (inactive)	
[00:01:47]: Validating portal[1] <-> 1[1] (inactive)	
[00:01:47]: Validating portal[2] <-> 1[2] (inactive)	
[00:01:47]: Validating portal[5] <-> 1[5] (inactive)	
[00:01:47]: Validating portal[8] <-> 1[8] (inactive)	
[00:01:47]: Could not find anim build FROMNUM
[00:01:47]: Could not find anim build FROMNUM
[00:01:47]: Could not find anim build FROMNUM
[00:01:47]: Could not find anim build FROMNUM
[00:01:47]: Could not find anim build FROMNUM
[00:01:51]: About to start a shard with these settings:
[00:01:51]:   ShardName: Caves
[00:01:51]:   ShardID: 507218932
[00:01:51]:   ShardRole: SECONDARY
[00:01:51]:   MasterHost: 127.0.0.1
[00:01:51]:   MasterBind: (null)
[00:01:51]:   MasterPort: 10888
[00:01:51]: [Shard] Connecting to master...
[00:01:51]: [Shard] Sending secondary shard information to master...
[00:01:51]: Registering secondary shard in US lobby
[00:01:52]: [Shard] secondary shard is now ready!
[00:01:52]: World 1 is now connected	
[00:01:52]: Validating portal[9] <-> 1[9] (active)	
[00:01:52]: Validating portal[6] <-> 1[6] (active)	
[00:01:52]: Validating portal[10] <-> 1[10] (active)	
[00:01:52]: Validating portal[4] <-> 1[4] (active)	
[00:01:52]: Validating portal[3] <-> 1[3] (active)	
[00:01:52]: Validating portal[7] <-> 1[7] (active)	
[00:01:52]: Validating portal[1] <-> 1[1] (active)	
[00:01:52]: Validating portal[2] <-> 1[2] (active)	
[00:01:52]: Validating portal[5] <-> 1[5] (active)	
[00:01:52]: Validating portal[8] <-> 1[8] (active)	
[00:01:53]: [Shard] secondary shard LUA is now ready!
[00:01:53]: [IPC] Signal 'DST_Secondary_Ready' opened  #0000000000000BA0
[00:01:53]: [IPC] Sending signal... #0000000000000BA0
[00:01:53]: Sim paused
[00:02:18]: Sim unpaused
[00:02:54]: Server Autopaused	
[00:02:56]: Server Unpaused	
[00:03:51]: Available disk space for save files: 100730 MB
[00:03:52]: Serializing world: session/7AA56935F2FFDB09/0000000157
[00:03:52]: Truncating to snapshot #157...
[00:03:52]:  - session/7AA56935F2FFDB09/0000000151
[00:03:52]:  - session/7AA56935F2FFDB09/A7ILL29CBGFH/0000000151
[00:03:52]:  - session/7AA56935F2FFDB09/A7ILL29CCEAB/0000000151
[00:03:52]:  - session/7AA56935F2FFDB09/A7KDAAFIPB34/0000000151
[00:03:52]:  - session/7AA56935F2FFDB09/A7KJMSJTC0U2/0000000151
[00:03:52]:  - session/7AA56935F2FFDB09/A7N74GMJJPAK/0000000151
[00:03:52]:    6 file(s) removed
[00:06:51]: Registering secondary shard in US lobby
[00:11:51]: Registering secondary shard in US lobby
[00:11:53]: Available disk space for save files: 100730 MB
[00:11:53]: Serializing world: session/7AA56935F2FFDB09/0000000158
[00:11:53]: Truncating to snapshot #158...
[00:11:53]:  - session/7AA56935F2FFDB09/0000000152
[00:11:53]:  - session/7AA56935F2FFDB09/A7ILL29CBGFH/0000000152
[00:11:53]:  - session/7AA56935F2FFDB09/A7ILL29CCEAB/0000000152
[00:11:53]:  - session/7AA56935F2FFDB09/A7KDAAFIPB34/0000000152
[00:11:53]:  - session/7AA56935F2FFDB09/A7KJMSJTC0U2/0000000152
[00:11:53]:  - session/7AA56935F2FFDB09/A7N74GMJJPAK/0000000152
[00:11:53]:    6 file(s) removed
[00:16:51]: Registering secondary shard in US lobby
[00:19:53]: Available disk space for save files: 100726 MB
[00:19:54]: Serializing world: session/7AA56935F2FFDB09/0000000159
[00:19:54]: Truncating to snapshot #159...
[00:19:54]:  - session/7AA56935F2FFDB09/0000000153
[00:19:54]:  - session/7AA56935F2FFDB09/A7ILL29CBGFH/0000000153
[00:19:54]:  - session/7AA56935F2FFDB09/A7ILL29CCEAB/0000000153
[00:19:54]:  - session/7AA56935F2FFDB09/A7KDAAFIPB34/0000000153
[00:19:54]:  - session/7AA56935F2FFDB09/A7KJMSJTC0U2/0000000153
[00:19:54]:  - session/7AA56935F2FFDB09/A7N74GMJJPAK/0000000153
[00:19:54]:    6 file(s) removed
[00:21:51]: Registering secondary shard in US lobby
[00:26:51]: Registering secondary shard in US lobby
[00:27:54]: Available disk space for save files: 100723 MB
[00:27:55]: Serializing world: session/7AA56935F2FFDB09/0000000160
[00:27:55]: Truncating to snapshot #160...
[00:27:55]:  - session/7AA56935F2FFDB09/0000000154
[00:27:55]:  - session/7AA56935F2FFDB09/A7ILL29CBGFH/0000000154
[00:27:55]:  - session/7AA56935F2FFDB09/A7ILL29CCEAB/0000000154
[00:27:55]:  - session/7AA56935F2FFDB09/A7KDAAFIPB34/0000000154
[00:27:55]:  - session/7AA56935F2FFDB09/A7KJMSJTC0U2/0000000154
[00:27:55]:  - session/7AA56935F2FFDB09/A7N74GMJJPAK/0000000154
[00:27:55]:    6 file(s) removed
[00:30:17]: [200] Account Communication Success (6)
[00:30:17]: Received (KU_ZLAVBAna) from TokenPurpose
[00:31:51]: Registering secondary shard in US lobby
[00:35:55]: Available disk space for save files: 100718 MB
[00:35:56]: Serializing world: session/7AA56935F2FFDB09/0000000161
[00:35:56]: Truncating to snapshot #161...
[00:35:56]:  - session/7AA56935F2FFDB09/0000000155
[00:35:56]:    1 file(s) removed
[00:36:51]: Registering secondary shard in US lobby
[00:41:51]: Registering secondary shard in US lobby
[00:43:56]: Available disk space for save files: 100714 MB
[00:43:57]: Serializing world: session/7AA56935F2FFDB09/0000000162
[00:43:57]: Truncating to snapshot #162...
[00:43:57]:  - session/7AA56935F2FFDB09/0000000156
[00:43:57]:    1 file(s) removed
[00:46:51]: Registering secondary shard in US lobby
[00:51:51]: Registering secondary shard in US lobby
[00:51:57]: Available disk space for save files: 100711 MB
[00:51:58]: Serializing world: session/7AA56935F2FFDB09/0000000163
[00:51:58]: Truncating to snapshot #163...
[00:51:58]:  - session/7AA56935F2FFDB09/0000000157
[00:51:58]:    1 file(s) removed
[00:56:51]: Registering secondary shard in US lobby
[00:59:58]: Available disk space for save files: 100709 MB
[00:59:59]: Serializing world: session/7AA56935F2FFDB09/0000000164
[00:59:59]: Truncating to snapshot #164...
[00:59:59]:  - session/7AA56935F2FFDB09/0000000158
[00:59:59]:    1 file(s) removed
[01:00:17]: [200] Account Communication Success (6)
[01:00:17]: Received (KU_ZLAVBAna) from TokenPurpose
[01:01:51]: Registering secondary shard in US lobby
[01:06:51]: Registering secondary shard in US lobby
[01:08:00]: Available disk space for save files: 100704 MB
[01:08:01]: Serializing world: session/7AA56935F2FFDB09/0000000165
[01:08:01]: Truncating to snapshot #165...
[01:08:01]:  - session/7AA56935F2FFDB09/0000000159
[01:08:01]:    1 file(s) removed
[01:11:51]: Registering secondary shard in US lobby
[01:16:01]: Available disk space for save files: 100706 MB
[01:16:02]: Serializing world: session/7AA56935F2FFDB09/0000000166
[01:16:02]: Truncating to snapshot #166...
[01:16:02]:  - session/7AA56935F2FFDB09/0000000160
[01:16:02]:    1 file(s) removed
[01:16:51]: Registering secondary shard in US lobby
[01:21:51]: Registering secondary shard in US lobby
[01:24:02]: Available disk space for save files: 100701 MB
[01:24:03]: Serializing world: session/7AA56935F2FFDB09/0000000167
[01:24:03]: Truncating to snapshot #167...
[01:24:03]:  - session/7AA56935F2FFDB09/0000000161
[01:24:03]:    1 file(s) removed
[01:26:51]: Registering secondary shard in US lobby
[01:30:17]: [200] Account Communication Success (6)
[01:30:17]: Received (KU_ZLAVBAna) from TokenPurpose
[01:31:51]: Registering secondary shard in US lobby
[01:32:03]: Available disk space for save files: 100697 MB
[01:32:04]: Serializing world: session/7AA56935F2FFDB09/0000000168
[01:32:04]: Truncating to snapshot #168...
[01:32:04]:  - session/7AA56935F2FFDB09/0000000162
[01:32:04]:    1 file(s) removed
[01:36:51]: Registering secondary shard in US lobby
[01:40:05]: Available disk space for save files: 100693 MB
[01:40:06]: Serializing world: session/7AA56935F2FFDB09/0000000169
[01:40:06]: Truncating to snapshot #169...
[01:40:06]:  - session/7AA56935F2FFDB09/0000000163
[01:40:06]:    1 file(s) removed
[01:41:51]: Registering secondary shard in US lobby
[01:46:51]: Registering secondary shard in US lobby
[01:48:07]: Available disk space for save files: 100688 MB
[01:48:08]: Serializing world: session/7AA56935F2FFDB09/0000000170
[01:48:08]: Truncating to snapshot #170...
[01:48:08]:  - session/7AA56935F2FFDB09/0000000164
[01:48:08]:    1 file(s) removed
[01:49:42]: [Shard] #1 -> session/7AA56935F2FFDB09/A7KDAAFIPB34/0000000171
[01:49:42]: [Shard] Received migration #1 data for (KU_ZLAVBAna)
[01:49:47]: New incoming connection 127.0.0.1|58138 <6311278694459624940>
[01:49:47]: Client connected from [LAN] 127.0.0.1|58138 <6311278694459624940>
[01:49:47]: ValidateGameSessionToken pgs-usc^KU_ZLAVBAna^DontStarveTogether^DNRjjhFxjfb49QZnmT3mw7Qyb94yfq533Ff3kM7hrVE= for <6311278694459624940>
[01:49:48]: Client authenticated: (KU_ZLAVBAna) matheusavatar31
[01:49:48]: [Steam] Authenticated host '76561198228256056'
[01:49:48]: [Shard] Completed incoming migration #1 for (KU_ZLAVBAna)
[01:49:59]: Resuming user: session/7AA56935F2FFDB09/A7KDAAFIPB34/0000000171
[01:50:00]: Player will spawn close to portal #1	
[01:50:00]: Spawning player at: [Load] (424.41, 0.00, 399.00)	
[01:51:51]: Registering secondary shard in US lobby
[01:53:39]: Activating portal[1] to 1	
[01:53:40]: Serializing user: session/7AA56935F2FFDB09/A7KDAAFIPB34/0000000171
[01:53:40]: [Shard] Migration request: (KU_ZLAVBAna) to [SHDMASTER](1)
[01:53:40]: [Shard] #2 <- session/7AA56935F2FFDB09/A7KDAAFIPB34/0000000171
[01:53:40]: Ignored request to resume during migration
[01:53:40]: CloseConnectionWithReason: ID_DST_SHARD_SILENT_DISCONNECT
[01:53:40]: [Steam] SendUserDisconnect for '76561198228256056'
[01:56:09]: Available disk space for save files: 100683 MB
[01:56:09]: Serializing world: session/7AA56935F2FFDB09/0000000171
[01:56:10]: Truncating to snapshot #171...
[01:56:10]:  - session/7AA56935F2FFDB09/0000000165
[01:56:10]:    1 file(s) removed
[01:56:51]: Registering secondary shard in US lobby
[02:00:17]: [200] Account Communication Success (6)
[02:00:17]: Received (KU_ZLAVBAna) from TokenPurpose
[02:01:51]: Registering secondary shard in US lobby
[02:04:10]: Available disk space for save files: 100678 MB
[02:04:10]: Serializing world: session/7AA56935F2FFDB09/0000000172
[02:04:10]: Truncating to snapshot #172...
[02:04:10]:  - session/7AA56935F2FFDB09/0000000166
[02:04:10]:    1 file(s) removed
[02:06:33]: [Shard] We have been disconnected from the master. Waiting to reconnect...
[02:06:33]: Sim paused
[02:06:37]: [IPC] Received shutdown signal.
[02:06:37]: Available disk space for save files: 100732 MB
[02:06:37]: Serializing world: session/7AA56935F2FFDB09/0000000173
[02:06:37]: Truncating to snapshot #173...
[02:06:37]:  - session/7AA56935F2FFDB09/0000000167
[02:06:37]:    1 file(s) removed
[02:06:37]: [Shard] Stopping shard mode
[02:06:37]: [Steam] SendUserDisconnect for ''
[02:06:38]: Collecting garbage...
[02:06:38]: lua_gc took 0.24 seconds
[02:06:38]: ~ShardLuaProxy()
[02:06:38]: ~cEventLeaderboardProxy()
[02:06:38]: ~ItemServerLuaProxy()
[02:06:38]: ~InventoryLuaProxy()
[02:06:38]: ~NetworkLuaProxy()
[02:06:38]: ~SimLuaProxy()
[02:06:39]: lua_close took 1.15 seconds
[02:06:41]: Orphaned unnamed resource. This resource must have used Add( resource ) to insert itself into the manager. 
[02:06:41]: CurlRequestManager::ClientThread::Main() complete
[02:06:41]: HttpClient2 discarded 0 callbacks.
[02:06:41]: Shutting down
