[00:00:00]: 
System Memory:
	Memory Load: 56%
	Available Physical Memory: 3519m/8060m
	Available Page File: 23460m/33060m
	Available Virtual Memory: 134213488m/134217727m
	Available Extended Virtual Memory: 0m
[00:00:00]: 
Process Memory:
	Peak Working Set Size: 30m
	Working Set Size: 30m
	Quota Peak Page Pool Usage: 206k
	Quota Page Pool Usage: 202k
	Quota Peak Non Paged Pool Usage:14k
	Quota Non Paged Pool Usage: 14k
	Page File Usage: 5m
	Peak Page File Usage: 5m
[00:00:00]: PersistRootStorage is now APP:Klei//DoNotStarveTogether/1266593744/Cluster_2/Master/ 
[00:00:00]: Starting Up
[00:00:00]: Version: 490564
[00:00:00]: Current time: Thu Dec 16 22:26:38 2021

[00:00:00]: Don't Starve Together: 490564 WIN32
[00:00:00]: Build Date: 555
[00:00:00]: Mode: 64-bit
[00:00:00]: Parsing command line
[00:00:00]: Command Line Arguments: -monitor_parent_process 11268 -persistent_storage_root APP:Klei/ -conf_dir DoNotStarveTogether -cluster Cluster_2 -ownernetid 76561199226859472 -ownerdir 1266593744 -backup_log_count 25 -backup_log_period 0 -ugc_directory C:\\Program Files (x86)\\Steam\\steamapps\\workshop -shard Master -sigprefix DST_Master -region US -token *********************************************************************************** 
[00:00:00]: Initializing distribution platform
[00:00:00]: Initializing Minidump handler
[00:00:00]: ....Done
[00:00:00]: ....Done
[00:00:00]: Fixing DPI
[00:00:00]: ...Done
[00:00:00]: THREAD - started 'GAClient' (13832)
[00:00:00]: CurlRequestManager::ClientThread::Main()
[00:00:00]: Mounting file system databundles/klump.zip successful.
[00:00:00]: Mounting file system databundles/shaders.zip successful.
[00:00:00]: Mounting file system databundles/fonts.zip successful.
[00:00:00]: Mounting file system databundles/anim_dynamic.zip successful.
[00:00:00]: Mounting file system databundles/bigportraits.zip successful.
[00:00:00]: Mounting file system databundles/images.zip successful.
[00:00:00]: Mounting file system databundles/scripts.zip successful.
[00:00:00]: [Steam] SteamGameServer_Init(10999, 27016)
[00:00:02]: [Steam] SteamGameServer_Init success
[00:00:02]: ProfileIndex:4.50
[00:00:02]: [Connect] PendingConnection::Reset(true)
[00:00:02]: Platform: 1
[00:00:02]: Network tick rate: U=15(2), D=0
[00:00:02]: THREAD - started 'Ping Job Thread' (12092)
[00:00:02]: Network tick rate: U=15(2), D=0
[00:00:02]: Authorized application C:\Program Files (x86)\Steam\steamapps\common\Don't Starve Together\bin64\dontstarve_dedicated_server_nullrenderer_x64.exe is enabled in the firewall.
[00:00:02]: WindowsFirewall - Application already authorized
[00:00:02]: Overriding region to US
[00:00:02]: THREAD - started 'StreamInput' (11528)
[00:00:02]: OnLoadPermissionList: APP:Klei//DoNotStarveTogether/1266593744/client_save/blocklist.txt (Failure)
[00:00:02]: OnLoadPermissionList: APP:Klei//DoNotStarveTogether/1266593744/client_save/adminlist.txt (Failure)
[00:00:02]: OnLoadUserIdList: APP:Klei//DoNotStarveTogether/1266593744/client_save/whitelist.txt (Failure)
[00:00:02]: Offline user ID: OU_76561199226859472
[00:00:02]: HardwareStats:
  OS                        
    name                      Microsoft Windows 10 Home Single Language
    version                   10.0.19043
    platformSpecific          SP 0.0
    architecture              64 bits
  CPU                       
    clockSpeed                2501
    name                      Intel(R) Core(TM) i5-7300HQ CPU @ 2.50GHz
    manufacturer              GenuineIntel
    numCores                  4
    features                  SSE,SSE2,SSE3,SSSE3,SSE41,SSE42,AVX
  RAM                       
    megsOfRam                 8192
  GPU                       
    megsOfRam                 1024
    videoModeDescription      1920 x 1080 x 4294967296 cores
    name                      Intel(R) HD Graphics 630
    driverVersion             25.20.100.6446
    driverDate                20181119000000.000000-000
    refreshRate               60

[00:00:02]: cGame::InitializeOnMainThread
[00:00:02]: Renderer initialize: Okay
[00:00:02]: AnimManager initialize: Okay
[00:00:02]: Buffers initialize: Okay
[00:00:02]: cDontStarveGame::DoGameSpecificInitialize()
[00:00:02]: GameSpecific initialize: Okay
[00:00:02]: cGame::StartPlaying
[00:00:02]: AppVersion::GetArchitecture() x64
[00:00:02]: LOADING LUA
[00:00:02]: DoLuaFile scripts/main.lua
[00:00:02]: DoLuaFile loading buffer scripts/main.lua
[00:00:03]:   taskgrouplist:	default	Together	
[00:00:03]:   taskgrouplist:	classic	Classic	
[00:00:03]:   taskgrouplist:	cave_default	Underground	
[00:00:03]:   taskgrouplist:	lavaarena_taskset	The Forge	
[00:00:03]:   taskgrouplist:	quagmire_taskset	The Gorge	
[00:00:04]: running main.lua
	
[00:00:04]: loaded modindex	
[00:00:04]: ModIndex: Beginning normal load sequence for dedicated server.
	
[00:00:04]: SUCCESS: Loaded modoverrides.lua	
[00:00:04]: modoverrides.lua enabling workshop-374550642	
[00:00:04]: modoverrides.lua enabling workshop-816057392	
[00:00:04]: modoverrides.lua enabling workshop-378160973	
[00:00:04]: modoverrides.lua enabling workshop-1682381560	
[00:00:04]: modoverrides.lua enabling workshop-375850593	
[00:00:04]: modoverrides.lua enabling workshop-666155465	
[00:00:04]: modoverrides.lua enabling workshop-1185229307	
[00:00:04]: modoverrides.lua enabling workshop-2010472942	
[00:00:04]: modoverrides.lua enabling workshop-362175979	
[00:00:04]: modoverrides.lua enabling workshop-501385076	
[00:00:04]: modoverrides.lua enabling workshop-1651623054	
[00:00:04]: modoverrides.lua enabling workshop-1458450094	
[00:00:04]: modoverrides.lua enabling workshop-1595631294	
[00:00:04]: ModIndex:GetModsToLoad inserting moddir, 	workshop-1458450094	
[00:00:04]: ModIndex:GetModsToLoad inserting moddir, 	workshop-1595631294	
[00:00:04]: ModIndex:GetModsToLoad inserting moddir, 	workshop-1651623054	
[00:00:04]: ModIndex:GetModsToLoad inserting moddir, 	workshop-1682381560	
[00:00:04]: ModIndex:GetModsToLoad inserting moddir, 	workshop-362175979	
[00:00:04]: ModIndex:GetModsToLoad inserting moddir, 	workshop-374550642	
[00:00:04]: ModIndex:GetModsToLoad inserting moddir, 	workshop-375850593	
[00:00:04]: ModIndex:GetModsToLoad inserting moddir, 	workshop-378160973	
[00:00:04]: ModIndex:GetModsToLoad inserting moddir, 	workshop-501385076	
[00:00:04]: ModIndex:GetModsToLoad inserting moddir, 	workshop-816057392	
[00:00:04]: ModIndex:GetModsToLoad inserting forcedmoddir, 	workshop-1185229307	
[00:00:04]: ModIndex:GetModsToLoad inserting forcedmoddir, 	workshop-2010472942	
[00:00:04]: ModIndex:GetModsToLoad inserting forcedmoddir, 	workshop-666155465	
[00:00:04]: Could not load mod_config_data/modconfiguration_workshop-1458450094_CLIENT	
[00:00:04]: Loading mod: workshop-1458450094 (Auto Trap Reset) Version:2.1	
[00:00:04]: Could not load mod_config_data/modconfiguration_workshop-1595631294_CLIENT	
[00:00:04]: Loading mod: workshop-1595631294 (Smart Minisign) Version:1.1.5	
[00:00:04]: Could not load mod_config_data/modconfiguration_workshop-1651623054_CLIENT	
[00:00:04]: Loading mod: workshop-1651623054 (Simple Health Bar DST) Version:1.06 (Old API! (mod: 6 game: 10) )	
[00:00:04]: Could not load mod_config_data/modconfiguration_workshop-1682381560_CLIENT	
[00:00:04]: Loading mod: workshop-1682381560 (Level Up System) Version:1.1	
[00:00:04]: Could not load mod_config_data/modconfiguration_workshop-362175979_CLIENT	
[00:00:04]: Loading mod: workshop-362175979 (Wormhole Marks) Version:1.4.5	
[00:00:04]: Could not load mod_config_data/modconfiguration_workshop-374550642_CLIENT	
[00:00:04]: Loading mod: workshop-374550642 (Increased Stack size) Version:1.62	
[00:00:04]: Could not load mod_config_data/modconfiguration_workshop-375850593_CLIENT	
[00:00:04]: Loading mod: workshop-375850593 (Extra Equip Slots) Version:1.8.0	
[00:00:04]: Could not load mod_config_data/modconfiguration_workshop-378160973_CLIENT	
[00:00:04]: Loading mod: workshop-378160973 (Global Positions) Version:1.7.3	
[00:00:04]: Could not load mod_config_data/modconfiguration_workshop-501385076_CLIENT	
[00:00:04]: Loading mod: workshop-501385076 (Quick Pick) Version:1.4.0	
[00:00:04]: Could not load mod_config_data/modconfiguration_workshop-816057392_CLIENT	
[00:00:04]: Loading mod: workshop-816057392 (Combined Status) Version:1.7.5	
[00:00:04]: Could not load mod_config_data/modconfiguration_workshop-1185229307_CLIENT	
[00:00:04]: Loading mod: workshop-1185229307 (Epic Healthbar) Version:9.2	
[00:00:04]: Could not load mod_config_data/modconfiguration_workshop-2010472942_CLIENT	
[00:00:04]: Loading mod: workshop-2010472942 (Reign of Runts) Version:2.2	
[00:00:04]: Could not load mod_config_data/modconfiguration_workshop-666155465_CLIENT	
[00:00:04]: Loading mod: workshop-666155465 (Show Me (Origin)) Version:0.57	
[00:00:04]: applying configuration_options from modoverrides.lua to mod workshop-374550642	
[00:00:04]: Overriding mod workshop-374550642's option MAXSTACKSIZE with value 99	
[00:00:04]: applying configuration_options from modoverrides.lua to mod workshop-816057392	
[00:00:04]: Overriding mod workshop-816057392's option SHOWTEMPBADGES with value true	
[00:00:04]: Overriding mod workshop-816057392's option SHOWBEAVERNESS with value true	
[00:00:04]: Overriding mod workshop-816057392's option UNIT with value T	
[00:00:04]: Overriding mod workshop-816057392's option SHOWWORLDTEMP with value false	
[00:00:04]: Overriding mod workshop-816057392's option SHOWMOON with value 1	
[00:00:04]: Overriding mod workshop-816057392's option SHOWWANINGMOON with value true	
[00:00:04]: Overriding mod workshop-816057392's option FLIPMOON with value false	
[00:00:04]: Overriding mod workshop-816057392's option SEASONOPTIONS with value Clock	
[00:00:04]: Overriding mod workshop-816057392's option SHOWSTATNUMBERS with value true	
[00:00:04]: Overriding mod workshop-816057392's option HUDSCALEFACTOR with value 100	
[00:00:04]: Overriding mod workshop-816057392's option SHOWCLOCKTEXT with value true	
[00:00:04]: Overriding mod workshop-816057392's option HIDECAVECLOCK with value false	
[00:00:04]: Overriding mod workshop-816057392's option SHOWTEMPERATURE with value true	
[00:00:04]: Overriding mod workshop-816057392's option SHOWNEXTFULLMOON with value true	
[00:00:04]: Overriding mod workshop-816057392's option SHOWNAUGHTINESS with value true	
[00:00:04]: Overriding mod workshop-816057392's option SHOWMAXONNUMBERS with value true	
[00:00:04]: applying configuration_options from modoverrides.lua to mod workshop-378160973	
[00:00:04]: Overriding mod workshop-378160973's option FIREOPTIONS with value 2	
[00:00:04]: Overriding mod workshop-378160973's option SHOWFIREICONS with value true	
[00:00:04]: Overriding mod workshop-378160973's option SHAREMINIMAPPROGRESS with value true	
[00:00:04]: Overriding mod workshop-378160973's option SHOWPLAYERICONS with value true	
[00:00:04]: Overriding mod workshop-378160973's option OVERRIDEMODE with value false	
[00:00:04]: Overriding mod workshop-378160973's option SHOWPLAYERSOPTIONS with value 2	
[00:00:04]: Overriding mod workshop-378160973's option ENABLEPINGS with value true	
[00:00:04]: applying configuration_options from modoverrides.lua to mod workshop-1682381560	
[00:00:04]: Overriding mod workshop-1682381560's option EXP_PERCENT with value 1	
[00:00:04]: Overriding mod workshop-1682381560's option SHOWINFO with value 118	
[00:00:04]: Overriding mod workshop-1682381560's option INITIAL_STATE with value 1	
[00:00:04]: applying configuration_options from modoverrides.lua to mod workshop-375850593	
[00:00:04]: applying configuration_options from modoverrides.lua to mod workshop-666155465	
[00:00:04]: Overriding mod workshop-666155465's option chestR with value -1	
[00:00:04]: Overriding mod workshop-666155465's option food_style with value 0	
[00:00:04]: Overriding mod workshop-666155465's option display_hp with value -1	
[00:00:04]: Overriding mod workshop-666155465's option show_uses with value -1	
[00:00:04]: Overriding mod workshop-666155465's option show_food_units with value -1	
[00:00:04]: Overriding mod workshop-666155465's option lang with value auto	
[00:00:04]: Overriding mod workshop-666155465's option chestB with value -1	
[00:00:04]: Overriding mod workshop-666155465's option food_order with value 0	
[00:00:04]: Overriding mod workshop-666155465's option chestG with value -1	
[00:00:04]: Overriding mod workshop-666155465's option food_estimation with value -1	
[00:00:04]: applying configuration_options from modoverrides.lua to mod workshop-1185229307	
[00:00:04]: Overriding mod workshop-1185229307's option  with value 	
[00:00:04]: Overriding mod workshop-1185229307's option  with value 	
[00:00:04]: Overriding mod workshop-1185229307's option WETNESS_METER with value false	
[00:00:04]: Overriding mod workshop-1185229307's option NOEPIC with value false	
[00:00:04]: Overriding mod workshop-1185229307's option FRAME_PHASES with value true	
[00:00:04]: Overriding mod workshop-1185229307's option DAMAGE_NUMBERS with value true	
[00:00:04]: Overriding mod workshop-1185229307's option NONOEPIC with value false	
[00:00:04]: Overriding mod workshop-1185229307's option DAMAGE_RESISTANCE with value true	
[00:00:04]: Overriding mod workshop-1185229307's option HORIZONTAL_OFFSET with value 0	
[00:00:04]: applying configuration_options from modoverrides.lua to mod workshop-2010472942	
[00:00:04]: Overriding mod workshop-2010472942's option enable_groundpcancel with value true	
[00:00:04]: Overriding mod workshop-2010472942's option wfly_ashes with value 8	
[00:00:04]: Overriding mod workshop-2010472942's option enable_unintelligible with value false	
[00:00:04]: Overriding mod workshop-2010472942's option woose_spinhammer with value false	
[00:00:04]: Overriding mod workshop-2010472942's option wearg_hungerd with value 1.2	
[00:00:04]: Overriding mod workshop-2010472942's option enable_monstertag with value false	
[00:00:04]: Overriding mod workshop-2010472942's option weer_sanitydrainstart with value 1.5	
[00:00:04]: Overriding mod workshop-2010472942's option wearger_gp_cd with value 5	
[00:00:04]: Overriding mod workshop-2010472942's option wfly_lavaedmg with value 50	
[00:00:04]: Overriding mod workshop-2010472942's option wfly_enraged_maxhp with value 70	
[00:00:04]: Overriding mod workshop-2010472942's option wfly_lavaemax with value 9	
[00:00:04]: Overriding mod workshop-2010472942's option woose_honkrange with value 5	
[00:00:04]: Overriding mod workshop-2010472942's option enable_nesting with value true	
[00:00:04]: Overriding mod workshop-2010472942's option wearg_gpdmg with value 25	
[00:00:04]: Overriding mod workshop-2010472942's option wfly_oheattemp with value 90	
[00:00:04]: Overriding mod workshop-2010472942's option weer_sanitybonus with value 5	
[00:00:04]: Overriding mod workshop-2010472942's option wfly_enraged_cd with value 30	
[00:00:04]: Overriding mod workshop-2010472942's option woose_aoedmg with value 3	
[00:00:04]: Overriding mod workshop-2010472942's option weer_freezekill with value 192	
[00:00:04]: Overriding mod workshop-2010472942's option woose_lightn with value 0	
[00:00:04]: Overriding mod workshop-2010472942's option wearger_yawn with value 0.2	
[00:00:04]: Overriding mod workshop-2010472942's option wearger_attackstyle with value 2	
[00:00:04]: Overriding mod workshop-2010472942's option wfly_enraged_fire with value false	
[00:00:04]: Overriding mod workshop-2010472942's option woose_wetness with value 1.6	
[00:00:04]: Overriding mod workshop-2010472942's option woose_wetdrain with value false	
[00:00:04]: Overriding mod workshop-2010472942's option enable_woose_speen with value true	
[00:00:04]: Overriding mod workshop-2010472942's option woose_iframes with value true	
[00:00:04]: Overriding mod workshop-2010472942's option woose_speen with value 10	
[00:00:04]: Overriding mod workshop-2010472942's option wearger_hibasorp with value 0.2	
[00:00:04]: Overriding mod workshop-2010472942's option woose_nesttime with value 7	
[00:00:04]: Overriding mod workshop-2010472942's option woose_nestbuff with value 0.25	
[00:00:04]: Overriding mod workshop-2010472942's option woose_drownmax with value 80	
[00:00:04]: Overriding mod workshop-2010472942's option wfly_enraged_timer with value 60	
[00:00:04]: Overriding mod workshop-2010472942's option wfly_summondmg with value 20	
[00:00:04]: Overriding mod workshop-2010472942's option weerclops_attackstyle with value 1	
[00:00:04]: Overriding mod workshop-2010472942's option wfly_fireimmune with value 0	
[00:00:04]: Overriding mod workshop-2010472942's option weer_hotkill with value 84	
[00:00:04]: Overriding mod workshop-2010472942's option wearger_gp_range with value 5	
[00:00:04]: Overriding mod workshop-2010472942's option wearg_honey with value 10	
[00:00:04]: applying configuration_options from modoverrides.lua to mod workshop-362175979	
[00:00:04]: Overriding mod workshop-362175979's option Draw over FoW with value disabled	
[00:00:04]: applying configuration_options from modoverrides.lua to mod workshop-501385076	
[00:00:04]: Overriding mod workshop-501385076's option quick_pick_cactus with value true	
[00:00:04]: Overriding mod workshop-501385076's option quick_pick_plant_normal_ground with value true	
[00:00:04]: Overriding mod workshop-501385076's option quick_cook_on_fire with value true	
[00:00:04]: Overriding mod workshop-501385076's option quick_harvest with value true	
[00:00:04]: applying configuration_options from modoverrides.lua to mod workshop-1651623054	
[00:00:04]: Overriding mod workshop-1651623054's option hbcolor with value dynamic	
[00:00:04]: Overriding mod workshop-1651623054's option hbstyle with value heart	
[00:00:04]: Overriding mod workshop-1651623054's option value with value true	
[00:00:04]: Overriding mod workshop-1651623054's option ddon with value true	
[00:00:04]: Overriding mod workshop-1651623054's option hbpos with value 1	
[00:00:04]: Overriding mod workshop-1651623054's option hblength with value 10	
[00:00:04]: applying configuration_options from modoverrides.lua to mod workshop-1458450094	
[00:00:04]: Overriding mod workshop-1458450094's option  with value 0	
[00:00:04]: Overriding mod workshop-1458450094's option  with value 0	
[00:00:04]: Overriding mod workshop-1458450094's option  with value 0	
[00:00:04]: Overriding mod workshop-1458450094's option  with value 0	
[00:00:04]: Overriding mod workshop-1458450094's option log with value false	
[00:00:04]: Overriding mod workshop-1458450094's option houndstooth with value false	
[00:00:04]: Overriding mod workshop-1458450094's option livinglog with value false	
[00:00:04]: Overriding mod workshop-1458450094's option stinger with value false	
[00:00:04]: Overriding mod workshop-1458450094's option rope with value false	
[00:00:04]: Overriding mod workshop-1458450094's option retraprandomy with value 120	
[00:00:04]: Overriding mod workshop-1458450094's option mode with value fix	
[00:00:04]: Overriding mod workshop-1458450094's option retraprandomx with value 10	
[00:00:04]: Overriding mod workshop-1458450094's option retrapfix with value 60	
[00:00:04]: applying configuration_options from modoverrides.lua to mod workshop-1595631294	
[00:00:04]: Overriding mod workshop-1595631294's option SaltBox with value false	
[00:00:04]: Overriding mod workshop-1595631294's option BundleItems with value false	
[00:00:04]: Overriding mod workshop-1595631294's option Digornot with value false	
[00:00:04]: Overriding mod workshop-1595631294's option ChangeSkin with value true	
[00:00:04]: Overriding mod workshop-1595631294's option Icebox with value false	
[00:00:04]: Overriding mod workshop-1595631294's option DragonflyChest with value false	
[00:00:04]: Mod: workshop-1185229307 (Epic Healthbar)	Loading modworldgenmain.lua	
[00:00:04]: Mod: workshop-1185229307 (Epic Healthbar)	  Mod had no modworldgenmain.lua. Skipping.	
[00:00:04]: Mod: workshop-1185229307 (Epic Healthbar)	Loading modmain.lua	
[00:00:04]: Mod: workshop-2010472942 (Reign of Runts)	Loading modworldgenmain.lua	
[00:00:04]: Mod: workshop-2010472942 (Reign of Runts)	  Mod had no modworldgenmain.lua. Skipping.	
[00:00:04]: Mod: workshop-2010472942 (Reign of Runts)	Loading modmain.lua	
[00:00:04]: modimport: ../mods/workshop-2010472942/scripts/strings.lua	
[00:00:04]: modimport: ../mods/workshop-2010472942/scripts/tools/skins_api	
[00:00:04]: Mod: workshop-375850593 (Extra Equip Slots)	Loading modworldgenmain.lua	
[00:00:04]: Mod: workshop-375850593 (Extra Equip Slots)	  Mod had no modworldgenmain.lua. Skipping.	
[00:00:04]: Mod: workshop-375850593 (Extra Equip Slots)	Loading modmain.lua	
[00:00:04]: Mod: workshop-666155465 (Show Me (Origin))	Loading modworldgenmain.lua	
[00:00:04]: Mod: workshop-666155465 (Show Me (Origin))	  Mod had no modworldgenmain.lua. Skipping.	
[00:00:04]: Mod: workshop-666155465 (Show Me (Origin))	Loading modmain.lua	
[00:00:04]: ShowMe version:	0.57	
[00:00:04]: show_food_units	-1	-1	-1	
[00:00:04]: show_uses	-1	-1	-1	
[00:00:04]: Detected language for ShowMe: 	auto		
[00:00:04]: Mod: workshop-374550642 (Increased Stack size)	Loading modworldgenmain.lua	
[00:00:04]: Mod: workshop-374550642 (Increased Stack size)	  Mod had no modworldgenmain.lua. Skipping.	
[00:00:04]: Mod: workshop-374550642 (Increased Stack size)	Loading modmain.lua	
[00:00:04]: Mod: workshop-362175979 (Wormhole Marks)	Loading modworldgenmain.lua	
[00:00:04]: Mod: workshop-362175979 (Wormhole Marks)	  Mod had no modworldgenmain.lua. Skipping.	
[00:00:04]: Mod: workshop-362175979 (Wormhole Marks)	Loading modmain.lua	
[00:00:04]: Mod: workshop-1651623054 (Simple Health Bar DST)	Loading modworldgenmain.lua	
[00:00:04]: Mod: workshop-1651623054 (Simple Health Bar DST)	  Mod had no modworldgenmain.lua. Skipping.	
[00:00:04]: Mod: workshop-1651623054 (Simple Health Bar DST)	Loading modmain.lua	
[00:00:04]: Mod: workshop-501385076 (Quick Pick)	Loading modworldgenmain.lua	
[00:00:04]: Mod: workshop-501385076 (Quick Pick)	  Mod had no modworldgenmain.lua. Skipping.	
[00:00:04]: Mod: workshop-501385076 (Quick Pick)	Loading modmain.lua	
[00:00:04]: Mod: workshop-1682381560 (Level Up System)	Loading modworldgenmain.lua	
[00:00:04]: Mod: workshop-1682381560 (Level Up System)	  Mod had no modworldgenmain.lua. Skipping.	
[00:00:04]: Mod: workshop-1682381560 (Level Up System)	Loading modmain.lua	
[00:00:04]: modimport: ../mods/workshop-1682381560/scripts/patches/wolfgangchanges.lua	
[00:00:04]: modimport: ../mods/workshop-1682381560/scripts/patches/wx78changes.lua	
[00:00:05]: modimport: ../mods/workshop-1682381560/scripts/patches/playerchanges.lua	
[00:00:05]: Mod: workshop-816057392 (Combined Status)	Loading modworldgenmain.lua	
[00:00:05]: Mod: workshop-816057392 (Combined Status)	  Mod had no modworldgenmain.lua. Skipping.	
[00:00:05]: Mod: workshop-816057392 (Combined Status)	Loading modmain.lua	
[00:00:05]: ModIndex:GetModsToLoad inserting moddir, 	workshop-1458450094	
[00:00:05]: ModIndex:GetModsToLoad inserting moddir, 	workshop-1595631294	
[00:00:05]: ModIndex:GetModsToLoad inserting moddir, 	workshop-1651623054	
[00:00:05]: ModIndex:GetModsToLoad inserting moddir, 	workshop-1682381560	
[00:00:05]: ModIndex:GetModsToLoad inserting moddir, 	workshop-362175979	
[00:00:05]: ModIndex:GetModsToLoad inserting moddir, 	workshop-374550642	
[00:00:05]: ModIndex:GetModsToLoad inserting moddir, 	workshop-375850593	
[00:00:05]: ModIndex:GetModsToLoad inserting moddir, 	workshop-378160973	
[00:00:05]: ModIndex:GetModsToLoad inserting moddir, 	workshop-501385076	
[00:00:05]: ModIndex:GetModsToLoad inserting moddir, 	workshop-816057392	
[00:00:05]: ModIndex:GetModsToLoad inserting forcedmoddir, 	workshop-1185229307	
[00:00:05]: ModIndex:GetModsToLoad inserting forcedmoddir, 	workshop-2010472942	
[00:00:05]: ModIndex:GetModsToLoad inserting forcedmoddir, 	workshop-666155465	
[00:00:05]: Mod: workshop-1458450094 (Auto Trap Reset)	Loading modworldgenmain.lua	
[00:00:05]: Mod: workshop-1458450094 (Auto Trap Reset)	  Mod had no modworldgenmain.lua. Skipping.	
[00:00:05]: Mod: workshop-1458450094 (Auto Trap Reset)	Loading modmain.lua	
[00:00:05]: Mod: workshop-378160973 (Global Positions)	Loading modworldgenmain.lua	
[00:00:05]: Mod: workshop-378160973 (Global Positions)	  Mod had no modworldgenmain.lua. Skipping.	
[00:00:05]: Mod: workshop-378160973 (Global Positions)	Loading modmain.lua	
[00:00:05]: ModIndex:GetModsToLoad inserting moddir, 	workshop-1458450094	
[00:00:05]: ModIndex:GetModsToLoad inserting moddir, 	workshop-1595631294	
[00:00:05]: ModIndex:GetModsToLoad inserting moddir, 	workshop-1651623054	
[00:00:05]: ModIndex:GetModsToLoad inserting moddir, 	workshop-1682381560	
[00:00:05]: ModIndex:GetModsToLoad inserting moddir, 	workshop-362175979	
[00:00:05]: ModIndex:GetModsToLoad inserting moddir, 	workshop-374550642	
[00:00:05]: ModIndex:GetModsToLoad inserting moddir, 	workshop-375850593	
[00:00:05]: ModIndex:GetModsToLoad inserting moddir, 	workshop-378160973	
[00:00:05]: ModIndex:GetModsToLoad inserting moddir, 	workshop-501385076	
[00:00:05]: ModIndex:GetModsToLoad inserting moddir, 	workshop-816057392	
[00:00:05]: ModIndex:GetModsToLoad inserting forcedmoddir, 	workshop-1185229307	
[00:00:05]: ModIndex:GetModsToLoad inserting forcedmoddir, 	workshop-2010472942	
[00:00:05]: ModIndex:GetModsToLoad inserting forcedmoddir, 	workshop-666155465	
[00:00:05]: Mod: workshop-1595631294 (Smart Minisign)	Loading modworldgenmain.lua	
[00:00:05]: Mod: workshop-1595631294 (Smart Minisign)	  Mod had no modworldgenmain.lua. Skipping.	
[00:00:05]: Mod: workshop-1595631294 (Smart Minisign)	Loading modmain.lua	
[00:00:05]: Event data unavailable: lavaarena_event_server/lavaarena_achievement_quest_defs
[00:00:10]: LOADING LUA SUCCESS
[00:00:10]: Registering Server mod namespace "workshop-2010472942"
[00:00:10]: Registering Server mod namespace "showme"
[00:00:10]: Registering Server mod namespace "showmeshint"
[00:00:10]: Registering Server mod namespace "workshop-378160973"
[00:00:10]: Registering Server mod namespace "modlevelupsystem"
[00:00:10]: PlayerDeaths could not load morgue	
[00:00:10]: PlayerHistory could not load player_history	
[00:00:10]: ServerPreferences could not load server_preferences	
[00:00:10]: bloom_enabled	true	
[00:00:10]: OnFilesLoaded()	
[00:00:10]: OnUpdatePurchaseStateComplete	
[00:00:10]: Klump load on boot started.	
[00:00:10]: Klump files loaded: 	0	
[00:00:14]: Mod: workshop-1185229307 (Epic Healthbar)	Registering prefabs	
[00:00:14]: Mod: workshop-1185229307 (Epic Healthbar)	  Registering prefab file: prefabs/epichealth_proxy	
[00:00:14]: Mod: workshop-1185229307 (Epic Healthbar)	    epichealth_proxy	
[00:00:14]: Mod: workshop-1185229307 (Epic Healthbar)	  Registering default mod prefab	
[00:00:14]: Mod: workshop-2010472942 (Reign of Runts)	Registering prefabs	
[00:00:14]: Mod: workshop-2010472942 (Reign of Runts)	  Registering prefab file: prefabs/weerclops	
[00:00:15]: Mod: workshop-2010472942 (Reign of Runts)	    weerclops	
[00:00:15]: Mod: workshop-2010472942 (Reign of Runts)	  Registering prefab file: prefabs/wearger	
[00:00:15]: Mod: workshop-2010472942 (Reign of Runts)	    wearger	
[00:00:15]: Mod: workshop-2010472942 (Reign of Runts)	  Registering prefab file: prefabs/woose	
[00:00:15]: Mod: workshop-2010472942 (Reign of Runts)	    woose	
[00:00:15]: Mod: workshop-2010472942 (Reign of Runts)	  Registering prefab file: prefabs/wragonfly	
[00:00:15]: Mod: workshop-2010472942 (Reign of Runts)	    wragonfly	
[00:00:15]: Mod: workshop-2010472942 (Reign of Runts)	  Registering prefab file: prefabs/lavae_wragonfly	
[00:00:15]: Mod: workshop-2010472942 (Reign of Runts)	    lavae_wragonfly	
[00:00:15]: Mod: workshop-2010472942 (Reign of Runts)	  Registering prefab file: prefabs/weerclops_none	
[00:00:15]: Mod: workshop-2010472942 (Reign of Runts)	    weerclops_none	
[00:00:15]: Mod: workshop-2010472942 (Reign of Runts)	    weerclops_ice	
[00:00:15]: Mod: workshop-2010472942 (Reign of Runts)	    weerclops_rose	
[00:00:15]: Mod: workshop-2010472942 (Reign of Runts)	    weerclops_magma	
[00:00:15]: Mod: workshop-2010472942 (Reign of Runts)	  Registering prefab file: prefabs/wearger_none	
[00:00:15]: Mod: workshop-2010472942 (Reign of Runts)	    wearger_none	
[00:00:15]: Mod: workshop-2010472942 (Reign of Runts)	    wearger_ice	
[00:00:15]: Mod: workshop-2010472942 (Reign of Runts)	    wearger_survivor	
[00:00:15]: Mod: workshop-2010472942 (Reign of Runts)	    wearger_teddy	
[00:00:15]: Mod: workshop-2010472942 (Reign of Runts)	  Registering prefab file: prefabs/woose_none	
[00:00:15]: Mod: workshop-2010472942 (Reign of Runts)	    woose_none	
[00:00:15]: Mod: workshop-2010472942 (Reign of Runts)	    woose_ice	
[00:00:15]: Mod: workshop-2010472942 (Reign of Runts)	    woose_young	
[00:00:15]: Mod: workshop-2010472942 (Reign of Runts)	    woose_victorian	
[00:00:15]: Mod: workshop-2010472942 (Reign of Runts)	  Registering prefab file: prefabs/nest_woose	
[00:00:15]: Mod: workshop-2010472942 (Reign of Runts)	    nest_woose	
[00:00:15]: Mod: workshop-2010472942 (Reign of Runts)	    nesting_woose	
[00:00:15]: Mod: workshop-2010472942 (Reign of Runts)	    woose_egg_fx	
[00:00:15]: Mod: workshop-2010472942 (Reign of Runts)	    nesting_woose_placer	
[00:00:15]: Mod: workshop-2010472942 (Reign of Runts)	  Registering prefab file: prefabs/nestbuff	
[00:00:15]: Mod: workshop-2010472942 (Reign of Runts)	    nestbuff	
[00:00:15]: Mod: workshop-2010472942 (Reign of Runts)	  Registering prefab file: prefabs/wragonfly_none	
[00:00:15]: Mod: workshop-2010472942 (Reign of Runts)	    wragonfly_none	
[00:00:15]: Mod: workshop-2010472942 (Reign of Runts)	    wragonfly_ice	
[00:00:15]: Mod: workshop-2010472942 (Reign of Runts)	    wragonfly_shadow	
[00:00:15]: Mod: workshop-2010472942 (Reign of Runts)	    wragonfly_haunted	
[00:00:15]: Mod: workshop-2010472942 (Reign of Runts)	  Registering default mod prefab	
[00:00:18]: Mod: workshop-375850593 (Extra Equip Slots)	Registering prefabs	
[00:00:18]: Mod: workshop-375850593 (Extra Equip Slots)	  Registering default mod prefab	
[00:00:18]: Mod: workshop-666155465 (Show Me (Origin))	Registering prefabs	
[00:00:18]: Mod: workshop-666155465 (Show Me (Origin))	  Registering default mod prefab	
[00:00:18]: Mod: workshop-374550642 (Increased Stack size)	Registering prefabs	
[00:00:18]: Mod: workshop-374550642 (Increased Stack size)	  Registering default mod prefab	
[00:00:18]: Mod: workshop-362175979 (Wormhole Marks)	Registering prefabs	
[00:00:18]: Mod: workshop-362175979 (Wormhole Marks)	  Registering default mod prefab	
[00:00:18]: Mod: workshop-1651623054 (Simple Health Bar DST)	Registering prefabs	
[00:00:18]: Mod: workshop-1651623054 (Simple Health Bar DST)	  Registering prefab file: prefabs/dychealthbar	
[00:00:18]: Mod: workshop-1651623054 (Simple Health Bar DST)	    dyc_damagedisplay	
[00:00:18]: Mod: workshop-1651623054 (Simple Health Bar DST)	    dyc_healthbarchild	
[00:00:18]: Mod: workshop-1651623054 (Simple Health Bar DST)	    dyc_healthbar	
[00:00:18]: Mod: workshop-1651623054 (Simple Health Bar DST)	  Registering default mod prefab	
[00:00:18]: Mod: workshop-501385076 (Quick Pick)	Registering prefabs	
[00:00:18]: Mod: workshop-501385076 (Quick Pick)	  Registering default mod prefab	
[00:00:18]: Mod: workshop-1682381560 (Level Up System)	Registering prefabs	
[00:00:18]: Mod: workshop-1682381560 (Level Up System)	  Registering default mod prefab	
[00:00:18]: Mod: workshop-816057392 (Combined Status)	Registering prefabs	
[00:00:18]: Mod: workshop-816057392 (Combined Status)	  Registering default mod prefab	
[00:00:18]: Mod: workshop-1458450094 (Auto Trap Reset)	Registering prefabs	
[00:00:18]: Mod: workshop-1458450094 (Auto Trap Reset)	  Registering default mod prefab	
[00:00:18]: Mod: workshop-378160973 (Global Positions)	Registering prefabs	
[00:00:18]: Mod: workshop-378160973 (Global Positions)	  Registering prefab file: prefabs/globalposition_classified	
[00:00:18]: Mod: workshop-378160973 (Global Positions)	    globalposition_classified	
[00:00:18]: Mod: workshop-378160973 (Global Positions)	  Registering prefab file: prefabs/smoketrail	
[00:00:18]: Mod: workshop-378160973 (Global Positions)	    smoketrail	
[00:00:18]: Mod: workshop-378160973 (Global Positions)	  Registering prefab file: prefabs/globalmapicon_noproxy	
[00:00:18]: Mod: workshop-378160973 (Global Positions)	    globalmapicon_noproxy	
[00:00:18]: Mod: workshop-378160973 (Global Positions)	  Registering prefab file: prefabs/worldmapexplorer	
[00:00:18]: Mod: workshop-378160973 (Global Positions)	    worldmapexplorer	
[00:00:18]: Mod: workshop-378160973 (Global Positions)	  Registering prefab file: prefabs/pings	
[00:00:18]: Mod: workshop-378160973 (Global Positions)	    ping_generic	
[00:00:18]: Mod: workshop-378160973 (Global Positions)	    ping_omw	
[00:00:18]: Mod: workshop-378160973 (Global Positions)	    ping_danger	
[00:00:18]: Mod: workshop-378160973 (Global Positions)	    ping_explore	
[00:00:18]: Mod: workshop-378160973 (Global Positions)	    ping_gohere	
[00:00:18]: Mod: workshop-378160973 (Global Positions)	  Registering default mod prefab	
[00:00:18]: Mod: workshop-1595631294 (Smart Minisign)	Registering prefabs	
[00:00:18]: Mod: workshop-1595631294 (Smart Minisign)	  Registering default mod prefab	
[00:00:18]: 	Load FE	
[00:00:20]: 	Load FE: done	
[00:00:20]: THREAD - started 'FilesExistAsyncThread' (7340)
[00:00:20]: Check for write access: TRUE
[00:00:20]: FilesExistAsyncThread started (19097 files)...
[00:00:20]: Check for read access: TRUE
[00:00:20]: Available disk space for save files: 315378 MB
[00:00:20]: ModIndex: Load sequence finished successfully.	
[00:00:20]: Reset() returning
[00:00:20]: [IPC] Signal 'DST_Master_Kill' opened  #00000000000006F0
[00:00:20]: [IPC] Registering handler for signal #00000000000006F0
[00:00:20]: [IPC] Handle #00000000000006F0 added to the Eventhandles
[00:00:20]: [IPC] Signal 'DST_Master_Starting' opened  #0000000000000694
[00:00:20]: [IPC] Sending signal... #0000000000000694
[00:00:22]: [200] Account Communication Success (6)
[00:00:22]: Received (KU_voGjEULK) from TokenPurpose
[00:00:22]: Starting Dedicated Server Game	
[00:00:22]: Network tick rate: U=15(2), D=0
[00:00:22]: About to start a server with the following settings:
[00:00:22]:   Dedicated: true
[00:00:22]:   Online: true
[00:00:22]:   Passworded: true
[00:00:22]:   ServerPort: 10999
[00:00:22]:   SteamAuthPort: 8766
[00:00:22]:   SteamMasterServerPort: 27016
[00:00:22]:   ClanID: false
[00:00:22]:   ClanOnly: false
[00:00:22]:   ClanAdmin: false
[00:00:22]:   LanOnly: false
[00:00:22]:   FriendsOnly: false
[00:00:22]:   EnableAutosaver: true
[00:00:22]:   EncodeUserPath: true
[00:00:22]:   PVP: false
[00:00:22]:   MaxPlayers: 6
[00:00:22]:   GameMode: endless
[00:00:22]:   OverridenDNS: 
[00:00:22]:   PauseWhenEmpty: true
[00:00:22]:   IdleTimeout: 1800s
[00:00:22]:   VoteEnabled: false
[00:00:22]:   InternetBroadcasting: true
[00:00:22]:   Intent: cooperative
[00:00:22]: [Warning] Could not confirm port 10999 is open in the firewall. 
[00:00:22]: Could not load mod_config_data/modconfiguration_workshop-374550642	
[00:00:22]: Could not load mod_config_data/modconfiguration_workshop-816057392	
[00:00:22]: Could not load mod_config_data/modconfiguration_workshop-1185229307	
[00:00:22]: Could not load mod_config_data/modconfiguration_workshop-378160973	
[00:00:22]: Could not load mod_config_data/modconfiguration_workshop-1682381560	
[00:00:22]: Could not load mod_config_data/modconfiguration_workshop-375850593	
[00:00:22]: Could not load mod_config_data/modconfiguration_workshop-666155465	
[00:00:22]: Could not load mod_config_data/modconfiguration_workshop-1651623054	
[00:00:22]: Could not load mod_config_data/modconfiguration_workshop-2010472942	
[00:00:22]: Could not load mod_config_data/modconfiguration_workshop-362175979	
[00:00:22]: Could not load mod_config_data/modconfiguration_workshop-1595631294	
[00:00:22]: Online Server Started on port: 10999
[00:00:23]: SUCCESS: Loaded modoverrides.lua	
[00:00:23]: Found a level data override file with these contents:	
[00:00:23]: 	K: 	desc	 V: 	The standard Don't Starve experience.	
[00:00:23]: 	K: 	hideminimap	 V: 	false	
[00:00:23]: 	K: 	id	 V: 	SURVIVAL_TOGETHER	
[00:00:23]: 	K: 	location	 V: 	forest	
[00:00:23]: 	K: 	max_playlist_position	 V: 	999	
[00:00:23]: 	K: 	min_playlist_position	 V: 	0	
[00:00:23]: 	K: 	name	 V: 	Standard Forest	
[00:00:23]: 	K: 	numrandom_set_pieces	 V: 	4	
[00:00:23]: 	K: 	override_level_string	 V: 	false	
[00:00:23]: 	K: 	overrides	 V: 	table: 000000000A644D30	
[00:00:23]: 		K: 	alternatehunt	 V: 	default	
[00:00:23]: 		K: 	angrybees	 V: 	default	
[00:00:23]: 		K: 	antliontribute	 V: 	default	
[00:00:23]: 		K: 	autumn	 V: 	default	
[00:00:23]: 		K: 	bats_setting	 V: 	default	
[00:00:23]: 		K: 	bearger	 V: 	default	
[00:00:23]: 		K: 	beefalo	 V: 	default	
[00:00:23]: 		K: 	beefaloheat	 V: 	default	
[00:00:23]: 		K: 	beequeen	 V: 	default	
[00:00:23]: 		K: 	bees	 V: 	default	
[00:00:23]: 		K: 	bees_setting	 V: 	default	
[00:00:23]: 		K: 	berrybush	 V: 	default	
[00:00:24]: 		K: 	birds	 V: 	default	
[00:00:24]: 		K: 	boons	 V: 	default	
[00:00:24]: 		K: 	branching	 V: 	default	
[00:00:24]: 		K: 	brightmarecreatures	 V: 	default	
[00:00:24]: 		K: 	bunnymen_setting	 V: 	default	
[00:00:24]: 		K: 	butterfly	 V: 	default	
[00:00:24]: 		K: 	buzzard	 V: 	default	
[00:00:24]: 		K: 	cactus	 V: 	default	
[00:00:24]: 		K: 	carrot	 V: 	default	
[00:00:24]: 		K: 	carrots_regrowth	 V: 	default	
[00:00:24]: 		K: 	catcoon	 V: 	default	
[00:00:24]: 		K: 	catcoons	 V: 	default	
[00:00:24]: 		K: 	chess	 V: 	default	
[00:00:24]: 		K: 	cookiecutters	 V: 	default	
[00:00:24]: 		K: 	crabking	 V: 	default	
[00:00:24]: 		K: 	day	 V: 	default	
[00:00:24]: 		K: 	deciduousmonster	 V: 	default	
[00:00:24]: 		K: 	deciduoustree_regrowth	 V: 	default	
[00:00:24]: 		K: 	deerclops	 V: 	default	
[00:00:24]: 		K: 	dragonfly	 V: 	default	
[00:00:24]: 		K: 	dropeverythingondespawn	 V: 	default	
[00:00:24]: 		K: 	evergreen_regrowth	 V: 	default	
[00:00:24]: 		K: 	extrastartingitems	 V: 	default	
[00:00:24]: 		K: 	eyeofterror	 V: 	default	
[00:00:24]: 		K: 	fishschools	 V: 	default	
[00:00:24]: 		K: 	flint	 V: 	default	
[00:00:24]: 		K: 	flowers	 V: 	default	
[00:00:24]: 		K: 	flowers_regrowth	 V: 	default	
[00:00:24]: 		K: 	frograin	 V: 	default	
[00:00:24]: 		K: 	frogs	 V: 	default	
[00:00:24]: 		K: 	fruitfly	 V: 	default	
[00:00:24]: 		K: 	gnarwail	 V: 	default	
[00:00:24]: 		K: 	goosemoose	 V: 	default	
[00:00:24]: 		K: 	grass	 V: 	default	
[00:00:24]: 		K: 	grassgekkos	 V: 	default	
[00:00:24]: 		K: 	has_ocean	 V: 	true	
[00:00:24]: 		K: 	hound_mounds	 V: 	default	
[00:00:24]: 		K: 	houndmound	 V: 	default	
[00:00:24]: 		K: 	hounds	 V: 	default	
[00:00:24]: 		K: 	hunt	 V: 	default	
[00:00:24]: 		K: 	keep_disconnected_tiles	 V: 	true	
[00:00:24]: 		K: 	klaus	 V: 	default	
[00:00:24]: 		K: 	krampus	 V: 	default	
[00:00:24]: 		K: 	layout_mode	 V: 	LinkNodesByKeys	
[00:00:24]: 		K: 	liefs	 V: 	default	
[00:00:24]: 		K: 	lightning	 V: 	default	
[00:00:24]: 		K: 	lightninggoat	 V: 	default	
[00:00:24]: AddPortMapping(10999, 10999, 192.168.68.141) failed with code 718 (ConflictInMappingEntry)
[00:00:24]: 		K: 	loop	 V: 	default	
[00:00:24]: 		K: 	lureplants	 V: 	default	
[00:00:24]: 		K: 	malbatross	 V: 	default	
[00:00:24]: 		K: 	marshbush	 V: 	default	
[00:00:24]: 		K: 	merm	 V: 	default	
[00:00:24]: AddPortMapping(10999, 10999, 192.168.68.141) failed with code 718 (ConflictInMappingEntry)
[00:00:24]: 		K: 	merms	 V: 	default	
[00:00:24]: 		K: 	meteorshowers	 V: 	default	
[00:00:24]: 		K: 	meteorspawner	 V: 	default	
[00:00:24]: 		K: 	moles	 V: 	default	
[00:00:24]: 		K: 	moles_setting	 V: 	default	
[00:00:24]: 		K: 	moon_berrybush	 V: 	default	
[00:00:24]: 		K: 	moon_bullkelp	 V: 	default	
[00:00:24]: 		K: 	moon_carrot	 V: 	default	
[00:00:24]: 		K: 	moon_fissure	 V: 	default	
[00:00:24]: 		K: 	moon_fruitdragon	 V: 	default	
[00:00:24]: 		K: 	moon_hotspring	 V: 	default	
[00:00:24]: 		K: 	moon_rock	 V: 	default	
[00:00:24]: 		K: 	moon_sapling	 V: 	default	
[00:00:24]: 		K: 	moon_spider	 V: 	default	
[00:00:24]: 		K: 	moon_spiders	 V: 	default	
[00:00:24]: 		K: 	moon_starfish	 V: 	default	
[00:00:24]: 		K: 	moon_tree	 V: 	default	
[00:00:24]: 		K: 	moon_tree_regrowth	 V: 	default	
[00:00:24]: 		K: 	mosquitos	 V: 	default	
[00:00:24]: 		K: 	mushroom	 V: 	default	
[00:00:24]: 		K: 	mutated_hounds	 V: 	default	
[00:00:24]: 		K: 	no_joining_islands	 V: 	true	
[00:00:24]: 		K: 	no_wormholes_to_disconnected_tiles	 V: 	true	
[00:00:24]: 		K: 	ocean_bullkelp	 V: 	default	
[00:00:24]: 		K: 	ocean_seastack	 V: 	ocean_default	
[00:00:24]: 		K: 	ocean_shoal	 V: 	default	
[00:00:24]: 		K: 	ocean_waterplant	 V: 	ocean_default	
[00:00:25]: 		K: 	ocean_wobsterden	 V: 	default	
[00:00:25]: 		K: 	penguins	 V: 	default	
[00:00:25]: 		K: 	penguins_moon	 V: 	default	
[00:00:25]: 		K: 	perd	 V: 	default	
[00:00:25]: 		K: 	petrification	 V: 	default	
[00:00:25]: 		K: 	pigs	 V: 	default	
[00:00:25]: 		K: 	pigs_setting	 V: 	default	
[00:00:25]: 		K: 	ponds	 V: 	default	
[00:00:25]: 		K: 	prefabswaps_start	 V: 	default	
[00:00:25]: 		K: 	rabbits	 V: 	default	
[00:00:25]: 		K: 	rabbits_setting	 V: 	default	
[00:00:25]: 		K: 	reeds	 V: 	default	
[00:00:25]: 		K: 	regrowth	 V: 	default	
[00:00:25]: 		K: 	roads	 V: 	default	
[00:00:25]: 		K: 	rock	 V: 	default	
[00:00:25]: 		K: 	rock_ice	 V: 	default	
[00:00:25]: 		K: 	saltstack_regrowth	 V: 	default	
[00:00:25]: 		K: 	sapling	 V: 	default	
[00:00:25]: 		K: 	season_start	 V: 	default	
[00:00:25]: 		K: 	seasonalstartingitems	 V: 	default	
[00:00:25]: 		K: 	shadowcreatures	 V: 	default	
[00:00:25]: 		K: 	sharks	 V: 	default	
[00:00:25]: 		K: 	spawnprotection	 V: 	default	
[00:00:25]: 		K: 	specialevent	 V: 	default	
[00:00:25]: 		K: 	spider_warriors	 V: 	default	
[00:00:25]: 		K: 	spiderqueen	 V: 	default	
[00:00:25]: 		K: 	spiders	 V: 	default	
[00:00:25]: 		K: 	spiders_setting	 V: 	default	
[00:00:25]: 		K: 	spring	 V: 	default	
[00:00:25]: 		K: 	squid	 V: 	default	
[00:00:25]: 		K: 	start_location	 V: 	default	
[00:00:25]: 		K: 	summer	 V: 	default	
[00:00:25]: 		K: 	tallbirds	 V: 	default	
[00:00:25]: 		K: 	task_set	 V: 	default	
[00:00:25]: 		K: 	tentacles	 V: 	default	
[00:00:25]: 		K: 	terrariumchest	 V: 	default	
[00:00:25]: 		K: 	touchstone	 V: 	default	
[00:00:25]: 		K: 	trees	 V: 	default	
[00:00:25]: 		K: 	tumbleweed	 V: 	default	
[00:00:25]: 		K: 	twiggytrees_regrowth	 V: 	default	
[00:00:25]: 		K: 	walrus	 V: 	default	
[00:00:25]: 		K: 	walrus_setting	 V: 	default	
[00:00:25]: 		K: 	wasps	 V: 	default	
[00:00:25]: 		K: 	weather	 V: 	default	
[00:00:25]: 		K: 	wildfires	 V: 	default	
[00:00:25]: 		K: 	winter	 V: 	default	
[00:00:25]: 		K: 	wobsters	 V: 	default	
[00:00:25]: 		K: 	world_size	 V: 	default	
[00:00:25]: 		K: 	wormhole_prefab	 V: 	wormhole	
[00:00:25]: 	K: 	random_set_pieces	 V: 	table: 000000000A644790	
[00:00:25]: 		K: 	1	 V: 	Sculptures_2	
[00:00:25]: 		K: 	2	 V: 	Sculptures_3	
[00:00:25]: 		K: 	3	 V: 	Sculptures_4	
[00:00:25]: 		K: 	4	 V: 	Sculptures_5	
[00:00:25]: 		K: 	5	 V: 	Chessy_1	
[00:00:25]: 		K: 	6	 V: 	Chessy_2	
[00:00:25]: 		K: 	7	 V: 	Chessy_3	
[00:00:25]: 		K: 	8	 V: 	Chessy_4	
[00:00:25]: 		K: 	9	 V: 	Chessy_5	
[00:00:25]: 		K: 	10	 V: 	Chessy_6	
[00:00:25]: 		K: 	11	 V: 	Maxwell1	
[00:00:25]: 		K: 	12	 V: 	Maxwell2	
[00:00:25]: 		K: 	13	 V: 	Maxwell3	
[00:00:25]: 		K: 	14	 V: 	Maxwell4	
[00:00:25]: 		K: 	15	 V: 	Maxwell6	
[00:00:25]: 		K: 	16	 V: 	Maxwell7	
[00:00:25]: 		K: 	17	 V: 	Warzone_1	
[00:00:25]: 		K: 	18	 V: 	Warzone_2	
[00:00:25]: 		K: 	19	 V: 	Warzone_3	
[00:00:25]: 	K: 	required_prefabs	 V: 	table: 000000000A6451E0	
[00:00:25]: 		K: 	1	 V: 	multiplayer_portal	
[00:00:25]: 	K: 	required_setpieces	 V: 	table: 000000000A644E20	
[00:00:25]: 		K: 	1	 V: 	Sculptures_1	
[00:00:25]: 		K: 	2	 V: 	Maxwell5	
[00:00:25]: 	K: 	settings_desc	 V: 	The standard Don't Starve experience.	
[00:00:25]: 	K: 	settings_id	 V: 	SURVIVAL_TOGETHER	
[00:00:25]: 	K: 	settings_name	 V: 	Standard Forest	
[00:00:25]: 	K: 	substitutes	 V: 	table: 000000000A645460	
[00:00:25]: 	K: 	version	 V: 	4	
[00:00:25]: 	K: 	worldgen_desc	 V: 	The standard Don't Starve experience.	
[00:00:25]: 	K: 	worldgen_id	 V: 	SURVIVAL_TOGETHER	
[00:00:25]: 	K: 	worldgen_name	 V: 	Standard Forest	
[00:00:25]: Loaded and applied level data override from ../leveldataoverride.lua	
[00:00:25]: Overwriting savedata with level data file.	
[00:00:25]: Not applying world gen overrides.	
[00:00:25]: Collecting garbage...
[00:00:26]: lua_gc took 0.45 seconds
[00:00:26]: ~ShardLuaProxy()
[00:00:26]: ~cEventLeaderboardProxy()
[00:00:26]: ~ItemServerLuaProxy()
[00:00:26]: ~InventoryLuaProxy()
[00:00:26]: ~NetworkLuaProxy()
[00:00:26]: ~SimLuaProxy()
[00:00:26]: FilesExistAsyncThread aborted.
[00:00:26]: ... FilesExistAsyncThread complete
[00:00:26]: lua_close took 0.36 seconds
[00:00:26]: ReleaseAll
[00:00:26]: ReleaseAll Finished
[00:00:26]: cGame::StartPlaying
[00:00:26]: AppVersion::GetArchitecture() x64
[00:00:26]: LOADING LUA
[00:00:26]: DoLuaFile scripts/main.lua
[00:00:26]: DoLuaFile loading buffer scripts/main.lua
[00:00:27]:   taskgrouplist:	default	Together	
[00:00:27]:   taskgrouplist:	classic	Classic	
[00:00:27]:   taskgrouplist:	cave_default	Underground	
[00:00:27]:   taskgrouplist:	lavaarena_taskset	The Forge	
[00:00:27]:   taskgrouplist:	quagmire_taskset	The Gorge	
[00:00:27]: running main.lua
	
[00:00:27]: loaded modindex	
[00:00:28]: ModIndex: Beginning normal load sequence for dedicated server.
	
[00:00:28]: SUCCESS: Loaded modoverrides.lua	
[00:00:28]: modoverrides.lua enabling workshop-374550642	
[00:00:28]: modoverrides.lua enabling workshop-816057392	
[00:00:28]: modoverrides.lua enabling workshop-378160973	
[00:00:28]: modoverrides.lua enabling workshop-1682381560	
[00:00:28]: modoverrides.lua enabling workshop-375850593	
[00:00:28]: modoverrides.lua enabling workshop-666155465	
[00:00:28]: modoverrides.lua enabling workshop-1185229307	
[00:00:28]: modoverrides.lua enabling workshop-2010472942	
[00:00:28]: modoverrides.lua enabling workshop-362175979	
[00:00:28]: modoverrides.lua enabling workshop-501385076	
[00:00:28]: modoverrides.lua enabling workshop-1651623054	
[00:00:28]: modoverrides.lua enabling workshop-1458450094	
[00:00:28]: modoverrides.lua enabling workshop-1595631294	
[00:00:28]: ModIndex:GetModsToLoad inserting moddir, 	workshop-1458450094	
[00:00:28]: ModIndex:GetModsToLoad inserting moddir, 	workshop-1595631294	
[00:00:28]: ModIndex:GetModsToLoad inserting moddir, 	workshop-1651623054	
[00:00:28]: ModIndex:GetModsToLoad inserting moddir, 	workshop-1682381560	
[00:00:28]: ModIndex:GetModsToLoad inserting moddir, 	workshop-362175979	
[00:00:28]: ModIndex:GetModsToLoad inserting moddir, 	workshop-374550642	
[00:00:28]: ModIndex:GetModsToLoad inserting moddir, 	workshop-375850593	
[00:00:28]: ModIndex:GetModsToLoad inserting moddir, 	workshop-378160973	
[00:00:28]: ModIndex:GetModsToLoad inserting moddir, 	workshop-501385076	
[00:00:28]: ModIndex:GetModsToLoad inserting moddir, 	workshop-816057392	
[00:00:28]: ModIndex:GetModsToLoad inserting forcedmoddir, 	workshop-1185229307	
[00:00:28]: ModIndex:GetModsToLoad inserting forcedmoddir, 	workshop-2010472942	
[00:00:28]: ModIndex:GetModsToLoad inserting forcedmoddir, 	workshop-666155465	
[00:00:28]: Could not load mod_config_data/modconfiguration_workshop-1458450094	
[00:00:28]: Loading mod: workshop-1458450094 (Auto Trap Reset) Version:2.1	
[00:00:28]: Could not load mod_config_data/modconfiguration_workshop-1595631294	
[00:00:28]: Loading mod: workshop-1595631294 (Smart Minisign) Version:1.1.5	
[00:00:28]: Could not load mod_config_data/modconfiguration_workshop-1651623054	
[00:00:28]: Loading mod: workshop-1651623054 (Simple Health Bar DST) Version:1.06 (Old API! (mod: 6 game: 10) )	
[00:00:28]: Could not load mod_config_data/modconfiguration_workshop-1682381560	
[00:00:28]: Loading mod: workshop-1682381560 (Level Up System) Version:1.1	
[00:00:28]: Could not load mod_config_data/modconfiguration_workshop-362175979	
[00:00:28]: Loading mod: workshop-362175979 (Wormhole Marks) Version:1.4.5	
[00:00:28]: Could not load mod_config_data/modconfiguration_workshop-374550642	
[00:00:28]: Loading mod: workshop-374550642 (Increased Stack size) Version:1.62	
[00:00:28]: Could not load mod_config_data/modconfiguration_workshop-375850593	
[00:00:28]: Loading mod: workshop-375850593 (Extra Equip Slots) Version:1.8.0	
[00:00:28]: Could not load mod_config_data/modconfiguration_workshop-378160973	
[00:00:28]: Loading mod: workshop-378160973 (Global Positions) Version:1.7.3	
[00:00:28]: Could not load mod_config_data/modconfiguration_workshop-501385076	
[00:00:28]: Loading mod: workshop-501385076 (Quick Pick) Version:1.4.0	
[00:00:28]: Could not load mod_config_data/modconfiguration_workshop-816057392	
[00:00:28]: Loading mod: workshop-816057392 (Combined Status) Version:1.7.5	
[00:00:28]: Could not load mod_config_data/modconfiguration_workshop-1185229307	
[00:00:28]: Loading mod: workshop-1185229307 (Epic Healthbar) Version:9.2	
[00:00:28]: Could not load mod_config_data/modconfiguration_workshop-2010472942	
[00:00:28]: Loading mod: workshop-2010472942 (Reign of Runts) Version:2.2	
[00:00:28]: Could not load mod_config_data/modconfiguration_workshop-666155465	
[00:00:28]: Loading mod: workshop-666155465 (Show Me (Origin)) Version:0.57	
[00:00:28]: applying configuration_options from modoverrides.lua to mod workshop-374550642	
[00:00:28]: Overriding mod workshop-374550642's option MAXSTACKSIZE with value 99	
[00:00:28]: applying configuration_options from modoverrides.lua to mod workshop-816057392	
[00:00:28]: Overriding mod workshop-816057392's option SHOWTEMPBADGES with value true	
[00:00:28]: Overriding mod workshop-816057392's option SHOWBEAVERNESS with value true	
[00:00:28]: Overriding mod workshop-816057392's option UNIT with value T	
[00:00:28]: Overriding mod workshop-816057392's option SHOWWORLDTEMP with value false	
[00:00:28]: Overriding mod workshop-816057392's option SHOWMOON with value 1	
[00:00:28]: Overriding mod workshop-816057392's option SHOWWANINGMOON with value true	
[00:00:28]: Overriding mod workshop-816057392's option FLIPMOON with value false	
[00:00:28]: Overriding mod workshop-816057392's option SEASONOPTIONS with value Clock	
[00:00:28]: Overriding mod workshop-816057392's option SHOWSTATNUMBERS with value true	
[00:00:28]: Overriding mod workshop-816057392's option HUDSCALEFACTOR with value 100	
[00:00:28]: Overriding mod workshop-816057392's option SHOWCLOCKTEXT with value true	
[00:00:28]: Overriding mod workshop-816057392's option HIDECAVECLOCK with value false	
[00:00:28]: Overriding mod workshop-816057392's option SHOWTEMPERATURE with value true	
[00:00:28]: Overriding mod workshop-816057392's option SHOWNEXTFULLMOON with value true	
[00:00:28]: Overriding mod workshop-816057392's option SHOWNAUGHTINESS with value true	
[00:00:28]: Overriding mod workshop-816057392's option SHOWMAXONNUMBERS with value true	
[00:00:28]: applying configuration_options from modoverrides.lua to mod workshop-378160973	
[00:00:28]: Overriding mod workshop-378160973's option FIREOPTIONS with value 2	
[00:00:28]: Overriding mod workshop-378160973's option SHOWFIREICONS with value true	
[00:00:28]: Overriding mod workshop-378160973's option SHAREMINIMAPPROGRESS with value true	
[00:00:28]: Overriding mod workshop-378160973's option SHOWPLAYERICONS with value true	
[00:00:28]: Overriding mod workshop-378160973's option OVERRIDEMODE with value false	
[00:00:28]: Overriding mod workshop-378160973's option SHOWPLAYERSOPTIONS with value 2	
[00:00:28]: Overriding mod workshop-378160973's option ENABLEPINGS with value true	
[00:00:28]: applying configuration_options from modoverrides.lua to mod workshop-1682381560	
[00:00:28]: Overriding mod workshop-1682381560's option EXP_PERCENT with value 1	
[00:00:28]: Overriding mod workshop-1682381560's option SHOWINFO with value 118	
[00:00:28]: Overriding mod workshop-1682381560's option INITIAL_STATE with value 1	
[00:00:28]: applying configuration_options from modoverrides.lua to mod workshop-375850593	
[00:00:28]: applying configuration_options from modoverrides.lua to mod workshop-666155465	
[00:00:28]: Overriding mod workshop-666155465's option chestR with value -1	
[00:00:28]: Overriding mod workshop-666155465's option food_style with value 0	
[00:00:28]: Overriding mod workshop-666155465's option display_hp with value -1	
[00:00:28]: Overriding mod workshop-666155465's option show_uses with value -1	
[00:00:28]: Overriding mod workshop-666155465's option show_food_units with value -1	
[00:00:28]: Overriding mod workshop-666155465's option lang with value auto	
[00:00:28]: Overriding mod workshop-666155465's option chestB with value -1	
[00:00:28]: Overriding mod workshop-666155465's option food_order with value 0	
[00:00:28]: Overriding mod workshop-666155465's option chestG with value -1	
[00:00:28]: Overriding mod workshop-666155465's option food_estimation with value -1	
[00:00:28]: applying configuration_options from modoverrides.lua to mod workshop-1185229307	
[00:00:28]: Overriding mod workshop-1185229307's option  with value 	
[00:00:28]: Overriding mod workshop-1185229307's option  with value 	
[00:00:28]: Overriding mod workshop-1185229307's option WETNESS_METER with value false	
[00:00:28]: Overriding mod workshop-1185229307's option NOEPIC with value false	
[00:00:28]: Overriding mod workshop-1185229307's option FRAME_PHASES with value true	
[00:00:28]: Overriding mod workshop-1185229307's option DAMAGE_NUMBERS with value true	
[00:00:28]: Overriding mod workshop-1185229307's option NONOEPIC with value false	
[00:00:28]: Overriding mod workshop-1185229307's option DAMAGE_RESISTANCE with value true	
[00:00:28]: Overriding mod workshop-1185229307's option HORIZONTAL_OFFSET with value 0	
[00:00:28]: applying configuration_options from modoverrides.lua to mod workshop-2010472942	
[00:00:28]: Overriding mod workshop-2010472942's option enable_groundpcancel with value true	
[00:00:28]: Overriding mod workshop-2010472942's option wfly_ashes with value 8	
[00:00:28]: Overriding mod workshop-2010472942's option enable_unintelligible with value false	
[00:00:28]: Overriding mod workshop-2010472942's option woose_spinhammer with value false	
[00:00:28]: Overriding mod workshop-2010472942's option wearg_hungerd with value 1.2	
[00:00:28]: Overriding mod workshop-2010472942's option enable_monstertag with value false	
[00:00:28]: Overriding mod workshop-2010472942's option weer_sanitydrainstart with value 1.5	
[00:00:28]: Overriding mod workshop-2010472942's option wearger_gp_cd with value 5	
[00:00:28]: Overriding mod workshop-2010472942's option wfly_lavaedmg with value 50	
[00:00:28]: Overriding mod workshop-2010472942's option wfly_enraged_maxhp with value 70	
[00:00:28]: Overriding mod workshop-2010472942's option wfly_lavaemax with value 9	
[00:00:28]: Overriding mod workshop-2010472942's option woose_honkrange with value 5	
[00:00:28]: Overriding mod workshop-2010472942's option enable_nesting with value true	
[00:00:28]: Overriding mod workshop-2010472942's option wearg_gpdmg with value 25	
[00:00:28]: Overriding mod workshop-2010472942's option wfly_oheattemp with value 90	
[00:00:28]: Overriding mod workshop-2010472942's option weer_sanitybonus with value 5	
[00:00:28]: Overriding mod workshop-2010472942's option wfly_enraged_cd with value 30	
[00:00:28]: Overriding mod workshop-2010472942's option woose_aoedmg with value 3	
[00:00:28]: Overriding mod workshop-2010472942's option weer_freezekill with value 192	
[00:00:28]: Overriding mod workshop-2010472942's option woose_lightn with value 0	
[00:00:28]: Overriding mod workshop-2010472942's option wearger_yawn with value 0.2	
[00:00:28]: Overriding mod workshop-2010472942's option wearger_attackstyle with value 2	
[00:00:28]: Overriding mod workshop-2010472942's option wfly_enraged_fire with value false	
[00:00:28]: Overriding mod workshop-2010472942's option woose_wetness with value 1.6	
[00:00:28]: Overriding mod workshop-2010472942's option woose_wetdrain with value false	
[00:00:28]: Overriding mod workshop-2010472942's option enable_woose_speen with value true	
[00:00:28]: Overriding mod workshop-2010472942's option woose_iframes with value true	
[00:00:28]: Overriding mod workshop-2010472942's option woose_speen with value 10	
[00:00:28]: Overriding mod workshop-2010472942's option wearger_hibasorp with value 0.2	
[00:00:28]: Overriding mod workshop-2010472942's option woose_nesttime with value 7	
[00:00:28]: Overriding mod workshop-2010472942's option woose_nestbuff with value 0.25	
[00:00:28]: Overriding mod workshop-2010472942's option woose_drownmax with value 80	
[00:00:28]: Overriding mod workshop-2010472942's option wfly_enraged_timer with value 60	
[00:00:28]: Overriding mod workshop-2010472942's option wfly_summondmg with value 20	
[00:00:28]: Overriding mod workshop-2010472942's option weerclops_attackstyle with value 1	
[00:00:28]: Overriding mod workshop-2010472942's option wfly_fireimmune with value 0	
[00:00:28]: Overriding mod workshop-2010472942's option weer_hotkill with value 84	
[00:00:28]: Overriding mod workshop-2010472942's option wearger_gp_range with value 5	
[00:00:28]: Overriding mod workshop-2010472942's option wearg_honey with value 10	
[00:00:28]: applying configuration_options from modoverrides.lua to mod workshop-362175979	
[00:00:28]: Overriding mod workshop-362175979's option Draw over FoW with value disabled	
[00:00:28]: applying configuration_options from modoverrides.lua to mod workshop-501385076	
[00:00:28]: Overriding mod workshop-501385076's option quick_pick_cactus with value true	
[00:00:28]: Overriding mod workshop-501385076's option quick_pick_plant_normal_ground with value true	
[00:00:28]: Overriding mod workshop-501385076's option quick_cook_on_fire with value true	
[00:00:28]: Overriding mod workshop-501385076's option quick_harvest with value true	
[00:00:28]: applying configuration_options from modoverrides.lua to mod workshop-1651623054	
[00:00:28]: Overriding mod workshop-1651623054's option hbcolor with value dynamic	
[00:00:28]: Overriding mod workshop-1651623054's option hbstyle with value heart	
[00:00:28]: Overriding mod workshop-1651623054's option value with value true	
[00:00:28]: Overriding mod workshop-1651623054's option ddon with value true	
[00:00:28]: Overriding mod workshop-1651623054's option hbpos with value 1	
[00:00:28]: Overriding mod workshop-1651623054's option hblength with value 10	
[00:00:28]: applying configuration_options from modoverrides.lua to mod workshop-1458450094	
[00:00:28]: Overriding mod workshop-1458450094's option  with value 0	
[00:00:28]: Overriding mod workshop-1458450094's option  with value 0	
[00:00:28]: Overriding mod workshop-1458450094's option  with value 0	
[00:00:28]: Overriding mod workshop-1458450094's option  with value 0	
[00:00:28]: Overriding mod workshop-1458450094's option log with value false	
[00:00:28]: Overriding mod workshop-1458450094's option houndstooth with value false	
[00:00:28]: Overriding mod workshop-1458450094's option livinglog with value false	
[00:00:28]: Overriding mod workshop-1458450094's option stinger with value false	
[00:00:28]: Overriding mod workshop-1458450094's option rope with value false	
[00:00:28]: Overriding mod workshop-1458450094's option retraprandomy with value 120	
[00:00:28]: Overriding mod workshop-1458450094's option mode with value fix	
[00:00:28]: Overriding mod workshop-1458450094's option retraprandomx with value 10	
[00:00:28]: Overriding mod workshop-1458450094's option retrapfix with value 60	
[00:00:28]: applying configuration_options from modoverrides.lua to mod workshop-1595631294	
[00:00:28]: Overriding mod workshop-1595631294's option SaltBox with value false	
[00:00:28]: Overriding mod workshop-1595631294's option BundleItems with value false	
[00:00:28]: Overriding mod workshop-1595631294's option Digornot with value false	
[00:00:28]: Overriding mod workshop-1595631294's option ChangeSkin with value true	
[00:00:28]: Overriding mod workshop-1595631294's option Icebox with value false	
[00:00:28]: Overriding mod workshop-1595631294's option DragonflyChest with value false	
[00:00:28]: Mod: workshop-1185229307 (Epic Healthbar)	Loading modworldgenmain.lua	
[00:00:28]: Mod: workshop-1185229307 (Epic Healthbar)	  Mod had no modworldgenmain.lua. Skipping.	
[00:00:28]: Mod: workshop-1185229307 (Epic Healthbar)	Loading modmain.lua	
[00:00:28]: Mod: workshop-2010472942 (Reign of Runts)	Loading modworldgenmain.lua	
[00:00:28]: Mod: workshop-2010472942 (Reign of Runts)	  Mod had no modworldgenmain.lua. Skipping.	
[00:00:28]: Mod: workshop-2010472942 (Reign of Runts)	Loading modmain.lua	
[00:00:28]: modimport: ../mods/workshop-2010472942/scripts/strings.lua	
[00:00:28]: modimport: ../mods/workshop-2010472942/scripts/tools/skins_api	
[00:00:28]: Mod: workshop-375850593 (Extra Equip Slots)	Loading modworldgenmain.lua	
[00:00:28]: Mod: workshop-375850593 (Extra Equip Slots)	  Mod had no modworldgenmain.lua. Skipping.	
[00:00:28]: Mod: workshop-375850593 (Extra Equip Slots)	Loading modmain.lua	
[00:00:28]: Mod: workshop-666155465 (Show Me (Origin))	Loading modworldgenmain.lua	
[00:00:28]: Mod: workshop-666155465 (Show Me (Origin))	  Mod had no modworldgenmain.lua. Skipping.	
[00:00:28]: Mod: workshop-666155465 (Show Me (Origin))	Loading modmain.lua	
[00:00:28]: ShowMe version:	0.57	
[00:00:28]: show_food_units	-1	-1	-1	
[00:00:28]: show_uses	-1	-1	-1	
[00:00:28]: Detected language for ShowMe: 	auto		
[00:00:28]: Mod: workshop-374550642 (Increased Stack size)	Loading modworldgenmain.lua	
[00:00:28]: Mod: workshop-374550642 (Increased Stack size)	  Mod had no modworldgenmain.lua. Skipping.	
[00:00:28]: Mod: workshop-374550642 (Increased Stack size)	Loading modmain.lua	
[00:00:28]: Mod: workshop-362175979 (Wormhole Marks)	Loading modworldgenmain.lua	
[00:00:28]: Mod: workshop-362175979 (Wormhole Marks)	  Mod had no modworldgenmain.lua. Skipping.	
[00:00:28]: Mod: workshop-362175979 (Wormhole Marks)	Loading modmain.lua	
[00:00:28]: Mod: workshop-1651623054 (Simple Health Bar DST)	Loading modworldgenmain.lua	
[00:00:28]: Mod: workshop-1651623054 (Simple Health Bar DST)	  Mod had no modworldgenmain.lua. Skipping.	
[00:00:28]: Mod: workshop-1651623054 (Simple Health Bar DST)	Loading modmain.lua	
[00:00:28]: Mod: workshop-501385076 (Quick Pick)	Loading modworldgenmain.lua	
[00:00:28]: Mod: workshop-501385076 (Quick Pick)	  Mod had no modworldgenmain.lua. Skipping.	
[00:00:28]: Mod: workshop-501385076 (Quick Pick)	Loading modmain.lua	
[00:00:28]: Mod: workshop-1682381560 (Level Up System)	Loading modworldgenmain.lua	
[00:00:28]: Mod: workshop-1682381560 (Level Up System)	  Mod had no modworldgenmain.lua. Skipping.	
[00:00:28]: Mod: workshop-1682381560 (Level Up System)	Loading modmain.lua	
[00:00:28]: modimport: ../mods/workshop-1682381560/scripts/patches/wolfgangchanges.lua	
[00:00:28]: modimport: ../mods/workshop-1682381560/scripts/patches/wx78changes.lua	
[00:00:28]: modimport: ../mods/workshop-1682381560/scripts/patches/playerchanges.lua	
[00:00:28]: Mod: workshop-816057392 (Combined Status)	Loading modworldgenmain.lua	
[00:00:28]: Mod: workshop-816057392 (Combined Status)	  Mod had no modworldgenmain.lua. Skipping.	
[00:00:28]: Mod: workshop-816057392 (Combined Status)	Loading modmain.lua	
[00:00:28]: ModIndex:GetModsToLoad inserting moddir, 	workshop-1458450094	
[00:00:28]: ModIndex:GetModsToLoad inserting moddir, 	workshop-1595631294	
[00:00:28]: ModIndex:GetModsToLoad inserting moddir, 	workshop-1651623054	
[00:00:28]: ModIndex:GetModsToLoad inserting moddir, 	workshop-1682381560	
[00:00:28]: ModIndex:GetModsToLoad inserting moddir, 	workshop-362175979	
[00:00:28]: ModIndex:GetModsToLoad inserting moddir, 	workshop-374550642	
[00:00:28]: ModIndex:GetModsToLoad inserting moddir, 	workshop-375850593	
[00:00:28]: ModIndex:GetModsToLoad inserting moddir, 	workshop-378160973	
[00:00:28]: ModIndex:GetModsToLoad inserting moddir, 	workshop-501385076	
[00:00:28]: ModIndex:GetModsToLoad inserting moddir, 	workshop-816057392	
[00:00:28]: ModIndex:GetModsToLoad inserting forcedmoddir, 	workshop-1185229307	
[00:00:28]: ModIndex:GetModsToLoad inserting forcedmoddir, 	workshop-2010472942	
[00:00:28]: ModIndex:GetModsToLoad inserting forcedmoddir, 	workshop-666155465	
[00:00:28]: Mod: workshop-1458450094 (Auto Trap Reset)	Loading modworldgenmain.lua	
[00:00:28]: Mod: workshop-1458450094 (Auto Trap Reset)	  Mod had no modworldgenmain.lua. Skipping.	
[00:00:28]: Mod: workshop-1458450094 (Auto Trap Reset)	Loading modmain.lua	
[00:00:28]: Mod: workshop-378160973 (Global Positions)	Loading modworldgenmain.lua	
[00:00:28]: Mod: workshop-378160973 (Global Positions)	  Mod had no modworldgenmain.lua. Skipping.	
[00:00:28]: Mod: workshop-378160973 (Global Positions)	Loading modmain.lua	
[00:00:28]: ModIndex:GetModsToLoad inserting moddir, 	workshop-1458450094	
[00:00:28]: ModIndex:GetModsToLoad inserting moddir, 	workshop-1595631294	
[00:00:28]: ModIndex:GetModsToLoad inserting moddir, 	workshop-1651623054	
[00:00:28]: ModIndex:GetModsToLoad inserting moddir, 	workshop-1682381560	
[00:00:28]: ModIndex:GetModsToLoad inserting moddir, 	workshop-362175979	
[00:00:28]: ModIndex:GetModsToLoad inserting moddir, 	workshop-374550642	
[00:00:28]: ModIndex:GetModsToLoad inserting moddir, 	workshop-375850593	
[00:00:28]: ModIndex:GetModsToLoad inserting moddir, 	workshop-378160973	
[00:00:28]: ModIndex:GetModsToLoad inserting moddir, 	workshop-501385076	
[00:00:28]: ModIndex:GetModsToLoad inserting moddir, 	workshop-816057392	
[00:00:28]: ModIndex:GetModsToLoad inserting forcedmoddir, 	workshop-1185229307	
[00:00:28]: ModIndex:GetModsToLoad inserting forcedmoddir, 	workshop-2010472942	
[00:00:28]: ModIndex:GetModsToLoad inserting forcedmoddir, 	workshop-666155465	
[00:00:28]: Mod: workshop-1595631294 (Smart Minisign)	Loading modworldgenmain.lua	
[00:00:28]: Mod: workshop-1595631294 (Smart Minisign)	  Mod had no modworldgenmain.lua. Skipping.	
[00:00:28]: Mod: workshop-1595631294 (Smart Minisign)	Loading modmain.lua	
[00:00:30]: Event data unavailable: lavaarena_event_server/lavaarena_achievement_quest_defs
[00:00:30]: LOADING LUA SUCCESS
[00:00:30]: Registering Server mod namespace "workshop-2010472942"
[00:00:30]: Registering Server mod namespace "showme"
[00:00:30]: Registering Server mod namespace "showmeshint"
[00:00:30]: Registering Server mod namespace "workshop-378160973"
[00:00:30]: Registering Server mod namespace "modlevelupsystem"
[00:00:30]: PlayerDeaths could not load morgue	
[00:00:30]: PlayerHistory could not load player_history	
[00:00:30]: ServerPreferences could not load server_preferences	
[00:00:30]: bloom_enabled	true	
[00:00:30]: OnFilesLoaded()	
[00:00:30]: OnUpdatePurchaseStateComplete	
[00:00:30]: Loading world: session/2139020B54A00472/0000000056	
[00:00:31]: Save file is at version 5.09	
[00:00:31]: Klump load on boot started.	
[00:00:31]: Klump files loaded: 	0	
[00:00:32]: 	Unload FE	
[00:00:32]: 	Unload FE done	
[00:00:39]: Mod: workshop-1185229307 (Epic Healthbar)	Registering prefabs	
[00:00:39]: Mod: workshop-1185229307 (Epic Healthbar)	  Registering prefab file: prefabs/epichealth_proxy	
[00:00:39]: Mod: workshop-1185229307 (Epic Healthbar)	    epichealth_proxy	
[00:00:39]: Mod: workshop-1185229307 (Epic Healthbar)	  Registering default mod prefab	
[00:00:39]: Mod: workshop-2010472942 (Reign of Runts)	Registering prefabs	
[00:00:39]: Mod: workshop-2010472942 (Reign of Runts)	  Registering prefab file: prefabs/weerclops	
[00:00:39]: Mod: workshop-2010472942 (Reign of Runts)	    weerclops	
[00:00:39]: Mod: workshop-2010472942 (Reign of Runts)	  Registering prefab file: prefabs/wearger	
[00:00:39]: Mod: workshop-2010472942 (Reign of Runts)	    wearger	
[00:00:39]: Mod: workshop-2010472942 (Reign of Runts)	  Registering prefab file: prefabs/woose	
[00:00:39]: Mod: workshop-2010472942 (Reign of Runts)	    woose	
[00:00:39]: Mod: workshop-2010472942 (Reign of Runts)	  Registering prefab file: prefabs/wragonfly	
[00:00:39]: Mod: workshop-2010472942 (Reign of Runts)	    wragonfly	
[00:00:39]: Mod: workshop-2010472942 (Reign of Runts)	  Registering prefab file: prefabs/lavae_wragonfly	
[00:00:39]: Mod: workshop-2010472942 (Reign of Runts)	    lavae_wragonfly	
[00:00:39]: Mod: workshop-2010472942 (Reign of Runts)	  Registering prefab file: prefabs/weerclops_none	
[00:00:39]: Mod: workshop-2010472942 (Reign of Runts)	    weerclops_none	
[00:00:39]: Mod: workshop-2010472942 (Reign of Runts)	    weerclops_ice	
[00:00:39]: Mod: workshop-2010472942 (Reign of Runts)	    weerclops_rose	
[00:00:39]: Mod: workshop-2010472942 (Reign of Runts)	    weerclops_magma	
[00:00:39]: Mod: workshop-2010472942 (Reign of Runts)	  Registering prefab file: prefabs/wearger_none	
[00:00:39]: Mod: workshop-2010472942 (Reign of Runts)	    wearger_none	
[00:00:39]: Mod: workshop-2010472942 (Reign of Runts)	    wearger_ice	
[00:00:39]: Mod: workshop-2010472942 (Reign of Runts)	    wearger_survivor	
[00:00:39]: Mod: workshop-2010472942 (Reign of Runts)	    wearger_teddy	
[00:00:39]: Mod: workshop-2010472942 (Reign of Runts)	  Registering prefab file: prefabs/woose_none	
[00:00:39]: Mod: workshop-2010472942 (Reign of Runts)	    woose_none	
[00:00:39]: Mod: workshop-2010472942 (Reign of Runts)	    woose_ice	
[00:00:39]: Mod: workshop-2010472942 (Reign of Runts)	    woose_young	
[00:00:39]: Mod: workshop-2010472942 (Reign of Runts)	    woose_victorian	
[00:00:39]: Mod: workshop-2010472942 (Reign of Runts)	  Registering prefab file: prefabs/nest_woose	
[00:00:39]: Mod: workshop-2010472942 (Reign of Runts)	    nest_woose	
[00:00:39]: Mod: workshop-2010472942 (Reign of Runts)	    nesting_woose	
[00:00:39]: Mod: workshop-2010472942 (Reign of Runts)	    woose_egg_fx	
[00:00:39]: Mod: workshop-2010472942 (Reign of Runts)	    nesting_woose_placer	
[00:00:39]: Mod: workshop-2010472942 (Reign of Runts)	  Registering prefab file: prefabs/nestbuff	
[00:00:39]: Mod: workshop-2010472942 (Reign of Runts)	    nestbuff	
[00:00:39]: Mod: workshop-2010472942 (Reign of Runts)	  Registering prefab file: prefabs/wragonfly_none	
[00:00:39]: Mod: workshop-2010472942 (Reign of Runts)	    wragonfly_none	
[00:00:39]: Mod: workshop-2010472942 (Reign of Runts)	    wragonfly_ice	
[00:00:39]: Mod: workshop-2010472942 (Reign of Runts)	    wragonfly_shadow	
[00:00:39]: Mod: workshop-2010472942 (Reign of Runts)	    wragonfly_haunted	
[00:00:39]: Mod: workshop-2010472942 (Reign of Runts)	  Registering default mod prefab	
[00:00:42]: Mod: workshop-375850593 (Extra Equip Slots)	Registering prefabs	
[00:00:42]: Mod: workshop-375850593 (Extra Equip Slots)	  Registering default mod prefab	
[00:00:42]: Mod: workshop-666155465 (Show Me (Origin))	Registering prefabs	
[00:00:42]: Mod: workshop-666155465 (Show Me (Origin))	  Registering default mod prefab	
[00:00:42]: Mod: workshop-374550642 (Increased Stack size)	Registering prefabs	
[00:00:42]: Mod: workshop-374550642 (Increased Stack size)	  Registering default mod prefab	
[00:00:42]: Mod: workshop-362175979 (Wormhole Marks)	Registering prefabs	
[00:00:42]: Mod: workshop-362175979 (Wormhole Marks)	  Registering default mod prefab	
[00:00:42]: Mod: workshop-1651623054 (Simple Health Bar DST)	Registering prefabs	
[00:00:42]: Mod: workshop-1651623054 (Simple Health Bar DST)	  Registering prefab file: prefabs/dychealthbar	
[00:00:42]: Mod: workshop-1651623054 (Simple Health Bar DST)	    dyc_damagedisplay	
[00:00:42]: Mod: workshop-1651623054 (Simple Health Bar DST)	    dyc_healthbarchild	
[00:00:42]: Mod: workshop-1651623054 (Simple Health Bar DST)	    dyc_healthbar	
[00:00:42]: Mod: workshop-1651623054 (Simple Health Bar DST)	  Registering default mod prefab	
[00:00:42]: Mod: workshop-501385076 (Quick Pick)	Registering prefabs	
[00:00:42]: Mod: workshop-501385076 (Quick Pick)	  Registering default mod prefab	
[00:00:42]: Mod: workshop-1682381560 (Level Up System)	Registering prefabs	
[00:00:42]: Mod: workshop-1682381560 (Level Up System)	  Registering default mod prefab	
[00:00:42]: Mod: workshop-816057392 (Combined Status)	Registering prefabs	
[00:00:42]: Mod: workshop-816057392 (Combined Status)	  Registering default mod prefab	
[00:00:42]: Mod: workshop-1458450094 (Auto Trap Reset)	Registering prefabs	
[00:00:42]: Mod: workshop-1458450094 (Auto Trap Reset)	  Registering default mod prefab	
[00:00:42]: Mod: workshop-378160973 (Global Positions)	Registering prefabs	
[00:00:42]: Mod: workshop-378160973 (Global Positions)	  Registering prefab file: prefabs/globalposition_classified	
[00:00:42]: Mod: workshop-378160973 (Global Positions)	    globalposition_classified	
[00:00:42]: Mod: workshop-378160973 (Global Positions)	  Registering prefab file: prefabs/smoketrail	
[00:00:42]: Mod: workshop-378160973 (Global Positions)	    smoketrail	
[00:00:42]: Mod: workshop-378160973 (Global Positions)	  Registering prefab file: prefabs/globalmapicon_noproxy	
[00:00:42]: Mod: workshop-378160973 (Global Positions)	    globalmapicon_noproxy	
[00:00:42]: Mod: workshop-378160973 (Global Positions)	  Registering prefab file: prefabs/worldmapexplorer	
[00:00:42]: Mod: workshop-378160973 (Global Positions)	    worldmapexplorer	
[00:00:42]: Mod: workshop-378160973 (Global Positions)	  Registering prefab file: prefabs/pings	
[00:00:42]: Mod: workshop-378160973 (Global Positions)	    ping_generic	
[00:00:42]: Mod: workshop-378160973 (Global Positions)	    ping_omw	
[00:00:42]: Mod: workshop-378160973 (Global Positions)	    ping_danger	
[00:00:42]: Mod: workshop-378160973 (Global Positions)	    ping_explore	
[00:00:42]: Mod: workshop-378160973 (Global Positions)	    ping_gohere	
[00:00:42]: Mod: workshop-378160973 (Global Positions)	  Registering default mod prefab	
[00:00:42]: Mod: workshop-1595631294 (Smart Minisign)	Registering prefabs	
[00:00:42]: Mod: workshop-1595631294 (Smart Minisign)	  Registering default mod prefab	
[00:00:43]: 	LOAD BE	
[00:01:08]: 	LOAD BE: done	
[00:01:08]: Begin Session: 2139020B54A00472
[00:01:08]: saving to server_temp/server_save	
[00:01:09]: MiniMapComponent::AddAtlas( minimap/minimap_data.xml )
[00:01:09]: MiniMapComponent::AddAtlas( ../mods/workshop-2010472942/images/map_icons/weerclops.xml )
[00:01:09]: MiniMapComponent::AddAtlas( ../mods/workshop-2010472942/images/map_icons/wearger.xml )
[00:01:09]: MiniMapComponent::AddAtlas( ../mods/workshop-2010472942/images/map_icons/nest_woose.xml )
[00:01:09]: MiniMapComponent::AddAtlas( ../mods/workshop-2010472942/images/map_icons/woose.xml )
[00:01:09]: MiniMapComponent::AddAtlas( ../mods/workshop-2010472942/images/map_icons/wragonfly.xml )
[00:01:09]: MiniMapComponent::AddAtlas( ../mods/workshop-362175979/images/mark_1.xml )
[00:01:09]: MiniMapComponent::AddAtlas( ../mods/workshop-362175979/images/mark_2.xml )
[00:01:09]: MiniMapComponent::AddAtlas( ../mods/workshop-362175979/images/mark_3.xml )
[00:01:09]: MiniMapComponent::AddAtlas( ../mods/workshop-362175979/images/mark_4.xml )
[00:01:09]: MiniMapComponent::AddAtlas( ../mods/workshop-362175979/images/mark_5.xml )
[00:01:09]: MiniMapComponent::AddAtlas( ../mods/workshop-362175979/images/mark_6.xml )
[00:01:09]: MiniMapComponent::AddAtlas( ../mods/workshop-362175979/images/mark_7.xml )
[00:01:09]: MiniMapComponent::AddAtlas( ../mods/workshop-362175979/images/mark_8.xml )
[00:01:09]: MiniMapComponent::AddAtlas( ../mods/workshop-362175979/images/mark_9.xml )
[00:01:09]: MiniMapComponent::AddAtlas( ../mods/workshop-362175979/images/mark_10.xml )
[00:01:09]: MiniMapComponent::AddAtlas( ../mods/workshop-362175979/images/mark_11.xml )
[00:01:09]: MiniMapComponent::AddAtlas( ../mods/workshop-362175979/images/mark_12.xml )
[00:01:09]: MiniMapComponent::AddAtlas( ../mods/workshop-362175979/images/mark_13.xml )
[00:01:09]: MiniMapComponent::AddAtlas( ../mods/workshop-362175979/images/mark_14.xml )
[00:01:09]: MiniMapComponent::AddAtlas( ../mods/workshop-362175979/images/mark_15.xml )
[00:01:09]: MiniMapComponent::AddAtlas( ../mods/workshop-362175979/images/mark_16.xml )
[00:01:09]: MiniMapComponent::AddAtlas( ../mods/workshop-362175979/images/mark_17.xml )
[00:01:09]: MiniMapComponent::AddAtlas( ../mods/workshop-362175979/images/mark_18.xml )
[00:01:09]: MiniMapComponent::AddAtlas( ../mods/workshop-362175979/images/mark_19.xml )
[00:01:09]: MiniMapComponent::AddAtlas( ../mods/workshop-362175979/images/mark_20.xml )
[00:01:09]: MiniMapComponent::AddAtlas( ../mods/workshop-362175979/images/mark_21.xml )
[00:01:09]: MiniMapComponent::AddAtlas( ../mods/workshop-362175979/images/mark_22.xml )
[00:01:09]: MiniMapComponent::AddAtlas( ../mods/workshop-378160973/minimap/campfire.xml )
[00:01:09]: MiniMapComponent::AddAtlas( ../mods/workshop-378160973/minimap/ping_generic.xml )
[00:01:09]: MiniMapComponent::AddAtlas( ../mods/workshop-378160973/minimap/ping_gohere.xml )
[00:01:09]: MiniMapComponent::AddAtlas( ../mods/workshop-378160973/minimap/ping_explore.xml )
[00:01:09]: MiniMapComponent::AddAtlas( ../mods/workshop-378160973/minimap/ping_danger.xml )
[00:01:09]: MiniMapComponent::AddAtlas( ../mods/workshop-378160973/minimap/ping_omw.xml )
[00:01:09]: Loading 22 new character(s)	
[00:01:11]: Total 22 character(s) loaded	
[00:01:12]: Loading Nav Grid	
[00:01:12]: World generated on build 487848 with save version: 5.09, using seed: 1639521072	
[00:01:12]: setting 	summerlength	15	
[00:01:12]: setting 	cavemoonphase	threequarter	
[00:01:12]: setting 	iscavefullmoon	false	
[00:01:12]: setting 	isnightmaredawn	false	
[00:01:12]: setting 	elapseddaysinseason	12	
[00:01:12]: setting 	isfullmoon	false	
[00:01:12]: setting 	moisture	2762.7529296875	
[00:01:12]: setting 	cavephase	day	
[00:01:12]: setting 	iscavewaxingmoon	true	
[00:01:12]: setting 	isnightmarewild	false	
[00:01:12]: setting 	nightmaretimeinphase	0	
[00:01:12]: setting 	precipitationrate	0	
[00:01:12]: setting 	iswet	false	
[00:01:12]: setting 	isnewmoon	false	
[00:01:12]: setting 	precipitation	none	
[00:01:12]: setting 	israining	false	
[00:01:12]: setting 	isnightmarewarn	false	
[00:01:12]: setting 	iswinter	false	
[00:01:12]: setting 	season	spring	
[00:01:12]: setting 	remainingdaysinseason	8	
[00:01:12]: setting 	winterlength	15	
[00:01:12]: setting 	iscaveday	true	
[00:01:12]: setting 	moistureceil	4114.3095703125	
[00:01:12]: setting 	isday	true	
[00:01:12]: setting 	springlength	20	
[00:01:12]: setting 	wetness	0	
[00:01:12]: setting 	iscavedusk	false	
[00:01:12]: setting 	isalterawake	false	
[00:01:12]: setting 	isnightmarecalm	false	
[00:01:12]: setting 	isnight	false	
[00:01:12]: setting 	isdusk	false	
[00:01:12]: setting 	isspring	true	
[00:01:12]: setting 	isautumn	false	
[00:01:12]: setting 	issnowing	false	
[00:01:12]: setting 	iswaxingmoon	true	
[00:01:12]: setting 	phase	day	
[00:01:12]: setting 	snowlevel	0	
[00:01:12]: setting 	issnowcovered	false	
[00:01:12]: setting 	autumnlength	20	
[00:01:12]: setting 	pop	0.61754859886153	
[00:01:12]: setting 	nightmaretime	0	
[00:01:12]: setting 	seasonprogress	0.6	
[00:01:12]: setting 	moonphase	threequarter	
[00:01:12]: setting 	nightmarephase	none	
[00:01:12]: setting 	cycles	47	
[00:01:12]: setting 	timeinphase	0.48533686319987	
[00:01:12]: setting 	iscavenight	false	
[00:01:12]: setting 	iscavenewmoon	false	
[00:01:12]: setting 	issummer	false	
[00:01:12]: setting 	temperature	40.16785497987	
[00:01:12]: setting 	time	0.15166776974996	
[00:01:30]: Could not find anim [FROMNUM] in bank [eyeofterror]
[00:01:53]: Reconstructing topology	
[00:01:53]: 	...Sorting points	
[00:01:53]: 	...Sorting edges	
[00:01:53]: 	...Connecting nodes	
[00:01:53]: 	...Validating connections	
[00:01:53]: 	...Housekeeping	
[00:01:53]: 	...Done!	
[00:01:53]: 1 uploads added to server. From server_temp
[00:01:53]: About to start a shard with these settings:
[00:01:53]:   ShardName: [SHDMASTER]
[00:01:53]:   ShardID: 1
[00:01:53]:   ShardRole: MASTER
[00:01:53]:   MasterHost: (null)
[00:01:53]:   MasterBind: 127.0.0.1
[00:01:53]:   MasterPort: 10888
[00:01:53]: [Shard] Starting master server
[00:01:53]: [Warning] Could not confirm port 10888 is open in the firewall. 
[00:01:53]: [Shard] Shard server started on port: 10888
[00:01:53]: [IPC] Signal 'DST_Master_Ready' opened  #00000000000007AC
[00:01:53]: [IPC] Sending signal... #00000000000007AC
[00:01:53]: Telling Client our new session identifier: 2139020B54A00472
[00:01:53]: Check for write access: TRUE
[00:01:53]: Check for read access: TRUE
[00:01:53]: Available disk space for save files: 315379 MB
[00:01:53]: ModIndex: Load sequence finished successfully.	
[00:01:58]: Reset() returning
[00:01:58]: Registering master server in US lobby
[00:01:59]: Validating portal[10] <-> 507218932[10] (inactive)	
[00:02:00]: Validating portal[1] <-> 507218932[1] (inactive)	
[00:02:00]: Validating portal[6] <-> 507218932[6] (inactive)	
[00:02:00]: Validating portal[8] <-> 507218932[8] (inactive)	
[00:02:00]: Validating portal[2] <-> 507218932[2] (inactive)	
[00:02:00]: Validating portal[5] <-> 507218932[5] (inactive)	
[00:02:00]: Validating portal[7] <-> 507218932[7] (inactive)	
[00:02:00]: Validating portal[3] <-> 507218932[3] (inactive)	
[00:02:00]: Validating portal[4] <-> 507218932[4] (inactive)	
[00:02:00]: Validating portal[9] <-> 507218932[9] (inactive)	
[00:02:02]: Could not find anim build FROMNUM
[00:02:02]: Could not find anim build FROMNUM
[00:02:02]: Could not find anim build FROMNUM
[00:02:02]: Could not find anim build FROMNUM
[00:02:02]: Could not find anim build FROMNUM
[00:02:02]: Could not find anim build FROMNUM
[00:02:02]: Could not find anim build FROMNUM
[00:02:02]: Could not find anim build FROMNUM
[00:02:02]: Could not find anim build FROMNUM
[00:02:02]: Sim paused
[00:02:02]: [Shard] Secondary shar Caves(507218932) connected: [LAN] 127.0.0.1
[00:02:04]: [Shard] Secondary Caves(507218932) ready!
[00:02:04]: World 507218932 is now connected	
[00:02:04]: Validating portal[10] <-> 507218932[10] (disabled)	
[00:02:04]: Validating portal[1] <-> 507218932[1] (disabled)	
[00:02:04]: Validating portal[6] <-> 507218932[6] (disabled)	
[00:02:04]: Validating portal[8] <-> 507218932[8] (disabled)	
[00:02:04]: Validating portal[2] <-> 507218932[2] (disabled)	
[00:02:04]: Validating portal[5] <-> 507218932[5] (disabled)	
[00:02:04]: Validating portal[7] <-> 507218932[7] (disabled)	
[00:02:04]: Validating portal[3] <-> 507218932[3] (disabled)	
[00:02:04]: Validating portal[4] <-> 507218932[4] (disabled)	
[00:02:04]: Validating portal[9] <-> 507218932[9] (disabled)	
[00:02:06]: New incoming connection 127.0.0.1|57770 <8516998091867458963>
[00:02:06]: Client connected from [LAN] 127.0.0.1|57770 <8516998091867458963>
[00:02:06]: ValidateGameSessionToken pgs-usc^KU_voGjEULK^DontStarveTogether^PDrK3TWajyx9vClFeaMe6o631CGy7MZIdrAC624t5oE= for <8516998091867458963>
[00:02:07]: Client authenticated: (KU_voGjEULK) Thi
[00:02:07]: [Steam] Authenticated host '76561199226859472'
[00:02:08]: Registering master server in US lobby
[00:02:08]: There is no active event to validate against.
[00:02:08]: [Shard] Read save location file for (KU_voGjEULK)
[00:02:18]: Registering master server in US lobby
[00:02:27]: Resuming user: session/2139020B54A00472/A7N74GMJJPAK/0000000056
[00:02:28]: Spawning player at: [Load] (6.29, -0.00, 25.67)	
[00:02:28]: Sim unpaused
[00:02:28]: Registering master server in US lobby
[00:04:39]: Server Autopaused	
[00:04:46]: Server Unpaused	
[00:04:47]: [Steam] SendUserDisconnect for '76561199226859472'
[00:04:47]: [Shard] (KU_voGjEULK) disconnected from [SHDMASTER](1)
[00:04:47]: Registering master server in US lobby
[00:04:47]: [IPC] Received shutdown signal.
[00:04:48]: Available disk space for save files: 315378 MB
[00:04:48]: Serializing user: session/2139020B54A00472/A7N74GMJJPAK/0000000057
[00:04:48]: Serializing world: session/2139020B54A00472/0000000057
[00:04:48]: Truncating to snapshot #57...
[00:04:48]:  - session/2139020B54A00472/0000000051
[00:04:48]:  - session/2139020B54A00472/A7ILL29CBGFH/0000000051
[00:04:49]:  - session/2139020B54A00472/A7ILL29CCEAB/0000000051
[00:04:49]:  - session/2139020B54A00472/A7KDAAFIPB34/0000000051
[00:04:49]:  - session/2139020B54A00472/A7N74GMJJPAK/0000000051
[00:04:49]:    5 file(s) removed
[00:04:49]: Removing server from US lobby
[00:04:49]: [Shard] Stopping shard mode
[00:04:49]: [Steam] SendUserDisconnect for ''
[00:04:49]: Collecting garbage...
[00:04:50]: lua_gc took 0.35 seconds
[00:04:50]: ~ShardLuaProxy()
[00:04:50]: ~cEventLeaderboardProxy()
[00:04:50]: ~ItemServerLuaProxy()
[00:04:50]: ~InventoryLuaProxy()
[00:04:50]: ~NetworkLuaProxy()
[00:04:50]: ~SimLuaProxy()
[00:04:50]: Cancelling LuaQueryCallback handle [5]
[00:04:50]: lua_close took 0.55 seconds
[00:04:50]: Orphaned unnamed resource. This resource must have used Add( resource ) to insert itself into the manager. 
[00:04:51]: CurlRequestManager::ClientThread::Main() complete
[00:04:51]: HttpClient2 discarded 0 callbacks.
[00:04:53]: Shutting down
