[00:00:01]: 
System Memory:
	Memory Load: 63%
	Available Physical Memory: 2936m/8060m
	Available Page File: 23623m/33060m
	Available Virtual Memory: 134213490m/134217727m
	Available Extended Virtual Memory: 0m
[00:00:01]: 
Process Memory:
	Peak Working Set Size: 29m
	Working Set Size: 29m
	Quota Peak Page Pool Usage: 206k
	Quota Page Pool Usage: 202k
	Quota Peak Non Paged Pool Usage:14k
	Quota Non Paged Pool Usage: 13k
	Page File Usage: 5m
	Peak Page File Usage: 5m
[00:00:01]: PersistRootStorage is now APP:Klei//DoNotStarveTogether/1266593744/Cluster_2/Master/ 
[00:00:01]: Starting Up
[00:00:01]: Version: 490564
[00:00:01]: Current time: Thu Dec 16 20:41:59 2021

[00:00:01]: Don't Starve Together: 490564 WIN32
[00:00:01]: Build Date: 555
[00:00:01]: Mode: 64-bit
[00:00:01]: Parsing command line
[00:00:01]: Command Line Arguments: -monitor_parent_process 11268 -persistent_storage_root APP:Klei/ -conf_dir DoNotStarveTogether -cluster Cluster_2 -ownernetid 76561199226859472 -ownerdir 1266593744 -backup_log_count 25 -backup_log_period 0 -ugc_directory C:\\Program Files (x86)\\Steam\\steamapps\\workshop -shard Master -sigprefix DST_Master -region US -token *********************************************************************************** 
[00:00:01]: Initializing distribution platform
[00:00:01]: Initializing Minidump handler
[00:00:01]: ....Done
[00:00:01]: ....Done
[00:00:01]: Fixing DPI
[00:00:01]: ...Done
[00:00:01]: Mounting file system databundles/klump.zip successful.
[00:00:01]: THREAD - started 'GAClient' (11756)
[00:00:01]: CurlRequestManager::ClientThread::Main()
[00:00:01]: Mounting file system databundles/shaders.zip successful.
[00:00:01]: Mounting file system databundles/fonts.zip successful.
[00:00:01]: Mounting file system databundles/anim_dynamic.zip successful.
[00:00:01]: Mounting file system databundles/bigportraits.zip successful.
[00:00:01]: Mounting file system databundles/images.zip successful.
[00:00:01]: Mounting file system databundles/scripts.zip successful.
[00:00:01]: [Steam] SteamGameServer_Init(10999, 27016)
[00:00:02]: [Steam] SteamGameServer_Init success
[00:00:02]: ProfileIndex:4.06
[00:00:02]: [Connect] PendingConnection::Reset(true)
[00:00:02]: Platform: 1
[00:00:02]: Network tick rate: U=15(2), D=0
[00:00:02]: THREAD - started 'Ping Job Thread' (9128)
[00:00:02]: Network tick rate: U=15(2), D=0
[00:00:02]: Authorized application C:\Program Files (x86)\Steam\steamapps\common\Don't Starve Together\bin64\dontstarve_dedicated_server_nullrenderer_x64.exe is enabled in the firewall.
[00:00:02]: WindowsFirewall - Application already authorized
[00:00:02]: Overriding region to US
[00:00:02]: THREAD - started 'StreamInput' (11128)
[00:00:02]: OnLoadPermissionList: APP:Klei//DoNotStarveTogether/1266593744/client_save/blocklist.txt (Failure)
[00:00:02]: OnLoadPermissionList: APP:Klei//DoNotStarveTogether/1266593744/client_save/adminlist.txt (Failure)
[00:00:02]: OnLoadUserIdList: APP:Klei//DoNotStarveTogether/1266593744/client_save/whitelist.txt (Failure)
[00:00:02]: Offline user ID: OU_76561199226859472
[00:00:02]: HardwareStats:
  OS                        
    name                      Microsoft Windows 10 Home Single Language
    version                   10.0.19043
    platformSpecific          SP 0.0
    architecture              64 bits
  CPU                       
    clockSpeed                2501
    name                      Intel(R) Core(TM) i5-7300HQ CPU @ 2.50GHz
    manufacturer              GenuineIntel
    numCores                  4
    features                  SSE,SSE2,SSE3,SSSE3,SSE41,SSE42,AVX
  RAM                       
    megsOfRam                 8192
  GPU                       
    megsOfRam                 1024
    videoModeDescription      1920 x 1080 x 4294967296 cores
    name                      Intel(R) HD Graphics 630
    driverVersion             25.20.100.6446
    driverDate                20181119000000.000000-000
    refreshRate               60

[00:00:02]: cGame::InitializeOnMainThread
[00:00:02]: Renderer initialize: Okay
[00:00:02]: AnimManager initialize: Okay
[00:00:02]: Buffers initialize: Okay
[00:00:02]: cDontStarveGame::DoGameSpecificInitialize()
[00:00:02]: GameSpecific initialize: Okay
[00:00:02]: cGame::StartPlaying
[00:00:02]: AppVersion::GetArchitecture() x64
[00:00:02]: LOADING LUA
[00:00:02]: DoLuaFile scripts/main.lua
[00:00:02]: DoLuaFile loading buffer scripts/main.lua
[00:00:03]:   taskgrouplist:	default	Together	
[00:00:03]:   taskgrouplist:	classic	Classic	
[00:00:03]:   taskgrouplist:	cave_default	Underground	
[00:00:03]:   taskgrouplist:	lavaarena_taskset	The Forge	
[00:00:03]:   taskgrouplist:	quagmire_taskset	The Gorge	
[00:00:03]: running main.lua
	
[00:00:03]: loaded modindex	
[00:00:03]: ModIndex: Beginning normal load sequence for dedicated server.
	
[00:00:03]: SUCCESS: Loaded modoverrides.lua	
[00:00:03]: modoverrides.lua enabling workshop-374550642	
[00:00:03]: modoverrides.lua enabling workshop-816057392	
[00:00:03]: modoverrides.lua enabling workshop-378160973	
[00:00:03]: modoverrides.lua enabling workshop-1682381560	
[00:00:03]: modoverrides.lua enabling workshop-375850593	
[00:00:03]: modoverrides.lua enabling workshop-666155465	
[00:00:03]: modoverrides.lua enabling workshop-1185229307	
[00:00:03]: modoverrides.lua enabling workshop-2010472942	
[00:00:03]: modoverrides.lua enabling workshop-362175979	
[00:00:03]: modoverrides.lua enabling workshop-501385076	
[00:00:03]: modoverrides.lua enabling workshop-1651623054	
[00:00:03]: modoverrides.lua enabling workshop-1458450094	
[00:00:03]: modoverrides.lua enabling workshop-1595631294	
[00:00:03]: ModIndex:GetModsToLoad inserting moddir, 	workshop-1458450094	
[00:00:03]: ModIndex:GetModsToLoad inserting moddir, 	workshop-1595631294	
[00:00:03]: ModIndex:GetModsToLoad inserting moddir, 	workshop-1651623054	
[00:00:03]: ModIndex:GetModsToLoad inserting moddir, 	workshop-1682381560	
[00:00:03]: ModIndex:GetModsToLoad inserting moddir, 	workshop-362175979	
[00:00:03]: ModIndex:GetModsToLoad inserting moddir, 	workshop-374550642	
[00:00:03]: ModIndex:GetModsToLoad inserting moddir, 	workshop-375850593	
[00:00:03]: ModIndex:GetModsToLoad inserting moddir, 	workshop-378160973	
[00:00:03]: ModIndex:GetModsToLoad inserting moddir, 	workshop-501385076	
[00:00:03]: ModIndex:GetModsToLoad inserting moddir, 	workshop-816057392	
[00:00:03]: ModIndex:GetModsToLoad inserting forcedmoddir, 	workshop-1185229307	
[00:00:03]: ModIndex:GetModsToLoad inserting forcedmoddir, 	workshop-2010472942	
[00:00:03]: ModIndex:GetModsToLoad inserting forcedmoddir, 	workshop-666155465	
[00:00:03]: Could not load mod_config_data/modconfiguration_workshop-1458450094_CLIENT	
[00:00:03]: Loading mod: workshop-1458450094 (Auto Trap Reset) Version:2.1	
[00:00:03]: Could not load mod_config_data/modconfiguration_workshop-1595631294_CLIENT	
[00:00:03]: Loading mod: workshop-1595631294 (Smart Minisign) Version:1.1.5	
[00:00:03]: Could not load mod_config_data/modconfiguration_workshop-1651623054_CLIENT	
[00:00:03]: Loading mod: workshop-1651623054 (Simple Health Bar DST) Version:1.06 (Old API! (mod: 6 game: 10) )	
[00:00:03]: Could not load mod_config_data/modconfiguration_workshop-1682381560_CLIENT	
[00:00:03]: Loading mod: workshop-1682381560 (Level Up System) Version:1.1	
[00:00:03]: Could not load mod_config_data/modconfiguration_workshop-362175979_CLIENT	
[00:00:03]: Loading mod: workshop-362175979 (Wormhole Marks) Version:1.4.5	
[00:00:03]: Could not load mod_config_data/modconfiguration_workshop-374550642_CLIENT	
[00:00:03]: Loading mod: workshop-374550642 (Increased Stack size) Version:1.62	
[00:00:03]: Could not load mod_config_data/modconfiguration_workshop-375850593_CLIENT	
[00:00:03]: Loading mod: workshop-375850593 (Extra Equip Slots) Version:1.8.0	
[00:00:03]: Could not load mod_config_data/modconfiguration_workshop-378160973_CLIENT	
[00:00:03]: Loading mod: workshop-378160973 (Global Positions) Version:1.7.3	
[00:00:03]: Could not load mod_config_data/modconfiguration_workshop-501385076_CLIENT	
[00:00:03]: Loading mod: workshop-501385076 (Quick Pick) Version:1.4.0	
[00:00:03]: Could not load mod_config_data/modconfiguration_workshop-816057392_CLIENT	
[00:00:03]: Loading mod: workshop-816057392 (Combined Status) Version:1.7.5	
[00:00:03]: Could not load mod_config_data/modconfiguration_workshop-1185229307_CLIENT	
[00:00:03]: Loading mod: workshop-1185229307 (Epic Healthbar) Version:9.2	
[00:00:03]: Could not load mod_config_data/modconfiguration_workshop-2010472942_CLIENT	
[00:00:03]: Loading mod: workshop-2010472942 (Reign of Runts) Version:2.2	
[00:00:03]: Could not load mod_config_data/modconfiguration_workshop-666155465_CLIENT	
[00:00:03]: Loading mod: workshop-666155465 (Show Me (Origin)) Version:0.57	
[00:00:03]: applying configuration_options from modoverrides.lua to mod workshop-374550642	
[00:00:03]: Overriding mod workshop-374550642's option MAXSTACKSIZE with value 99	
[00:00:03]: applying configuration_options from modoverrides.lua to mod workshop-816057392	
[00:00:03]: Overriding mod workshop-816057392's option SHOWTEMPBADGES with value true	
[00:00:03]: Overriding mod workshop-816057392's option SHOWBEAVERNESS with value true	
[00:00:03]: Overriding mod workshop-816057392's option UNIT with value T	
[00:00:03]: Overriding mod workshop-816057392's option SHOWWORLDTEMP with value false	
[00:00:03]: Overriding mod workshop-816057392's option SHOWMOON with value 1	
[00:00:03]: Overriding mod workshop-816057392's option SHOWWANINGMOON with value true	
[00:00:03]: Overriding mod workshop-816057392's option FLIPMOON with value false	
[00:00:03]: Overriding mod workshop-816057392's option SEASONOPTIONS with value Clock	
[00:00:03]: Overriding mod workshop-816057392's option SHOWSTATNUMBERS with value true	
[00:00:03]: Overriding mod workshop-816057392's option HUDSCALEFACTOR with value 100	
[00:00:03]: Overriding mod workshop-816057392's option SHOWCLOCKTEXT with value true	
[00:00:03]: Overriding mod workshop-816057392's option HIDECAVECLOCK with value false	
[00:00:03]: Overriding mod workshop-816057392's option SHOWTEMPERATURE with value true	
[00:00:03]: Overriding mod workshop-816057392's option SHOWNEXTFULLMOON with value true	
[00:00:03]: Overriding mod workshop-816057392's option SHOWNAUGHTINESS with value true	
[00:00:03]: Overriding mod workshop-816057392's option SHOWMAXONNUMBERS with value true	
[00:00:03]: applying configuration_options from modoverrides.lua to mod workshop-378160973	
[00:00:03]: Overriding mod workshop-378160973's option FIREOPTIONS with value 2	
[00:00:03]: Overriding mod workshop-378160973's option SHOWFIREICONS with value true	
[00:00:03]: Overriding mod workshop-378160973's option SHAREMINIMAPPROGRESS with value true	
[00:00:03]: Overriding mod workshop-378160973's option SHOWPLAYERICONS with value true	
[00:00:03]: Overriding mod workshop-378160973's option OVERRIDEMODE with value false	
[00:00:03]: Overriding mod workshop-378160973's option SHOWPLAYERSOPTIONS with value 2	
[00:00:03]: Overriding mod workshop-378160973's option ENABLEPINGS with value true	
[00:00:03]: applying configuration_options from modoverrides.lua to mod workshop-1682381560	
[00:00:03]: Overriding mod workshop-1682381560's option EXP_PERCENT with value 1	
[00:00:03]: Overriding mod workshop-1682381560's option SHOWINFO with value 118	
[00:00:03]: Overriding mod workshop-1682381560's option INITIAL_STATE with value 1	
[00:00:03]: applying configuration_options from modoverrides.lua to mod workshop-375850593	
[00:00:03]: applying configuration_options from modoverrides.lua to mod workshop-666155465	
[00:00:03]: Overriding mod workshop-666155465's option chestR with value -1	
[00:00:03]: Overriding mod workshop-666155465's option food_style with value 0	
[00:00:03]: Overriding mod workshop-666155465's option display_hp with value -1	
[00:00:03]: Overriding mod workshop-666155465's option show_uses with value -1	
[00:00:03]: Overriding mod workshop-666155465's option show_food_units with value -1	
[00:00:03]: Overriding mod workshop-666155465's option lang with value auto	
[00:00:03]: Overriding mod workshop-666155465's option chestB with value -1	
[00:00:03]: Overriding mod workshop-666155465's option food_order with value 0	
[00:00:03]: Overriding mod workshop-666155465's option chestG with value -1	
[00:00:03]: Overriding mod workshop-666155465's option food_estimation with value -1	
[00:00:03]: applying configuration_options from modoverrides.lua to mod workshop-1185229307	
[00:00:03]: Overriding mod workshop-1185229307's option  with value 	
[00:00:03]: Overriding mod workshop-1185229307's option  with value 	
[00:00:03]: Overriding mod workshop-1185229307's option WETNESS_METER with value false	
[00:00:03]: Overriding mod workshop-1185229307's option NOEPIC with value false	
[00:00:03]: Overriding mod workshop-1185229307's option FRAME_PHASES with value true	
[00:00:03]: Overriding mod workshop-1185229307's option DAMAGE_NUMBERS with value true	
[00:00:03]: Overriding mod workshop-1185229307's option NONOEPIC with value false	
[00:00:03]: Overriding mod workshop-1185229307's option DAMAGE_RESISTANCE with value true	
[00:00:03]: Overriding mod workshop-1185229307's option HORIZONTAL_OFFSET with value 0	
[00:00:03]: applying configuration_options from modoverrides.lua to mod workshop-2010472942	
[00:00:03]: Overriding mod workshop-2010472942's option enable_groundpcancel with value true	
[00:00:03]: Overriding mod workshop-2010472942's option wfly_ashes with value 8	
[00:00:03]: Overriding mod workshop-2010472942's option enable_unintelligible with value false	
[00:00:03]: Overriding mod workshop-2010472942's option woose_spinhammer with value false	
[00:00:03]: Overriding mod workshop-2010472942's option wearg_hungerd with value 1.2	
[00:00:03]: Overriding mod workshop-2010472942's option enable_monstertag with value false	
[00:00:03]: Overriding mod workshop-2010472942's option weer_sanitydrainstart with value 1.5	
[00:00:03]: Overriding mod workshop-2010472942's option wearger_gp_cd with value 5	
[00:00:03]: Overriding mod workshop-2010472942's option wfly_lavaedmg with value 50	
[00:00:03]: Overriding mod workshop-2010472942's option wfly_enraged_maxhp with value 70	
[00:00:03]: Overriding mod workshop-2010472942's option wfly_lavaemax with value 9	
[00:00:03]: Overriding mod workshop-2010472942's option woose_honkrange with value 5	
[00:00:03]: Overriding mod workshop-2010472942's option enable_nesting with value true	
[00:00:03]: Overriding mod workshop-2010472942's option wearg_gpdmg with value 25	
[00:00:03]: Overriding mod workshop-2010472942's option wfly_oheattemp with value 90	
[00:00:03]: Overriding mod workshop-2010472942's option weer_sanitybonus with value 5	
[00:00:03]: Overriding mod workshop-2010472942's option wfly_enraged_cd with value 30	
[00:00:03]: Overriding mod workshop-2010472942's option woose_aoedmg with value 3	
[00:00:03]: Overriding mod workshop-2010472942's option weer_freezekill with value 192	
[00:00:03]: Overriding mod workshop-2010472942's option woose_lightn with value 0	
[00:00:03]: Overriding mod workshop-2010472942's option wearger_yawn with value 0.2	
[00:00:03]: Overriding mod workshop-2010472942's option wearger_attackstyle with value 2	
[00:00:03]: Overriding mod workshop-2010472942's option wfly_enraged_fire with value false	
[00:00:03]: Overriding mod workshop-2010472942's option woose_wetness with value 1.6	
[00:00:03]: Overriding mod workshop-2010472942's option woose_wetdrain with value false	
[00:00:03]: Overriding mod workshop-2010472942's option enable_woose_speen with value true	
[00:00:03]: Overriding mod workshop-2010472942's option woose_iframes with value true	
[00:00:03]: Overriding mod workshop-2010472942's option woose_speen with value 10	
[00:00:03]: Overriding mod workshop-2010472942's option wearger_hibasorp with value 0.2	
[00:00:03]: Overriding mod workshop-2010472942's option woose_nesttime with value 7	
[00:00:03]: Overriding mod workshop-2010472942's option woose_nestbuff with value 0.25	
[00:00:03]: Overriding mod workshop-2010472942's option woose_drownmax with value 80	
[00:00:03]: Overriding mod workshop-2010472942's option wfly_enraged_timer with value 60	
[00:00:03]: Overriding mod workshop-2010472942's option wfly_summondmg with value 20	
[00:00:03]: Overriding mod workshop-2010472942's option weerclops_attackstyle with value 1	
[00:00:03]: Overriding mod workshop-2010472942's option wfly_fireimmune with value 0	
[00:00:03]: Overriding mod workshop-2010472942's option weer_hotkill with value 84	
[00:00:03]: Overriding mod workshop-2010472942's option wearger_gp_range with value 5	
[00:00:03]: Overriding mod workshop-2010472942's option wearg_honey with value 10	
[00:00:03]: applying configuration_options from modoverrides.lua to mod workshop-362175979	
[00:00:03]: Overriding mod workshop-362175979's option Draw over FoW with value disabled	
[00:00:03]: applying configuration_options from modoverrides.lua to mod workshop-501385076	
[00:00:03]: Overriding mod workshop-501385076's option quick_pick_cactus with value true	
[00:00:03]: Overriding mod workshop-501385076's option quick_pick_plant_normal_ground with value true	
[00:00:03]: Overriding mod workshop-501385076's option quick_cook_on_fire with value true	
[00:00:03]: Overriding mod workshop-501385076's option quick_harvest with value true	
[00:00:03]: applying configuration_options from modoverrides.lua to mod workshop-1651623054	
[00:00:03]: Overriding mod workshop-1651623054's option hbcolor with value dynamic	
[00:00:03]: Overriding mod workshop-1651623054's option hbstyle with value heart	
[00:00:03]: Overriding mod workshop-1651623054's option value with value true	
[00:00:03]: Overriding mod workshop-1651623054's option ddon with value true	
[00:00:03]: Overriding mod workshop-1651623054's option hbpos with value 1	
[00:00:03]: Overriding mod workshop-1651623054's option hblength with value 10	
[00:00:03]: applying configuration_options from modoverrides.lua to mod workshop-1458450094	
[00:00:03]: Overriding mod workshop-1458450094's option  with value 0	
[00:00:03]: Overriding mod workshop-1458450094's option  with value 0	
[00:00:03]: Overriding mod workshop-1458450094's option  with value 0	
[00:00:03]: Overriding mod workshop-1458450094's option  with value 0	
[00:00:03]: Overriding mod workshop-1458450094's option log with value false	
[00:00:03]: Overriding mod workshop-1458450094's option houndstooth with value false	
[00:00:03]: Overriding mod workshop-1458450094's option livinglog with value false	
[00:00:03]: Overriding mod workshop-1458450094's option stinger with value false	
[00:00:03]: Overriding mod workshop-1458450094's option rope with value false	
[00:00:03]: Overriding mod workshop-1458450094's option retraprandomy with value 120	
[00:00:03]: Overriding mod workshop-1458450094's option mode with value fix	
[00:00:03]: Overriding mod workshop-1458450094's option retraprandomx with value 10	
[00:00:03]: Overriding mod workshop-1458450094's option retrapfix with value 60	
[00:00:03]: applying configuration_options from modoverrides.lua to mod workshop-1595631294	
[00:00:03]: Overriding mod workshop-1595631294's option SaltBox with value false	
[00:00:03]: Overriding mod workshop-1595631294's option BundleItems with value false	
[00:00:03]: Overriding mod workshop-1595631294's option Digornot with value false	
[00:00:03]: Overriding mod workshop-1595631294's option ChangeSkin with value true	
[00:00:03]: Overriding mod workshop-1595631294's option Icebox with value false	
[00:00:03]: Overriding mod workshop-1595631294's option DragonflyChest with value false	
[00:00:03]: Mod: workshop-1185229307 (Epic Healthbar)	Loading modworldgenmain.lua	
[00:00:03]: Mod: workshop-1185229307 (Epic Healthbar)	  Mod had no modworldgenmain.lua. Skipping.	
[00:00:03]: Mod: workshop-1185229307 (Epic Healthbar)	Loading modmain.lua	
[00:00:03]: Mod: workshop-2010472942 (Reign of Runts)	Loading modworldgenmain.lua	
[00:00:03]: Mod: workshop-2010472942 (Reign of Runts)	  Mod had no modworldgenmain.lua. Skipping.	
[00:00:03]: Mod: workshop-2010472942 (Reign of Runts)	Loading modmain.lua	
[00:00:03]: modimport: ../mods/workshop-2010472942/scripts/strings.lua	
[00:00:03]: modimport: ../mods/workshop-2010472942/scripts/tools/skins_api	
[00:00:03]: Mod: workshop-375850593 (Extra Equip Slots)	Loading modworldgenmain.lua	
[00:00:03]: Mod: workshop-375850593 (Extra Equip Slots)	  Mod had no modworldgenmain.lua. Skipping.	
[00:00:03]: Mod: workshop-375850593 (Extra Equip Slots)	Loading modmain.lua	
[00:00:03]: Mod: workshop-666155465 (Show Me (Origin))	Loading modworldgenmain.lua	
[00:00:03]: Mod: workshop-666155465 (Show Me (Origin))	  Mod had no modworldgenmain.lua. Skipping.	
[00:00:03]: Mod: workshop-666155465 (Show Me (Origin))	Loading modmain.lua	
[00:00:04]: ShowMe version:	0.57	
[00:00:04]: show_food_units	-1	-1	-1	
[00:00:04]: show_uses	-1	-1	-1	
[00:00:04]: Detected language for ShowMe: 	auto		
[00:00:04]: Mod: workshop-374550642 (Increased Stack size)	Loading modworldgenmain.lua	
[00:00:04]: Mod: workshop-374550642 (Increased Stack size)	  Mod had no modworldgenmain.lua. Skipping.	
[00:00:04]: Mod: workshop-374550642 (Increased Stack size)	Loading modmain.lua	
[00:00:04]: Mod: workshop-362175979 (Wormhole Marks)	Loading modworldgenmain.lua	
[00:00:04]: Mod: workshop-362175979 (Wormhole Marks)	  Mod had no modworldgenmain.lua. Skipping.	
[00:00:04]: Mod: workshop-362175979 (Wormhole Marks)	Loading modmain.lua	
[00:00:04]: Mod: workshop-1651623054 (Simple Health Bar DST)	Loading modworldgenmain.lua	
[00:00:04]: Mod: workshop-1651623054 (Simple Health Bar DST)	  Mod had no modworldgenmain.lua. Skipping.	
[00:00:04]: Mod: workshop-1651623054 (Simple Health Bar DST)	Loading modmain.lua	
[00:00:04]: Mod: workshop-501385076 (Quick Pick)	Loading modworldgenmain.lua	
[00:00:04]: Mod: workshop-501385076 (Quick Pick)	  Mod had no modworldgenmain.lua. Skipping.	
[00:00:04]: Mod: workshop-501385076 (Quick Pick)	Loading modmain.lua	
[00:00:04]: Mod: workshop-1682381560 (Level Up System)	Loading modworldgenmain.lua	
[00:00:04]: Mod: workshop-1682381560 (Level Up System)	  Mod had no modworldgenmain.lua. Skipping.	
[00:00:04]: Mod: workshop-1682381560 (Level Up System)	Loading modmain.lua	
[00:00:04]: modimport: ../mods/workshop-1682381560/scripts/patches/wolfgangchanges.lua	
[00:00:04]: modimport: ../mods/workshop-1682381560/scripts/patches/wx78changes.lua	
[00:00:04]: modimport: ../mods/workshop-1682381560/scripts/patches/playerchanges.lua	
[00:00:04]: Mod: workshop-816057392 (Combined Status)	Loading modworldgenmain.lua	
[00:00:04]: Mod: workshop-816057392 (Combined Status)	  Mod had no modworldgenmain.lua. Skipping.	
[00:00:04]: Mod: workshop-816057392 (Combined Status)	Loading modmain.lua	
[00:00:04]: ModIndex:GetModsToLoad inserting moddir, 	workshop-1458450094	
[00:00:04]: ModIndex:GetModsToLoad inserting moddir, 	workshop-1595631294	
[00:00:04]: ModIndex:GetModsToLoad inserting moddir, 	workshop-1651623054	
[00:00:04]: ModIndex:GetModsToLoad inserting moddir, 	workshop-1682381560	
[00:00:04]: ModIndex:GetModsToLoad inserting moddir, 	workshop-362175979	
[00:00:04]: ModIndex:GetModsToLoad inserting moddir, 	workshop-374550642	
[00:00:04]: ModIndex:GetModsToLoad inserting moddir, 	workshop-375850593	
[00:00:04]: ModIndex:GetModsToLoad inserting moddir, 	workshop-378160973	
[00:00:04]: ModIndex:GetModsToLoad inserting moddir, 	workshop-501385076	
[00:00:04]: ModIndex:GetModsToLoad inserting moddir, 	workshop-816057392	
[00:00:04]: ModIndex:GetModsToLoad inserting forcedmoddir, 	workshop-1185229307	
[00:00:04]: ModIndex:GetModsToLoad inserting forcedmoddir, 	workshop-2010472942	
[00:00:04]: ModIndex:GetModsToLoad inserting forcedmoddir, 	workshop-666155465	
[00:00:04]: Mod: workshop-1458450094 (Auto Trap Reset)	Loading modworldgenmain.lua	
[00:00:04]: Mod: workshop-1458450094 (Auto Trap Reset)	  Mod had no modworldgenmain.lua. Skipping.	
[00:00:04]: Mod: workshop-1458450094 (Auto Trap Reset)	Loading modmain.lua	
[00:00:04]: Mod: workshop-378160973 (Global Positions)	Loading modworldgenmain.lua	
[00:00:04]: Mod: workshop-378160973 (Global Positions)	  Mod had no modworldgenmain.lua. Skipping.	
[00:00:04]: Mod: workshop-378160973 (Global Positions)	Loading modmain.lua	
[00:00:04]: ModIndex:GetModsToLoad inserting moddir, 	workshop-1458450094	
[00:00:04]: ModIndex:GetModsToLoad inserting moddir, 	workshop-1595631294	
[00:00:04]: ModIndex:GetModsToLoad inserting moddir, 	workshop-1651623054	
[00:00:04]: ModIndex:GetModsToLoad inserting moddir, 	workshop-1682381560	
[00:00:04]: ModIndex:GetModsToLoad inserting moddir, 	workshop-362175979	
[00:00:04]: ModIndex:GetModsToLoad inserting moddir, 	workshop-374550642	
[00:00:04]: ModIndex:GetModsToLoad inserting moddir, 	workshop-375850593	
[00:00:04]: ModIndex:GetModsToLoad inserting moddir, 	workshop-378160973	
[00:00:04]: ModIndex:GetModsToLoad inserting moddir, 	workshop-501385076	
[00:00:04]: ModIndex:GetModsToLoad inserting moddir, 	workshop-816057392	
[00:00:04]: ModIndex:GetModsToLoad inserting forcedmoddir, 	workshop-1185229307	
[00:00:04]: ModIndex:GetModsToLoad inserting forcedmoddir, 	workshop-2010472942	
[00:00:04]: ModIndex:GetModsToLoad inserting forcedmoddir, 	workshop-666155465	
[00:00:04]: Mod: workshop-1595631294 (Smart Minisign)	Loading modworldgenmain.lua	
[00:00:04]: Mod: workshop-1595631294 (Smart Minisign)	  Mod had no modworldgenmain.lua. Skipping.	
[00:00:04]: Mod: workshop-1595631294 (Smart Minisign)	Loading modmain.lua	
[00:00:04]: Event data unavailable: lavaarena_event_server/lavaarena_achievement_quest_defs
[00:00:06]: LOADING LUA SUCCESS
[00:00:06]: Registering Server mod namespace "workshop-2010472942"
[00:00:06]: Registering Server mod namespace "showme"
[00:00:06]: Registering Server mod namespace "showmeshint"
[00:00:06]: Registering Server mod namespace "workshop-378160973"
[00:00:06]: Registering Server mod namespace "modlevelupsystem"
[00:00:06]: PlayerDeaths could not load morgue	
[00:00:06]: PlayerHistory could not load player_history	
[00:00:06]: ServerPreferences could not load server_preferences	
[00:00:06]: bloom_enabled	true	
[00:00:06]: OnFilesLoaded()	
[00:00:06]: OnUpdatePurchaseStateComplete	
[00:00:06]: Klump load on boot started.	
[00:00:06]: Klump files loaded: 	0	
[00:00:10]: Mod: workshop-1185229307 (Epic Healthbar)	Registering prefabs	
[00:00:10]: Mod: workshop-1185229307 (Epic Healthbar)	  Registering prefab file: prefabs/epichealth_proxy	
[00:00:10]: Mod: workshop-1185229307 (Epic Healthbar)	    epichealth_proxy	
[00:00:10]: Mod: workshop-1185229307 (Epic Healthbar)	  Registering default mod prefab	
[00:00:10]: Mod: workshop-2010472942 (Reign of Runts)	Registering prefabs	
[00:00:10]: Mod: workshop-2010472942 (Reign of Runts)	  Registering prefab file: prefabs/weerclops	
[00:00:10]: Mod: workshop-2010472942 (Reign of Runts)	    weerclops	
[00:00:10]: Mod: workshop-2010472942 (Reign of Runts)	  Registering prefab file: prefabs/wearger	
[00:00:10]: Mod: workshop-2010472942 (Reign of Runts)	    wearger	
[00:00:10]: Mod: workshop-2010472942 (Reign of Runts)	  Registering prefab file: prefabs/woose	
[00:00:10]: Mod: workshop-2010472942 (Reign of Runts)	    woose	
[00:00:10]: Mod: workshop-2010472942 (Reign of Runts)	  Registering prefab file: prefabs/wragonfly	
[00:00:10]: Mod: workshop-2010472942 (Reign of Runts)	    wragonfly	
[00:00:10]: Mod: workshop-2010472942 (Reign of Runts)	  Registering prefab file: prefabs/lavae_wragonfly	
[00:00:10]: Mod: workshop-2010472942 (Reign of Runts)	    lavae_wragonfly	
[00:00:10]: Mod: workshop-2010472942 (Reign of Runts)	  Registering prefab file: prefabs/weerclops_none	
[00:00:10]: Mod: workshop-2010472942 (Reign of Runts)	    weerclops_none	
[00:00:10]: Mod: workshop-2010472942 (Reign of Runts)	    weerclops_ice	
[00:00:10]: Mod: workshop-2010472942 (Reign of Runts)	    weerclops_rose	
[00:00:10]: Mod: workshop-2010472942 (Reign of Runts)	    weerclops_magma	
[00:00:10]: Mod: workshop-2010472942 (Reign of Runts)	  Registering prefab file: prefabs/wearger_none	
[00:00:10]: Mod: workshop-2010472942 (Reign of Runts)	    wearger_none	
[00:00:10]: Mod: workshop-2010472942 (Reign of Runts)	    wearger_ice	
[00:00:10]: Mod: workshop-2010472942 (Reign of Runts)	    wearger_survivor	
[00:00:10]: Mod: workshop-2010472942 (Reign of Runts)	    wearger_teddy	
[00:00:10]: Mod: workshop-2010472942 (Reign of Runts)	  Registering prefab file: prefabs/woose_none	
[00:00:10]: Mod: workshop-2010472942 (Reign of Runts)	    woose_none	
[00:00:10]: Mod: workshop-2010472942 (Reign of Runts)	    woose_ice	
[00:00:10]: Mod: workshop-2010472942 (Reign of Runts)	    woose_young	
[00:00:10]: Mod: workshop-2010472942 (Reign of Runts)	    woose_victorian	
[00:00:10]: Mod: workshop-2010472942 (Reign of Runts)	  Registering prefab file: prefabs/nest_woose	
[00:00:10]: Mod: workshop-2010472942 (Reign of Runts)	    nest_woose	
[00:00:10]: Mod: workshop-2010472942 (Reign of Runts)	    nesting_woose	
[00:00:10]: Mod: workshop-2010472942 (Reign of Runts)	    woose_egg_fx	
[00:00:10]: Mod: workshop-2010472942 (Reign of Runts)	    nesting_woose_placer	
[00:00:10]: Mod: workshop-2010472942 (Reign of Runts)	  Registering prefab file: prefabs/nestbuff	
[00:00:10]: Mod: workshop-2010472942 (Reign of Runts)	    nestbuff	
[00:00:10]: Mod: workshop-2010472942 (Reign of Runts)	  Registering prefab file: prefabs/wragonfly_none	
[00:00:10]: Mod: workshop-2010472942 (Reign of Runts)	    wragonfly_none	
[00:00:10]: Mod: workshop-2010472942 (Reign of Runts)	    wragonfly_ice	
[00:00:10]: Mod: workshop-2010472942 (Reign of Runts)	    wragonfly_shadow	
[00:00:10]: Mod: workshop-2010472942 (Reign of Runts)	    wragonfly_haunted	
[00:00:10]: Mod: workshop-2010472942 (Reign of Runts)	  Registering default mod prefab	
[00:00:13]: Mod: workshop-375850593 (Extra Equip Slots)	Registering prefabs	
[00:00:13]: Mod: workshop-375850593 (Extra Equip Slots)	  Registering default mod prefab	
[00:00:13]: Mod: workshop-666155465 (Show Me (Origin))	Registering prefabs	
[00:00:13]: Mod: workshop-666155465 (Show Me (Origin))	  Registering default mod prefab	
[00:00:13]: Mod: workshop-374550642 (Increased Stack size)	Registering prefabs	
[00:00:13]: Mod: workshop-374550642 (Increased Stack size)	  Registering default mod prefab	
[00:00:13]: Mod: workshop-362175979 (Wormhole Marks)	Registering prefabs	
[00:00:13]: Mod: workshop-362175979 (Wormhole Marks)	  Registering default mod prefab	
[00:00:13]: Mod: workshop-1651623054 (Simple Health Bar DST)	Registering prefabs	
[00:00:13]: Mod: workshop-1651623054 (Simple Health Bar DST)	  Registering prefab file: prefabs/dychealthbar	
[00:00:13]: Mod: workshop-1651623054 (Simple Health Bar DST)	    dyc_damagedisplay	
[00:00:13]: Mod: workshop-1651623054 (Simple Health Bar DST)	    dyc_healthbarchild	
[00:00:13]: Mod: workshop-1651623054 (Simple Health Bar DST)	    dyc_healthbar	
[00:00:13]: Mod: workshop-1651623054 (Simple Health Bar DST)	  Registering default mod prefab	
[00:00:13]: Mod: workshop-501385076 (Quick Pick)	Registering prefabs	
[00:00:13]: Mod: workshop-501385076 (Quick Pick)	  Registering default mod prefab	
[00:00:13]: Mod: workshop-1682381560 (Level Up System)	Registering prefabs	
[00:00:13]: Mod: workshop-1682381560 (Level Up System)	  Registering default mod prefab	
[00:00:13]: Mod: workshop-816057392 (Combined Status)	Registering prefabs	
[00:00:13]: Mod: workshop-816057392 (Combined Status)	  Registering default mod prefab	
[00:00:13]: Mod: workshop-1458450094 (Auto Trap Reset)	Registering prefabs	
[00:00:13]: Mod: workshop-1458450094 (Auto Trap Reset)	  Registering default mod prefab	
[00:00:13]: Mod: workshop-378160973 (Global Positions)	Registering prefabs	
[00:00:13]: Mod: workshop-378160973 (Global Positions)	  Registering prefab file: prefabs/globalposition_classified	
[00:00:13]: Mod: workshop-378160973 (Global Positions)	    globalposition_classified	
[00:00:13]: Mod: workshop-378160973 (Global Positions)	  Registering prefab file: prefabs/smoketrail	
[00:00:13]: Mod: workshop-378160973 (Global Positions)	    smoketrail	
[00:00:13]: Mod: workshop-378160973 (Global Positions)	  Registering prefab file: prefabs/globalmapicon_noproxy	
[00:00:13]: Mod: workshop-378160973 (Global Positions)	    globalmapicon_noproxy	
[00:00:13]: Mod: workshop-378160973 (Global Positions)	  Registering prefab file: prefabs/worldmapexplorer	
[00:00:13]: Mod: workshop-378160973 (Global Positions)	    worldmapexplorer	
[00:00:13]: Mod: workshop-378160973 (Global Positions)	  Registering prefab file: prefabs/pings	
[00:00:13]: Mod: workshop-378160973 (Global Positions)	    ping_generic	
[00:00:13]: Mod: workshop-378160973 (Global Positions)	    ping_omw	
[00:00:13]: Mod: workshop-378160973 (Global Positions)	    ping_danger	
[00:00:13]: Mod: workshop-378160973 (Global Positions)	    ping_explore	
[00:00:13]: Mod: workshop-378160973 (Global Positions)	    ping_gohere	
[00:00:13]: Mod: workshop-378160973 (Global Positions)	  Registering default mod prefab	
[00:00:13]: Mod: workshop-1595631294 (Smart Minisign)	Registering prefabs	
[00:00:13]: Mod: workshop-1595631294 (Smart Minisign)	  Registering default mod prefab	
[00:00:13]: 	Load FE	
[00:00:14]: 	Load FE: done	
[00:00:14]: THREAD - started 'FilesExistAsyncThread' (13256)
[00:00:14]: FilesExistAsyncThread started (19097 files)...
[00:00:14]: Check for write access: TRUE
[00:00:14]: Check for read access: TRUE
[00:00:14]: Available disk space for save files: 315273 MB
[00:00:14]: ModIndex: Load sequence finished successfully.	
[00:00:14]: Reset() returning
[00:00:14]: [IPC] Signal 'DST_Master_Kill' opened  #000000000000071C
[00:00:14]: [IPC] Registering handler for signal #000000000000071C
[00:00:14]: [IPC] Handle #000000000000071C added to the Eventhandles
[00:00:14]: [IPC] Signal 'DST_Master_Starting' opened  #0000000000000564
[00:00:14]: [IPC] Sending signal... #0000000000000564
[00:00:15]: [200] Account Communication Success (6)
[00:00:15]: Received (KU_voGjEULK) from TokenPurpose
[00:00:15]: Starting Dedicated Server Game	
[00:00:15]: Network tick rate: U=15(2), D=0
[00:00:16]: About to start a server with the following settings:
[00:00:16]:   Dedicated: true
[00:00:16]:   Online: true
[00:00:16]:   Passworded: true
[00:00:16]:   ServerPort: 10999
[00:00:16]:   SteamAuthPort: 8766
[00:00:16]:   SteamMasterServerPort: 27016
[00:00:16]:   ClanID: false
[00:00:16]:   ClanOnly: false
[00:00:16]:   ClanAdmin: false
[00:00:16]:   LanOnly: false
[00:00:16]:   FriendsOnly: false
[00:00:16]:   EnableAutosaver: true
[00:00:16]:   EncodeUserPath: true
[00:00:16]:   PVP: false
[00:00:16]:   MaxPlayers: 6
[00:00:16]:   GameMode: endless
[00:00:16]:   OverridenDNS: 
[00:00:16]:   PauseWhenEmpty: true
[00:00:16]:   IdleTimeout: 1800s
[00:00:16]:   VoteEnabled: false
[00:00:16]:   InternetBroadcasting: true
[00:00:16]:   Intent: cooperative
[00:00:16]: [Warning] Could not confirm port 10999 is open in the firewall. 
[00:00:16]: Could not load mod_config_data/modconfiguration_workshop-374550642	
[00:00:16]: Could not load mod_config_data/modconfiguration_workshop-816057392	
[00:00:16]: Could not load mod_config_data/modconfiguration_workshop-1595631294	
[00:00:16]: Could not load mod_config_data/modconfiguration_workshop-378160973	
[00:00:16]: Could not load mod_config_data/modconfiguration_workshop-1682381560	
[00:00:16]: Could not load mod_config_data/modconfiguration_workshop-375850593	
[00:00:16]: Could not load mod_config_data/modconfiguration_workshop-666155465	
[00:00:16]: Could not load mod_config_data/modconfiguration_workshop-1185229307	
[00:00:16]: Could not load mod_config_data/modconfiguration_workshop-2010472942	
[00:00:16]: Could not load mod_config_data/modconfiguration_workshop-362175979	
[00:00:16]: Could not load mod_config_data/modconfiguration_workshop-1651623054	
[00:00:16]: Online Server Started on port: 10999
[00:00:16]: SUCCESS: Loaded modoverrides.lua	
[00:00:16]: Found a level data override file with these contents:	
[00:00:16]: 	K: 	desc	 V: 	The standard Don't Starve experience.	
[00:00:16]: 	K: 	hideminimap	 V: 	false	
[00:00:16]: 	K: 	id	 V: 	SURVIVAL_TOGETHER	
[00:00:16]: 	K: 	location	 V: 	forest	
[00:00:16]: 	K: 	max_playlist_position	 V: 	999	
[00:00:16]: 	K: 	min_playlist_position	 V: 	0	
[00:00:16]: 	K: 	name	 V: 	Standard Forest	
[00:00:16]: 	K: 	numrandom_set_pieces	 V: 	4	
[00:00:16]: 	K: 	override_level_string	 V: 	false	
[00:00:16]: 	K: 	overrides	 V: 	table: 000000000E243A60	
[00:00:16]: 		K: 	alternatehunt	 V: 	default	
[00:00:16]: 		K: 	angrybees	 V: 	default	
[00:00:16]: 		K: 	antliontribute	 V: 	default	
[00:00:16]: 		K: 	autumn	 V: 	default	
[00:00:16]: 		K: 	bats_setting	 V: 	default	
[00:00:16]: 		K: 	bearger	 V: 	default	
[00:00:16]: 		K: 	beefalo	 V: 	default	
[00:00:16]: 		K: 	beefaloheat	 V: 	default	
[00:00:16]: 		K: 	beequeen	 V: 	default	
[00:00:16]: 		K: 	bees	 V: 	default	
[00:00:16]: 		K: 	bees_setting	 V: 	default	
[00:00:16]: 		K: 	berrybush	 V: 	default	
[00:00:16]: 		K: 	birds	 V: 	default	
[00:00:16]: 		K: 	boons	 V: 	default	
[00:00:16]: 		K: 	branching	 V: 	default	
[00:00:16]: 		K: 	brightmarecreatures	 V: 	default	
[00:00:16]: 		K: 	bunnymen_setting	 V: 	default	
[00:00:16]: 		K: 	butterfly	 V: 	default	
[00:00:16]: 		K: 	buzzard	 V: 	default	
[00:00:16]: 		K: 	cactus	 V: 	default	
[00:00:16]: 		K: 	carrot	 V: 	default	
[00:00:16]: 		K: 	carrots_regrowth	 V: 	default	
[00:00:16]: 		K: 	catcoon	 V: 	default	
[00:00:16]: 		K: 	catcoons	 V: 	default	
[00:00:16]: 		K: 	chess	 V: 	default	
[00:00:16]: 		K: 	cookiecutters	 V: 	default	
[00:00:16]: 		K: 	crabking	 V: 	default	
[00:00:16]: 		K: 	day	 V: 	default	
[00:00:16]: 		K: 	deciduousmonster	 V: 	default	
[00:00:16]: 		K: 	deciduoustree_regrowth	 V: 	default	
[00:00:16]: 		K: 	deerclops	 V: 	default	
[00:00:16]: 		K: 	dragonfly	 V: 	default	
[00:00:16]: 		K: 	dropeverythingondespawn	 V: 	default	
[00:00:16]: 		K: 	evergreen_regrowth	 V: 	default	
[00:00:16]: 		K: 	extrastartingitems	 V: 	default	
[00:00:16]: 		K: 	eyeofterror	 V: 	default	
[00:00:16]: 		K: 	fishschools	 V: 	default	
[00:00:16]: 		K: 	flint	 V: 	default	
[00:00:16]: 		K: 	flowers	 V: 	default	
[00:00:16]: 		K: 	flowers_regrowth	 V: 	default	
[00:00:16]: 		K: 	frograin	 V: 	default	
[00:00:16]: 		K: 	frogs	 V: 	default	
[00:00:16]: 		K: 	fruitfly	 V: 	default	
[00:00:16]: 		K: 	gnarwail	 V: 	default	
[00:00:16]: 		K: 	goosemoose	 V: 	default	
[00:00:16]: 		K: 	grass	 V: 	default	
[00:00:16]: 		K: 	grassgekkos	 V: 	default	
[00:00:16]: 		K: 	has_ocean	 V: 	true	
[00:00:16]: 		K: 	hound_mounds	 V: 	default	
[00:00:16]: 		K: 	houndmound	 V: 	default	
[00:00:16]: 		K: 	hounds	 V: 	default	
[00:00:16]: 		K: 	hunt	 V: 	default	
[00:00:16]: 		K: 	keep_disconnected_tiles	 V: 	true	
[00:00:16]: 		K: 	klaus	 V: 	default	
[00:00:16]: 		K: 	krampus	 V: 	default	
[00:00:16]: 		K: 	layout_mode	 V: 	LinkNodesByKeys	
[00:00:16]: 		K: 	liefs	 V: 	default	
[00:00:16]: 		K: 	lightning	 V: 	default	
[00:00:16]: 		K: 	lightninggoat	 V: 	default	
[00:00:16]: 		K: 	loop	 V: 	default	
[00:00:16]: 		K: 	lureplants	 V: 	default	
[00:00:16]: 		K: 	malbatross	 V: 	default	
[00:00:16]: 		K: 	marshbush	 V: 	default	
[00:00:16]: 		K: 	merm	 V: 	default	
[00:00:16]: 		K: 	merms	 V: 	default	
[00:00:16]: 		K: 	meteorshowers	 V: 	default	
[00:00:16]: 		K: 	meteorspawner	 V: 	default	
[00:00:16]: 		K: 	moles	 V: 	default	
[00:00:16]: 		K: 	moles_setting	 V: 	default	
[00:00:16]: 		K: 	moon_berrybush	 V: 	default	
[00:00:16]: 		K: 	moon_bullkelp	 V: 	default	
[00:00:16]: 		K: 	moon_carrot	 V: 	default	
[00:00:16]: 		K: 	moon_fissure	 V: 	default	
[00:00:16]: 		K: 	moon_fruitdragon	 V: 	default	
[00:00:16]: 		K: 	moon_hotspring	 V: 	default	
[00:00:16]: 		K: 	moon_rock	 V: 	default	
[00:00:16]: 		K: 	moon_sapling	 V: 	default	
[00:00:16]: 		K: 	moon_spider	 V: 	default	
[00:00:16]: 		K: 	moon_spiders	 V: 	default	
[00:00:16]: 		K: 	moon_starfish	 V: 	default	
[00:00:16]: 		K: 	moon_tree	 V: 	default	
[00:00:16]: 		K: 	moon_tree_regrowth	 V: 	default	
[00:00:16]: 		K: 	mosquitos	 V: 	default	
[00:00:16]: 		K: 	mushroom	 V: 	default	
[00:00:16]: 		K: 	mutated_hounds	 V: 	default	
[00:00:16]: 		K: 	no_joining_islands	 V: 	true	
[00:00:16]: 		K: 	no_wormholes_to_disconnected_tiles	 V: 	true	
[00:00:16]: 		K: 	ocean_bullkelp	 V: 	default	
[00:00:16]: 		K: 	ocean_seastack	 V: 	ocean_default	
[00:00:16]: 		K: 	ocean_shoal	 V: 	default	
[00:00:16]: 		K: 	ocean_waterplant	 V: 	ocean_default	
[00:00:16]: 		K: 	ocean_wobsterden	 V: 	default	
[00:00:16]: 		K: 	penguins	 V: 	default	
[00:00:16]: 		K: 	penguins_moon	 V: 	default	
[00:00:16]: 		K: 	perd	 V: 	default	
[00:00:16]: 		K: 	petrification	 V: 	default	
[00:00:16]: 		K: 	pigs	 V: 	default	
[00:00:16]: 		K: 	pigs_setting	 V: 	default	
[00:00:16]: 		K: 	ponds	 V: 	default	
[00:00:16]: 		K: 	prefabswaps_start	 V: 	default	
[00:00:16]: 		K: 	rabbits	 V: 	default	
[00:00:16]: 		K: 	rabbits_setting	 V: 	default	
[00:00:16]: 		K: 	reeds	 V: 	default	
[00:00:16]: 		K: 	regrowth	 V: 	default	
[00:00:16]: 		K: 	roads	 V: 	default	
[00:00:16]: 		K: 	rock	 V: 	default	
[00:00:16]: 		K: 	rock_ice	 V: 	default	
[00:00:16]: 		K: 	saltstack_regrowth	 V: 	default	
[00:00:16]: 		K: 	sapling	 V: 	default	
[00:00:16]: 		K: 	season_start	 V: 	default	
[00:00:16]: 		K: 	seasonalstartingitems	 V: 	default	
[00:00:16]: 		K: 	shadowcreatures	 V: 	default	
[00:00:16]: 		K: 	sharks	 V: 	default	
[00:00:16]: 		K: 	spawnprotection	 V: 	default	
[00:00:16]: 		K: 	specialevent	 V: 	default	
[00:00:16]: 		K: 	spider_warriors	 V: 	default	
[00:00:16]: 		K: 	spiderqueen	 V: 	default	
[00:00:16]: 		K: 	spiders	 V: 	default	
[00:00:16]: 		K: 	spiders_setting	 V: 	default	
[00:00:16]: 		K: 	spring	 V: 	default	
[00:00:16]: 		K: 	squid	 V: 	default	
[00:00:16]: 		K: 	start_location	 V: 	default	
[00:00:16]: 		K: 	summer	 V: 	default	
[00:00:16]: 		K: 	tallbirds	 V: 	default	
[00:00:16]: 		K: 	task_set	 V: 	default	
[00:00:16]: 		K: 	tentacles	 V: 	default	
[00:00:16]: 		K: 	terrariumchest	 V: 	default	
[00:00:16]: 		K: 	touchstone	 V: 	default	
[00:00:16]: 		K: 	trees	 V: 	default	
[00:00:16]: 		K: 	tumbleweed	 V: 	default	
[00:00:16]: 		K: 	twiggytrees_regrowth	 V: 	default	
[00:00:16]: 		K: 	walrus	 V: 	default	
[00:00:16]: 		K: 	walrus_setting	 V: 	default	
[00:00:16]: 		K: 	wasps	 V: 	default	
[00:00:16]: 		K: 	weather	 V: 	default	
[00:00:16]: 		K: 	wildfires	 V: 	default	
[00:00:16]: 		K: 	winter	 V: 	default	
[00:00:16]: 		K: 	wobsters	 V: 	default	
[00:00:16]: 		K: 	world_size	 V: 	default	
[00:00:16]: 		K: 	wormhole_prefab	 V: 	wormhole	
[00:00:16]: 	K: 	random_set_pieces	 V: 	table: 000000000E243290	
[00:00:16]: 		K: 	1	 V: 	Sculptures_2	
[00:00:16]: 		K: 	2	 V: 	Sculptures_3	
[00:00:16]: 		K: 	3	 V: 	Sculptures_4	
[00:00:16]: 		K: 	4	 V: 	Sculptures_5	
[00:00:16]: 		K: 	5	 V: 	Chessy_1	
[00:00:16]: 		K: 	6	 V: 	Chessy_2	
[00:00:16]: 		K: 	7	 V: 	Chessy_3	
[00:00:16]: 		K: 	8	 V: 	Chessy_4	
[00:00:16]: 		K: 	9	 V: 	Chessy_5	
[00:00:16]: 		K: 	10	 V: 	Chessy_6	
[00:00:16]: 		K: 	11	 V: 	Maxwell1	
[00:00:16]: 		K: 	12	 V: 	Maxwell2	
[00:00:16]: 		K: 	13	 V: 	Maxwell3	
[00:00:16]: 		K: 	14	 V: 	Maxwell4	
[00:00:16]: 		K: 	15	 V: 	Maxwell6	
[00:00:16]: 		K: 	16	 V: 	Maxwell7	
[00:00:16]: 		K: 	17	 V: 	Warzone_1	
[00:00:16]: 		K: 	18	 V: 	Warzone_2	
[00:00:16]: 		K: 	19	 V: 	Warzone_3	
[00:00:16]: 	K: 	required_prefabs	 V: 	table: 000000000E243B00	
[00:00:16]: 		K: 	1	 V: 	multiplayer_portal	
[00:00:16]: 	K: 	required_setpieces	 V: 	table: 000000000E243510	
[00:00:16]: 		K: 	1	 V: 	Sculptures_1	
[00:00:16]: 		K: 	2	 V: 	Maxwell5	
[00:00:16]: 	K: 	settings_desc	 V: 	The standard Don't Starve experience.	
[00:00:16]: 	K: 	settings_id	 V: 	SURVIVAL_TOGETHER	
[00:00:16]: 	K: 	settings_name	 V: 	Standard Forest	
[00:00:16]: 	K: 	substitutes	 V: 	table: 000000000E243010	
[00:00:16]: 	K: 	version	 V: 	4	
[00:00:16]: 	K: 	worldgen_desc	 V: 	The standard Don't Starve experience.	
[00:00:16]: 	K: 	worldgen_id	 V: 	SURVIVAL_TOGETHER	
[00:00:16]: 	K: 	worldgen_name	 V: 	Standard Forest	
[00:00:16]: Loaded and applied level data override from ../leveldataoverride.lua	
[00:00:16]: Overwriting savedata with level data file.	
[00:00:16]: Not applying world gen overrides.	
[00:00:16]: Collecting garbage...
[00:00:16]: lua_gc took 0.21 seconds
[00:00:16]: ~ShardLuaProxy()
[00:00:16]: ~cEventLeaderboardProxy()
[00:00:16]: ~ItemServerLuaProxy()
[00:00:16]: ~InventoryLuaProxy()
[00:00:16]: ~NetworkLuaProxy()
[00:00:16]: ~SimLuaProxy()
[00:00:16]: FilesExistAsyncThread aborted.
[00:00:16]: ... FilesExistAsyncThread complete
[00:00:17]: lua_close took 0.23 seconds
[00:00:17]: ReleaseAll
[00:00:17]: ReleaseAll Finished
[00:00:17]: cGame::StartPlaying
[00:00:17]: AppVersion::GetArchitecture() x64
[00:00:17]: LOADING LUA
[00:00:17]: DoLuaFile scripts/main.lua
[00:00:17]: DoLuaFile loading buffer scripts/main.lua
[00:00:17]:   taskgrouplist:	default	Together	
[00:00:17]:   taskgrouplist:	classic	Classic	
[00:00:17]:   taskgrouplist:	cave_default	Underground	
[00:00:17]:   taskgrouplist:	lavaarena_taskset	The Forge	
[00:00:17]:   taskgrouplist:	quagmire_taskset	The Gorge	
[00:00:18]: running main.lua
	
[00:00:18]: loaded modindex	
[00:00:18]: ModIndex: Beginning normal load sequence for dedicated server.
	
[00:00:18]: SUCCESS: Loaded modoverrides.lua	
[00:00:18]: modoverrides.lua enabling workshop-374550642	
[00:00:18]: modoverrides.lua enabling workshop-816057392	
[00:00:18]: modoverrides.lua enabling workshop-378160973	
[00:00:18]: modoverrides.lua enabling workshop-1682381560	
[00:00:18]: modoverrides.lua enabling workshop-375850593	
[00:00:18]: modoverrides.lua enabling workshop-666155465	
[00:00:18]: modoverrides.lua enabling workshop-1185229307	
[00:00:18]: modoverrides.lua enabling workshop-2010472942	
[00:00:18]: modoverrides.lua enabling workshop-362175979	
[00:00:18]: modoverrides.lua enabling workshop-501385076	
[00:00:18]: modoverrides.lua enabling workshop-1651623054	
[00:00:18]: modoverrides.lua enabling workshop-1458450094	
[00:00:18]: modoverrides.lua enabling workshop-1595631294	
[00:00:18]: ModIndex:GetModsToLoad inserting moddir, 	workshop-1458450094	
[00:00:18]: ModIndex:GetModsToLoad inserting moddir, 	workshop-1595631294	
[00:00:18]: ModIndex:GetModsToLoad inserting moddir, 	workshop-1651623054	
[00:00:18]: ModIndex:GetModsToLoad inserting moddir, 	workshop-1682381560	
[00:00:18]: ModIndex:GetModsToLoad inserting moddir, 	workshop-362175979	
[00:00:18]: ModIndex:GetModsToLoad inserting moddir, 	workshop-374550642	
[00:00:18]: ModIndex:GetModsToLoad inserting moddir, 	workshop-375850593	
[00:00:18]: ModIndex:GetModsToLoad inserting moddir, 	workshop-378160973	
[00:00:18]: ModIndex:GetModsToLoad inserting moddir, 	workshop-501385076	
[00:00:18]: ModIndex:GetModsToLoad inserting moddir, 	workshop-816057392	
[00:00:18]: ModIndex:GetModsToLoad inserting forcedmoddir, 	workshop-1185229307	
[00:00:18]: ModIndex:GetModsToLoad inserting forcedmoddir, 	workshop-2010472942	
[00:00:18]: ModIndex:GetModsToLoad inserting forcedmoddir, 	workshop-666155465	
[00:00:18]: Could not load mod_config_data/modconfiguration_workshop-1458450094	
[00:00:18]: Loading mod: workshop-1458450094 (Auto Trap Reset) Version:2.1	
[00:00:18]: Could not load mod_config_data/modconfiguration_workshop-1595631294	
[00:00:18]: Loading mod: workshop-1595631294 (Smart Minisign) Version:1.1.5	
[00:00:18]: Could not load mod_config_data/modconfiguration_workshop-1651623054	
[00:00:18]: Loading mod: workshop-1651623054 (Simple Health Bar DST) Version:1.06 (Old API! (mod: 6 game: 10) )	
[00:00:18]: Could not load mod_config_data/modconfiguration_workshop-1682381560	
[00:00:18]: Loading mod: workshop-1682381560 (Level Up System) Version:1.1	
[00:00:18]: Could not load mod_config_data/modconfiguration_workshop-362175979	
[00:00:18]: Loading mod: workshop-362175979 (Wormhole Marks) Version:1.4.5	
[00:00:18]: Could not load mod_config_data/modconfiguration_workshop-374550642	
[00:00:18]: Loading mod: workshop-374550642 (Increased Stack size) Version:1.62	
[00:00:18]: Could not load mod_config_data/modconfiguration_workshop-375850593	
[00:00:18]: Loading mod: workshop-375850593 (Extra Equip Slots) Version:1.8.0	
[00:00:18]: Could not load mod_config_data/modconfiguration_workshop-378160973	
[00:00:18]: Loading mod: workshop-378160973 (Global Positions) Version:1.7.3	
[00:00:18]: Could not load mod_config_data/modconfiguration_workshop-501385076	
[00:00:18]: Loading mod: workshop-501385076 (Quick Pick) Version:1.4.0	
[00:00:18]: Could not load mod_config_data/modconfiguration_workshop-816057392	
[00:00:18]: Loading mod: workshop-816057392 (Combined Status) Version:1.7.5	
[00:00:18]: Could not load mod_config_data/modconfiguration_workshop-1185229307	
[00:00:18]: Loading mod: workshop-1185229307 (Epic Healthbar) Version:9.2	
[00:00:18]: Could not load mod_config_data/modconfiguration_workshop-2010472942	
[00:00:18]: Loading mod: workshop-2010472942 (Reign of Runts) Version:2.2	
[00:00:18]: Could not load mod_config_data/modconfiguration_workshop-666155465	
[00:00:18]: Loading mod: workshop-666155465 (Show Me (Origin)) Version:0.57	
[00:00:18]: applying configuration_options from modoverrides.lua to mod workshop-374550642	
[00:00:18]: Overriding mod workshop-374550642's option MAXSTACKSIZE with value 99	
[00:00:18]: applying configuration_options from modoverrides.lua to mod workshop-816057392	
[00:00:18]: Overriding mod workshop-816057392's option SHOWTEMPBADGES with value true	
[00:00:18]: Overriding mod workshop-816057392's option SHOWBEAVERNESS with value true	
[00:00:18]: Overriding mod workshop-816057392's option UNIT with value T	
[00:00:18]: Overriding mod workshop-816057392's option SHOWWORLDTEMP with value false	
[00:00:18]: Overriding mod workshop-816057392's option SHOWMOON with value 1	
[00:00:18]: Overriding mod workshop-816057392's option SHOWWANINGMOON with value true	
[00:00:18]: Overriding mod workshop-816057392's option FLIPMOON with value false	
[00:00:18]: Overriding mod workshop-816057392's option SEASONOPTIONS with value Clock	
[00:00:18]: Overriding mod workshop-816057392's option SHOWSTATNUMBERS with value true	
[00:00:18]: Overriding mod workshop-816057392's option HUDSCALEFACTOR with value 100	
[00:00:18]: Overriding mod workshop-816057392's option SHOWCLOCKTEXT with value true	
[00:00:18]: Overriding mod workshop-816057392's option HIDECAVECLOCK with value false	
[00:00:18]: Overriding mod workshop-816057392's option SHOWTEMPERATURE with value true	
[00:00:18]: Overriding mod workshop-816057392's option SHOWNEXTFULLMOON with value true	
[00:00:18]: Overriding mod workshop-816057392's option SHOWNAUGHTINESS with value true	
[00:00:18]: Overriding mod workshop-816057392's option SHOWMAXONNUMBERS with value true	
[00:00:18]: applying configuration_options from modoverrides.lua to mod workshop-378160973	
[00:00:18]: Overriding mod workshop-378160973's option FIREOPTIONS with value 2	
[00:00:18]: Overriding mod workshop-378160973's option SHOWFIREICONS with value true	
[00:00:18]: Overriding mod workshop-378160973's option SHAREMINIMAPPROGRESS with value true	
[00:00:18]: Overriding mod workshop-378160973's option SHOWPLAYERICONS with value true	
[00:00:18]: Overriding mod workshop-378160973's option OVERRIDEMODE with value false	
[00:00:18]: Overriding mod workshop-378160973's option SHOWPLAYERSOPTIONS with value 2	
[00:00:18]: Overriding mod workshop-378160973's option ENABLEPINGS with value true	
[00:00:18]: applying configuration_options from modoverrides.lua to mod workshop-1682381560	
[00:00:18]: Overriding mod workshop-1682381560's option EXP_PERCENT with value 1	
[00:00:18]: Overriding mod workshop-1682381560's option SHOWINFO with value 118	
[00:00:18]: Overriding mod workshop-1682381560's option INITIAL_STATE with value 1	
[00:00:18]: applying configuration_options from modoverrides.lua to mod workshop-375850593	
[00:00:18]: applying configuration_options from modoverrides.lua to mod workshop-666155465	
[00:00:18]: Overriding mod workshop-666155465's option chestR with value -1	
[00:00:18]: Overriding mod workshop-666155465's option food_style with value 0	
[00:00:18]: Overriding mod workshop-666155465's option display_hp with value -1	
[00:00:18]: Overriding mod workshop-666155465's option show_uses with value -1	
[00:00:18]: Overriding mod workshop-666155465's option show_food_units with value -1	
[00:00:18]: Overriding mod workshop-666155465's option lang with value auto	
[00:00:18]: Overriding mod workshop-666155465's option chestB with value -1	
[00:00:18]: Overriding mod workshop-666155465's option food_order with value 0	
[00:00:18]: Overriding mod workshop-666155465's option chestG with value -1	
[00:00:18]: Overriding mod workshop-666155465's option food_estimation with value -1	
[00:00:18]: applying configuration_options from modoverrides.lua to mod workshop-1185229307	
[00:00:18]: Overriding mod workshop-1185229307's option  with value 	
[00:00:18]: Overriding mod workshop-1185229307's option  with value 	
[00:00:18]: Overriding mod workshop-1185229307's option WETNESS_METER with value false	
[00:00:18]: Overriding mod workshop-1185229307's option NOEPIC with value false	
[00:00:18]: Overriding mod workshop-1185229307's option FRAME_PHASES with value true	
[00:00:18]: Overriding mod workshop-1185229307's option DAMAGE_NUMBERS with value true	
[00:00:18]: Overriding mod workshop-1185229307's option NONOEPIC with value false	
[00:00:18]: Overriding mod workshop-1185229307's option DAMAGE_RESISTANCE with value true	
[00:00:18]: Overriding mod workshop-1185229307's option HORIZONTAL_OFFSET with value 0	
[00:00:18]: applying configuration_options from modoverrides.lua to mod workshop-2010472942	
[00:00:18]: Overriding mod workshop-2010472942's option enable_groundpcancel with value true	
[00:00:18]: Overriding mod workshop-2010472942's option wfly_ashes with value 8	
[00:00:18]: Overriding mod workshop-2010472942's option enable_unintelligible with value false	
[00:00:18]: Overriding mod workshop-2010472942's option woose_spinhammer with value false	
[00:00:18]: Overriding mod workshop-2010472942's option wearg_hungerd with value 1.2	
[00:00:18]: Overriding mod workshop-2010472942's option enable_monstertag with value false	
[00:00:18]: Overriding mod workshop-2010472942's option weer_sanitydrainstart with value 1.5	
[00:00:18]: Overriding mod workshop-2010472942's option wearger_gp_cd with value 5	
[00:00:18]: Overriding mod workshop-2010472942's option wfly_lavaedmg with value 50	
[00:00:18]: Overriding mod workshop-2010472942's option wfly_enraged_maxhp with value 70	
[00:00:18]: Overriding mod workshop-2010472942's option wfly_lavaemax with value 9	
[00:00:18]: Overriding mod workshop-2010472942's option woose_honkrange with value 5	
[00:00:18]: Overriding mod workshop-2010472942's option enable_nesting with value true	
[00:00:18]: Overriding mod workshop-2010472942's option wearg_gpdmg with value 25	
[00:00:18]: Overriding mod workshop-2010472942's option wfly_oheattemp with value 90	
[00:00:18]: Overriding mod workshop-2010472942's option weer_sanitybonus with value 5	
[00:00:18]: Overriding mod workshop-2010472942's option wfly_enraged_cd with value 30	
[00:00:18]: Overriding mod workshop-2010472942's option woose_aoedmg with value 3	
[00:00:18]: Overriding mod workshop-2010472942's option weer_freezekill with value 192	
[00:00:18]: Overriding mod workshop-2010472942's option woose_lightn with value 0	
[00:00:18]: Overriding mod workshop-2010472942's option wearger_yawn with value 0.2	
[00:00:18]: Overriding mod workshop-2010472942's option wearger_attackstyle with value 2	
[00:00:18]: Overriding mod workshop-2010472942's option wfly_enraged_fire with value false	
[00:00:18]: Overriding mod workshop-2010472942's option woose_wetness with value 1.6	
[00:00:18]: Overriding mod workshop-2010472942's option woose_wetdrain with value false	
[00:00:18]: Overriding mod workshop-2010472942's option enable_woose_speen with value true	
[00:00:18]: Overriding mod workshop-2010472942's option woose_iframes with value true	
[00:00:18]: Overriding mod workshop-2010472942's option woose_speen with value 10	
[00:00:18]: Overriding mod workshop-2010472942's option wearger_hibasorp with value 0.2	
[00:00:18]: Overriding mod workshop-2010472942's option woose_nesttime with value 7	
[00:00:18]: Overriding mod workshop-2010472942's option woose_nestbuff with value 0.25	
[00:00:18]: Overriding mod workshop-2010472942's option woose_drownmax with value 80	
[00:00:18]: Overriding mod workshop-2010472942's option wfly_enraged_timer with value 60	
[00:00:18]: Overriding mod workshop-2010472942's option wfly_summondmg with value 20	
[00:00:18]: Overriding mod workshop-2010472942's option weerclops_attackstyle with value 1	
[00:00:18]: Overriding mod workshop-2010472942's option wfly_fireimmune with value 0	
[00:00:18]: Overriding mod workshop-2010472942's option weer_hotkill with value 84	
[00:00:18]: Overriding mod workshop-2010472942's option wearger_gp_range with value 5	
[00:00:18]: Overriding mod workshop-2010472942's option wearg_honey with value 10	
[00:00:18]: applying configuration_options from modoverrides.lua to mod workshop-362175979	
[00:00:18]: Overriding mod workshop-362175979's option Draw over FoW with value disabled	
[00:00:18]: applying configuration_options from modoverrides.lua to mod workshop-501385076	
[00:00:18]: Overriding mod workshop-501385076's option quick_pick_cactus with value true	
[00:00:18]: Overriding mod workshop-501385076's option quick_pick_plant_normal_ground with value true	
[00:00:18]: Overriding mod workshop-501385076's option quick_cook_on_fire with value true	
[00:00:18]: Overriding mod workshop-501385076's option quick_harvest with value true	
[00:00:18]: applying configuration_options from modoverrides.lua to mod workshop-1651623054	
[00:00:18]: Overriding mod workshop-1651623054's option hbcolor with value dynamic	
[00:00:18]: Overriding mod workshop-1651623054's option hbstyle with value heart	
[00:00:18]: Overriding mod workshop-1651623054's option value with value true	
[00:00:18]: Overriding mod workshop-1651623054's option ddon with value true	
[00:00:18]: Overriding mod workshop-1651623054's option hbpos with value 1	
[00:00:18]: Overriding mod workshop-1651623054's option hblength with value 10	
[00:00:18]: applying configuration_options from modoverrides.lua to mod workshop-1458450094	
[00:00:18]: Overriding mod workshop-1458450094's option  with value 0	
[00:00:18]: Overriding mod workshop-1458450094's option  with value 0	
[00:00:18]: Overriding mod workshop-1458450094's option  with value 0	
[00:00:18]: Overriding mod workshop-1458450094's option  with value 0	
[00:00:18]: Overriding mod workshop-1458450094's option log with value false	
[00:00:18]: Overriding mod workshop-1458450094's option houndstooth with value false	
[00:00:18]: Overriding mod workshop-1458450094's option livinglog with value false	
[00:00:18]: Overriding mod workshop-1458450094's option stinger with value false	
[00:00:18]: Overriding mod workshop-1458450094's option rope with value false	
[00:00:18]: Overriding mod workshop-1458450094's option retraprandomy with value 120	
[00:00:18]: Overriding mod workshop-1458450094's option mode with value fix	
[00:00:18]: Overriding mod workshop-1458450094's option retraprandomx with value 10	
[00:00:18]: Overriding mod workshop-1458450094's option retrapfix with value 60	
[00:00:18]: applying configuration_options from modoverrides.lua to mod workshop-1595631294	
[00:00:18]: Overriding mod workshop-1595631294's option SaltBox with value false	
[00:00:18]: Overriding mod workshop-1595631294's option BundleItems with value false	
[00:00:18]: Overriding mod workshop-1595631294's option Digornot with value false	
[00:00:18]: Overriding mod workshop-1595631294's option ChangeSkin with value true	
[00:00:18]: Overriding mod workshop-1595631294's option Icebox with value false	
[00:00:18]: Overriding mod workshop-1595631294's option DragonflyChest with value false	
[00:00:18]: Mod: workshop-1185229307 (Epic Healthbar)	Loading modworldgenmain.lua	
[00:00:18]: Mod: workshop-1185229307 (Epic Healthbar)	  Mod had no modworldgenmain.lua. Skipping.	
[00:00:18]: Mod: workshop-1185229307 (Epic Healthbar)	Loading modmain.lua	
[00:00:18]: Mod: workshop-2010472942 (Reign of Runts)	Loading modworldgenmain.lua	
[00:00:18]: Mod: workshop-2010472942 (Reign of Runts)	  Mod had no modworldgenmain.lua. Skipping.	
[00:00:18]: Mod: workshop-2010472942 (Reign of Runts)	Loading modmain.lua	
[00:00:18]: modimport: ../mods/workshop-2010472942/scripts/strings.lua	
[00:00:18]: modimport: ../mods/workshop-2010472942/scripts/tools/skins_api	
[00:00:18]: Mod: workshop-375850593 (Extra Equip Slots)	Loading modworldgenmain.lua	
[00:00:18]: Mod: workshop-375850593 (Extra Equip Slots)	  Mod had no modworldgenmain.lua. Skipping.	
[00:00:18]: Mod: workshop-375850593 (Extra Equip Slots)	Loading modmain.lua	
[00:00:18]: Mod: workshop-666155465 (Show Me (Origin))	Loading modworldgenmain.lua	
[00:00:18]: Mod: workshop-666155465 (Show Me (Origin))	  Mod had no modworldgenmain.lua. Skipping.	
[00:00:18]: Mod: workshop-666155465 (Show Me (Origin))	Loading modmain.lua	
[00:00:18]: ShowMe version:	0.57	
[00:00:18]: show_food_units	-1	-1	-1	
[00:00:18]: show_uses	-1	-1	-1	
[00:00:18]: Detected language for ShowMe: 	auto		
[00:00:18]: Mod: workshop-374550642 (Increased Stack size)	Loading modworldgenmain.lua	
[00:00:18]: Mod: workshop-374550642 (Increased Stack size)	  Mod had no modworldgenmain.lua. Skipping.	
[00:00:18]: Mod: workshop-374550642 (Increased Stack size)	Loading modmain.lua	
[00:00:18]: Mod: workshop-362175979 (Wormhole Marks)	Loading modworldgenmain.lua	
[00:00:18]: Mod: workshop-362175979 (Wormhole Marks)	  Mod had no modworldgenmain.lua. Skipping.	
[00:00:18]: Mod: workshop-362175979 (Wormhole Marks)	Loading modmain.lua	
[00:00:18]: Mod: workshop-1651623054 (Simple Health Bar DST)	Loading modworldgenmain.lua	
[00:00:18]: Mod: workshop-1651623054 (Simple Health Bar DST)	  Mod had no modworldgenmain.lua. Skipping.	
[00:00:18]: Mod: workshop-1651623054 (Simple Health Bar DST)	Loading modmain.lua	
[00:00:18]: Mod: workshop-501385076 (Quick Pick)	Loading modworldgenmain.lua	
[00:00:18]: Mod: workshop-501385076 (Quick Pick)	  Mod had no modworldgenmain.lua. Skipping.	
[00:00:18]: Mod: workshop-501385076 (Quick Pick)	Loading modmain.lua	
[00:00:18]: Mod: workshop-1682381560 (Level Up System)	Loading modworldgenmain.lua	
[00:00:18]: Mod: workshop-1682381560 (Level Up System)	  Mod had no modworldgenmain.lua. Skipping.	
[00:00:18]: Mod: workshop-1682381560 (Level Up System)	Loading modmain.lua	
[00:00:18]: modimport: ../mods/workshop-1682381560/scripts/patches/wolfgangchanges.lua	
[00:00:18]: modimport: ../mods/workshop-1682381560/scripts/patches/wx78changes.lua	
[00:00:18]: AddPortMapping(10999, 10999, 192.168.68.141) failed with code 718 (ConflictInMappingEntry)
[00:00:18]: AddPortMapping(10999, 10999, 192.168.68.141) failed with code 718 (ConflictInMappingEntry)
[00:00:18]: modimport: ../mods/workshop-1682381560/scripts/patches/playerchanges.lua	
[00:00:18]: Mod: workshop-816057392 (Combined Status)	Loading modworldgenmain.lua	
[00:00:18]: Mod: workshop-816057392 (Combined Status)	  Mod had no modworldgenmain.lua. Skipping.	
[00:00:18]: Mod: workshop-816057392 (Combined Status)	Loading modmain.lua	
[00:00:18]: ModIndex:GetModsToLoad inserting moddir, 	workshop-1458450094	
[00:00:18]: ModIndex:GetModsToLoad inserting moddir, 	workshop-1595631294	
[00:00:18]: ModIndex:GetModsToLoad inserting moddir, 	workshop-1651623054	
[00:00:18]: ModIndex:GetModsToLoad inserting moddir, 	workshop-1682381560	
[00:00:18]: ModIndex:GetModsToLoad inserting moddir, 	workshop-362175979	
[00:00:18]: ModIndex:GetModsToLoad inserting moddir, 	workshop-374550642	
[00:00:18]: ModIndex:GetModsToLoad inserting moddir, 	workshop-375850593	
[00:00:18]: ModIndex:GetModsToLoad inserting moddir, 	workshop-378160973	
[00:00:18]: ModIndex:GetModsToLoad inserting moddir, 	workshop-501385076	
[00:00:18]: ModIndex:GetModsToLoad inserting moddir, 	workshop-816057392	
[00:00:18]: ModIndex:GetModsToLoad inserting forcedmoddir, 	workshop-1185229307	
[00:00:18]: ModIndex:GetModsToLoad inserting forcedmoddir, 	workshop-2010472942	
[00:00:18]: ModIndex:GetModsToLoad inserting forcedmoddir, 	workshop-666155465	
[00:00:18]: Mod: workshop-1458450094 (Auto Trap Reset)	Loading modworldgenmain.lua	
[00:00:18]: Mod: workshop-1458450094 (Auto Trap Reset)	  Mod had no modworldgenmain.lua. Skipping.	
[00:00:18]: Mod: workshop-1458450094 (Auto Trap Reset)	Loading modmain.lua	
[00:00:18]: Mod: workshop-378160973 (Global Positions)	Loading modworldgenmain.lua	
[00:00:18]: Mod: workshop-378160973 (Global Positions)	  Mod had no modworldgenmain.lua. Skipping.	
[00:00:18]: Mod: workshop-378160973 (Global Positions)	Loading modmain.lua	
[00:00:18]: ModIndex:GetModsToLoad inserting moddir, 	workshop-1458450094	
[00:00:18]: ModIndex:GetModsToLoad inserting moddir, 	workshop-1595631294	
[00:00:18]: ModIndex:GetModsToLoad inserting moddir, 	workshop-1651623054	
[00:00:18]: ModIndex:GetModsToLoad inserting moddir, 	workshop-1682381560	
[00:00:18]: ModIndex:GetModsToLoad inserting moddir, 	workshop-362175979	
[00:00:18]: ModIndex:GetModsToLoad inserting moddir, 	workshop-374550642	
[00:00:18]: ModIndex:GetModsToLoad inserting moddir, 	workshop-375850593	
[00:00:18]: ModIndex:GetModsToLoad inserting moddir, 	workshop-378160973	
[00:00:18]: ModIndex:GetModsToLoad inserting moddir, 	workshop-501385076	
[00:00:18]: ModIndex:GetModsToLoad inserting moddir, 	workshop-816057392	
[00:00:18]: ModIndex:GetModsToLoad inserting forcedmoddir, 	workshop-1185229307	
[00:00:18]: ModIndex:GetModsToLoad inserting forcedmoddir, 	workshop-2010472942	
[00:00:18]: ModIndex:GetModsToLoad inserting forcedmoddir, 	workshop-666155465	
[00:00:18]: Mod: workshop-1595631294 (Smart Minisign)	Loading modworldgenmain.lua	
[00:00:18]: Mod: workshop-1595631294 (Smart Minisign)	  Mod had no modworldgenmain.lua. Skipping.	
[00:00:18]: Mod: workshop-1595631294 (Smart Minisign)	Loading modmain.lua	
[00:00:19]: Event data unavailable: lavaarena_event_server/lavaarena_achievement_quest_defs
[00:00:19]: LOADING LUA SUCCESS
[00:00:19]: Registering Server mod namespace "workshop-2010472942"
[00:00:19]: Registering Server mod namespace "showme"
[00:00:19]: Registering Server mod namespace "showmeshint"
[00:00:19]: Registering Server mod namespace "workshop-378160973"
[00:00:19]: Registering Server mod namespace "modlevelupsystem"
[00:00:19]: PlayerDeaths could not load morgue	
[00:00:19]: PlayerHistory could not load player_history	
[00:00:19]: ServerPreferences could not load server_preferences	
[00:00:19]: bloom_enabled	true	
[00:00:19]: OnFilesLoaded()	
[00:00:19]: OnUpdatePurchaseStateComplete	
[00:00:19]: Loading world: session/2139020B54A00472/0000000053	
[00:00:20]: Save file is at version 5.09	
[00:00:20]: Klump load on boot started.	
[00:00:20]: Klump files loaded: 	0	
[00:00:20]: 	Unload FE	
[00:00:20]: 	Unload FE done	
[00:00:24]: Mod: workshop-1185229307 (Epic Healthbar)	Registering prefabs	
[00:00:24]: Mod: workshop-1185229307 (Epic Healthbar)	  Registering prefab file: prefabs/epichealth_proxy	
[00:00:24]: Mod: workshop-1185229307 (Epic Healthbar)	    epichealth_proxy	
[00:00:24]: Mod: workshop-1185229307 (Epic Healthbar)	  Registering default mod prefab	
[00:00:24]: Mod: workshop-2010472942 (Reign of Runts)	Registering prefabs	
[00:00:24]: Mod: workshop-2010472942 (Reign of Runts)	  Registering prefab file: prefabs/weerclops	
[00:00:24]: Mod: workshop-2010472942 (Reign of Runts)	    weerclops	
[00:00:24]: Mod: workshop-2010472942 (Reign of Runts)	  Registering prefab file: prefabs/wearger	
[00:00:24]: Mod: workshop-2010472942 (Reign of Runts)	    wearger	
[00:00:24]: Mod: workshop-2010472942 (Reign of Runts)	  Registering prefab file: prefabs/woose	
[00:00:24]: Mod: workshop-2010472942 (Reign of Runts)	    woose	
[00:00:24]: Mod: workshop-2010472942 (Reign of Runts)	  Registering prefab file: prefabs/wragonfly	
[00:00:24]: Mod: workshop-2010472942 (Reign of Runts)	    wragonfly	
[00:00:24]: Mod: workshop-2010472942 (Reign of Runts)	  Registering prefab file: prefabs/lavae_wragonfly	
[00:00:24]: Mod: workshop-2010472942 (Reign of Runts)	    lavae_wragonfly	
[00:00:24]: Mod: workshop-2010472942 (Reign of Runts)	  Registering prefab file: prefabs/weerclops_none	
[00:00:24]: Mod: workshop-2010472942 (Reign of Runts)	    weerclops_none	
[00:00:24]: Mod: workshop-2010472942 (Reign of Runts)	    weerclops_ice	
[00:00:24]: Mod: workshop-2010472942 (Reign of Runts)	    weerclops_rose	
[00:00:24]: Mod: workshop-2010472942 (Reign of Runts)	    weerclops_magma	
[00:00:24]: Mod: workshop-2010472942 (Reign of Runts)	  Registering prefab file: prefabs/wearger_none	
[00:00:24]: Mod: workshop-2010472942 (Reign of Runts)	    wearger_none	
[00:00:24]: Mod: workshop-2010472942 (Reign of Runts)	    wearger_ice	
[00:00:24]: Mod: workshop-2010472942 (Reign of Runts)	    wearger_survivor	
[00:00:24]: Mod: workshop-2010472942 (Reign of Runts)	    wearger_teddy	
[00:00:24]: Mod: workshop-2010472942 (Reign of Runts)	  Registering prefab file: prefabs/woose_none	
[00:00:24]: Mod: workshop-2010472942 (Reign of Runts)	    woose_none	
[00:00:24]: Mod: workshop-2010472942 (Reign of Runts)	    woose_ice	
[00:00:24]: Mod: workshop-2010472942 (Reign of Runts)	    woose_young	
[00:00:24]: Mod: workshop-2010472942 (Reign of Runts)	    woose_victorian	
[00:00:24]: Mod: workshop-2010472942 (Reign of Runts)	  Registering prefab file: prefabs/nest_woose	
[00:00:24]: Mod: workshop-2010472942 (Reign of Runts)	    nest_woose	
[00:00:24]: Mod: workshop-2010472942 (Reign of Runts)	    nesting_woose	
[00:00:24]: Mod: workshop-2010472942 (Reign of Runts)	    woose_egg_fx	
[00:00:24]: Mod: workshop-2010472942 (Reign of Runts)	    nesting_woose_placer	
[00:00:24]: Mod: workshop-2010472942 (Reign of Runts)	  Registering prefab file: prefabs/nestbuff	
[00:00:24]: Mod: workshop-2010472942 (Reign of Runts)	    nestbuff	
[00:00:24]: Mod: workshop-2010472942 (Reign of Runts)	  Registering prefab file: prefabs/wragonfly_none	
[00:00:24]: Mod: workshop-2010472942 (Reign of Runts)	    wragonfly_none	
[00:00:24]: Mod: workshop-2010472942 (Reign of Runts)	    wragonfly_ice	
[00:00:24]: Mod: workshop-2010472942 (Reign of Runts)	    wragonfly_shadow	
[00:00:24]: Mod: workshop-2010472942 (Reign of Runts)	    wragonfly_haunted	
[00:00:24]: Mod: workshop-2010472942 (Reign of Runts)	  Registering default mod prefab	
[00:00:26]: Mod: workshop-375850593 (Extra Equip Slots)	Registering prefabs	
[00:00:26]: Mod: workshop-375850593 (Extra Equip Slots)	  Registering default mod prefab	
[00:00:26]: Mod: workshop-666155465 (Show Me (Origin))	Registering prefabs	
[00:00:26]: Mod: workshop-666155465 (Show Me (Origin))	  Registering default mod prefab	
[00:00:26]: Mod: workshop-374550642 (Increased Stack size)	Registering prefabs	
[00:00:26]: Mod: workshop-374550642 (Increased Stack size)	  Registering default mod prefab	
[00:00:26]: Mod: workshop-362175979 (Wormhole Marks)	Registering prefabs	
[00:00:26]: Mod: workshop-362175979 (Wormhole Marks)	  Registering default mod prefab	
[00:00:26]: Mod: workshop-1651623054 (Simple Health Bar DST)	Registering prefabs	
[00:00:26]: Mod: workshop-1651623054 (Simple Health Bar DST)	  Registering prefab file: prefabs/dychealthbar	
[00:00:26]: Mod: workshop-1651623054 (Simple Health Bar DST)	    dyc_damagedisplay	
[00:00:26]: Mod: workshop-1651623054 (Simple Health Bar DST)	    dyc_healthbarchild	
[00:00:26]: Mod: workshop-1651623054 (Simple Health Bar DST)	    dyc_healthbar	
[00:00:26]: Mod: workshop-1651623054 (Simple Health Bar DST)	  Registering default mod prefab	
[00:00:26]: Mod: workshop-501385076 (Quick Pick)	Registering prefabs	
[00:00:26]: Mod: workshop-501385076 (Quick Pick)	  Registering default mod prefab	
[00:00:26]: Mod: workshop-1682381560 (Level Up System)	Registering prefabs	
[00:00:26]: Mod: workshop-1682381560 (Level Up System)	  Registering default mod prefab	
[00:00:26]: Mod: workshop-816057392 (Combined Status)	Registering prefabs	
[00:00:26]: Mod: workshop-816057392 (Combined Status)	  Registering default mod prefab	
[00:00:26]: Mod: workshop-1458450094 (Auto Trap Reset)	Registering prefabs	
[00:00:26]: Mod: workshop-1458450094 (Auto Trap Reset)	  Registering default mod prefab	
[00:00:26]: Mod: workshop-378160973 (Global Positions)	Registering prefabs	
[00:00:26]: Mod: workshop-378160973 (Global Positions)	  Registering prefab file: prefabs/globalposition_classified	
[00:00:26]: Mod: workshop-378160973 (Global Positions)	    globalposition_classified	
[00:00:26]: Mod: workshop-378160973 (Global Positions)	  Registering prefab file: prefabs/smoketrail	
[00:00:26]: Mod: workshop-378160973 (Global Positions)	    smoketrail	
[00:00:26]: Mod: workshop-378160973 (Global Positions)	  Registering prefab file: prefabs/globalmapicon_noproxy	
[00:00:26]: Mod: workshop-378160973 (Global Positions)	    globalmapicon_noproxy	
[00:00:26]: Mod: workshop-378160973 (Global Positions)	  Registering prefab file: prefabs/worldmapexplorer	
[00:00:26]: Mod: workshop-378160973 (Global Positions)	    worldmapexplorer	
[00:00:26]: Mod: workshop-378160973 (Global Positions)	  Registering prefab file: prefabs/pings	
[00:00:26]: Mod: workshop-378160973 (Global Positions)	    ping_generic	
[00:00:26]: Mod: workshop-378160973 (Global Positions)	    ping_omw	
[00:00:26]: Mod: workshop-378160973 (Global Positions)	    ping_danger	
[00:00:26]: Mod: workshop-378160973 (Global Positions)	    ping_explore	
[00:00:26]: Mod: workshop-378160973 (Global Positions)	    ping_gohere	
[00:00:26]: Mod: workshop-378160973 (Global Positions)	  Registering default mod prefab	
[00:00:26]: Mod: workshop-1595631294 (Smart Minisign)	Registering prefabs	
[00:00:26]: Mod: workshop-1595631294 (Smart Minisign)	  Registering default mod prefab	
[00:00:26]: 	LOAD BE	
[00:01:09]: 	LOAD BE: done	
[00:01:09]: Begin Session: 2139020B54A00472
[00:01:09]: saving to server_temp/server_save	
[00:01:09]: MiniMapComponent::AddAtlas( minimap/minimap_data.xml )
[00:01:09]: MiniMapComponent::AddAtlas( ../mods/workshop-2010472942/images/map_icons/weerclops.xml )
[00:01:09]: MiniMapComponent::AddAtlas( ../mods/workshop-2010472942/images/map_icons/wearger.xml )
[00:01:09]: MiniMapComponent::AddAtlas( ../mods/workshop-2010472942/images/map_icons/nest_woose.xml )
[00:01:09]: MiniMapComponent::AddAtlas( ../mods/workshop-2010472942/images/map_icons/woose.xml )
[00:01:09]: MiniMapComponent::AddAtlas( ../mods/workshop-2010472942/images/map_icons/wragonfly.xml )
[00:01:09]: MiniMapComponent::AddAtlas( ../mods/workshop-362175979/images/mark_1.xml )
[00:01:09]: MiniMapComponent::AddAtlas( ../mods/workshop-362175979/images/mark_2.xml )
[00:01:09]: MiniMapComponent::AddAtlas( ../mods/workshop-362175979/images/mark_3.xml )
[00:01:09]: MiniMapComponent::AddAtlas( ../mods/workshop-362175979/images/mark_4.xml )
[00:01:09]: MiniMapComponent::AddAtlas( ../mods/workshop-362175979/images/mark_5.xml )
[00:01:09]: MiniMapComponent::AddAtlas( ../mods/workshop-362175979/images/mark_6.xml )
[00:01:09]: MiniMapComponent::AddAtlas( ../mods/workshop-362175979/images/mark_7.xml )
[00:01:09]: MiniMapComponent::AddAtlas( ../mods/workshop-362175979/images/mark_8.xml )
[00:01:09]: MiniMapComponent::AddAtlas( ../mods/workshop-362175979/images/mark_9.xml )
[00:01:09]: MiniMapComponent::AddAtlas( ../mods/workshop-362175979/images/mark_10.xml )
[00:01:09]: MiniMapComponent::AddAtlas( ../mods/workshop-362175979/images/mark_11.xml )
[00:01:09]: MiniMapComponent::AddAtlas( ../mods/workshop-362175979/images/mark_12.xml )
[00:01:09]: MiniMapComponent::AddAtlas( ../mods/workshop-362175979/images/mark_13.xml )
[00:01:09]: MiniMapComponent::AddAtlas( ../mods/workshop-362175979/images/mark_14.xml )
[00:01:09]: MiniMapComponent::AddAtlas( ../mods/workshop-362175979/images/mark_15.xml )
[00:01:09]: MiniMapComponent::AddAtlas( ../mods/workshop-362175979/images/mark_16.xml )
[00:01:09]: MiniMapComponent::AddAtlas( ../mods/workshop-362175979/images/mark_17.xml )
[00:01:09]: MiniMapComponent::AddAtlas( ../mods/workshop-362175979/images/mark_18.xml )
[00:01:09]: MiniMapComponent::AddAtlas( ../mods/workshop-362175979/images/mark_19.xml )
[00:01:09]: MiniMapComponent::AddAtlas( ../mods/workshop-362175979/images/mark_20.xml )
[00:01:09]: MiniMapComponent::AddAtlas( ../mods/workshop-362175979/images/mark_21.xml )
[00:01:09]: MiniMapComponent::AddAtlas( ../mods/workshop-362175979/images/mark_22.xml )
[00:01:09]: MiniMapComponent::AddAtlas( ../mods/workshop-378160973/minimap/campfire.xml )
[00:01:09]: MiniMapComponent::AddAtlas( ../mods/workshop-378160973/minimap/ping_generic.xml )
[00:01:09]: MiniMapComponent::AddAtlas( ../mods/workshop-378160973/minimap/ping_gohere.xml )
[00:01:09]: MiniMapComponent::AddAtlas( ../mods/workshop-378160973/minimap/ping_explore.xml )
[00:01:09]: MiniMapComponent::AddAtlas( ../mods/workshop-378160973/minimap/ping_danger.xml )
[00:01:09]: MiniMapComponent::AddAtlas( ../mods/workshop-378160973/minimap/ping_omw.xml )
[00:01:09]: Loading 22 new character(s)	
[00:01:12]: Total 22 character(s) loaded	
[00:01:13]: Loading Nav Grid	
[00:01:13]: World generated on build 487848 with save version: 5.09, using seed: 1639521072	
[00:01:13]: setting 	summerlength	15	
[00:01:13]: setting 	cavemoonphase	half	
[00:01:13]: setting 	iscavefullmoon	false	
[00:01:13]: setting 	isnightmaredawn	false	
[00:01:13]: setting 	elapseddaysinseason	11	
[00:01:13]: setting 	isfullmoon	false	
[00:01:13]: setting 	moisture	2206.2326660156	
[00:01:13]: setting 	cavephase	dusk	
[00:01:13]: setting 	iscavewaxingmoon	true	
[00:01:13]: setting 	isnightmarewild	false	
[00:01:13]: setting 	nightmaretimeinphase	0	
[00:01:13]: setting 	precipitationrate	0	
[00:01:13]: setting 	iswet	false	
[00:01:13]: setting 	isnewmoon	false	
[00:01:13]: setting 	precipitation	none	
[00:01:13]: setting 	israining	false	
[00:01:13]: setting 	isnightmarewarn	false	
[00:01:13]: setting 	iswinter	false	
[00:01:13]: setting 	season	spring	
[00:01:13]: setting 	remainingdaysinseason	9	
[00:01:13]: setting 	winterlength	15	
[00:01:13]: setting 	iscaveday	false	
[00:01:13]: setting 	moistureceil	4114.3095703125	
[00:01:13]: setting 	isday	false	
[00:01:13]: setting 	springlength	20	
[00:01:13]: setting 	wetness	0	
[00:01:13]: setting 	iscavedusk	true	
[00:01:13]: setting 	isalterawake	false	
[00:01:13]: setting 	isnightmarecalm	false	
[00:01:13]: setting 	isnight	false	
[00:01:13]: setting 	isdusk	true	
[00:01:13]: setting 	isspring	true	
[00:01:13]: setting 	isautumn	false	
[00:01:13]: setting 	issnowing	false	
[00:01:13]: setting 	iswaxingmoon	true	
[00:01:13]: setting 	phase	dusk	
[00:01:13]: setting 	snowlevel	0	
[00:01:13]: setting 	issnowcovered	false	
[00:01:13]: setting 	autumnlength	20	
[00:01:13]: setting 	pop	0.46006947574846	
[00:01:13]: setting 	nightmaretime	0	
[00:01:13]: setting 	seasonprogress	0.55	
[00:01:13]: setting 	moonphase	half	
[00:01:13]: setting 	nightmarephase	none	
[00:01:13]: setting 	cycles	46	
[00:01:13]: setting 	timeinphase	0.91096232732137	
[00:01:13]: setting 	iscavenight	false	
[00:01:13]: setting 	iscavenewmoon	false	
[00:01:13]: setting 	issummer	false	
[00:01:13]: setting 	temperature	28.611707581952	
[00:01:13]: setting 	time	0.76798116366069	
[00:01:25]: Could not find anim [FROMNUM] in bank [eyeofterror]
[00:01:40]: Reconstructing topology	
[00:01:40]: 	...Sorting points	
[00:01:40]: 	...Sorting edges	
[00:01:40]: 	...Connecting nodes	
[00:01:40]: 	...Validating connections	
[00:01:41]: 	...Housekeeping	
[00:01:41]: 	...Done!	
[00:01:41]: 1 uploads added to server. From server_temp
[00:01:41]: About to start a shard with these settings:
[00:01:41]:   ShardName: [SHDMASTER]
[00:01:41]:   ShardID: 1
[00:01:41]:   ShardRole: MASTER
[00:01:41]:   MasterHost: (null)
[00:01:41]:   MasterBind: 127.0.0.1
[00:01:41]:   MasterPort: 10888
[00:01:41]: [Shard] Starting master server
[00:01:41]: [Warning] Could not confirm port 10888 is open in the firewall. 
[00:01:41]: [Shard] Shard server started on port: 10888
[00:01:41]: [IPC] Signal 'DST_Master_Ready' opened  #0000000000000798
[00:01:41]: [IPC] Sending signal... #0000000000000798
[00:01:41]: Telling Client our new session identifier: 2139020B54A00472
[00:01:41]: Check for write access: TRUE
[00:01:41]: Check for read access: TRUE
[00:01:41]: Available disk space for save files: 315281 MB
[00:01:41]: ModIndex: Load sequence finished successfully.	
[00:01:44]: Reset() returning
[00:01:44]: Registering master server in US lobby
[00:01:45]: Validating portal[1] <-> 507218932[1] (inactive)	
[00:01:45]: Validating portal[5] <-> 507218932[5] (inactive)	
[00:01:45]: Validating portal[10] <-> 507218932[10] (inactive)	
[00:01:46]: Validating portal[7] <-> 507218932[7] (inactive)	
[00:01:46]: Validating portal[4] <-> 507218932[4] (inactive)	
[00:01:46]: Validating portal[6] <-> 507218932[6] (inactive)	
[00:01:46]: Validating portal[9] <-> 507218932[9] (inactive)	
[00:01:46]: Validating portal[2] <-> 507218932[2] (inactive)	
[00:01:46]: Validating portal[3] <-> 507218932[3] (inactive)	
[00:01:46]: Validating portal[8] <-> 507218932[8] (inactive)	
[00:01:47]: Could not find anim build FROMNUM
[00:01:47]: Could not find anim build FROMNUM
[00:01:47]: Could not find anim build FROMNUM
[00:01:47]: Could not find anim build FROMNUM
[00:01:47]: Could not find anim build FROMNUM
[00:01:47]: Could not find anim build FROMNUM
[00:01:47]: Could not find anim build FROMNUM
[00:01:47]: Could not find anim build FROMNUM
[00:01:47]: Could not find anim build FROMNUM
[00:01:47]: Sim paused
[00:01:47]: [Shard] Secondary shar Caves(507218932) connected: [LAN] 127.0.0.1
[00:01:49]: [Shard] Secondary Caves(507218932) ready!
[00:01:49]: World 507218932 is now connected	
[00:01:49]: Validating portal[1] <-> 507218932[1] (disabled)	
[00:01:49]: Validating portal[5] <-> 507218932[5] (disabled)	
[00:01:49]: Validating portal[10] <-> 507218932[10] (disabled)	
[00:01:49]: Validating portal[7] <-> 507218932[7] (disabled)	
[00:01:49]: Validating portal[4] <-> 507218932[4] (disabled)	
[00:01:49]: Validating portal[6] <-> 507218932[6] (disabled)	
[00:01:49]: Validating portal[9] <-> 507218932[9] (disabled)	
[00:01:49]: Validating portal[2] <-> 507218932[2] (disabled)	
[00:01:49]: Validating portal[3] <-> 507218932[3] (disabled)	
[00:01:49]: Validating portal[8] <-> 507218932[8] (disabled)	
[00:01:51]: New incoming connection 127.0.0.1|64699 <5034848955728971138>
[00:01:51]: Client connected from [LAN] 127.0.0.1|64699 <5034848955728971138>
[00:01:51]: ValidateGameSessionToken pgs-usc^KU_voGjEULK^DontStarveTogether^osdR17QS7W2zgv1gKGpuhO7Np82XEoXlM+qN78zg8gs= for <5034848955728971138>
[00:01:52]: Client authenticated: (KU_voGjEULK) Thi
[00:01:52]: [Steam] Authenticated host '76561199226859472'
[00:01:53]: There is no active event to validate against.
[00:01:53]: [Shard] Read save location file for (KU_voGjEULK)
[00:01:54]: Registering master server in US lobby
[00:02:32]: Resuming user: session/2139020B54A00472/A7N74GMJJPAK/0000000053
[00:02:33]: Spawning player at: [Load] (21.22, -0.00, 77.00)	
[00:02:34]: Sim unpaused
[00:02:34]: Registering master server in US lobby
[00:03:02]: Could not find anim build FROMNUM
[00:04:25]: Registering master server in US lobby
[00:04:26]: Available disk space for save files: 315280 MB
[00:04:27]: Serializing user: session/2139020B54A00472/A7N74GMJJPAK/0000000054
[00:04:29]: Serializing world: session/2139020B54A00472/0000000054
[00:04:41]: Server Autopaused	
[00:04:42]: Server Unpaused	
[00:04:42]: Server Autopaused	
[00:04:43]: Server Unpaused	
[00:04:43]: Server Autopaused	
[00:04:44]: Server Unpaused	
[00:04:44]: Server Autopaused	
[00:04:45]: Server Unpaused	
[00:04:46]: Server Autopaused	
[00:04:48]: Server Unpaused	
[00:04:48]: Server Autopaused	
[00:04:50]: Server Unpaused	
[00:04:51]: Server Paused	
[00:05:00]: Registering master server in US lobby
[00:05:48]: Server Unpaused	
[00:05:48]: Registering master server in US lobby
[00:05:51]: Server Paused	
[00:05:58]: Registering master server in US lobby
[00:30:15]: [200] Account Communication Success (6)
[00:30:15]: Received (KU_voGjEULK) from TokenPurpose
[01:00:15]: [200] Account Communication Success (6)
[01:00:15]: Received (KU_voGjEULK) from TokenPurpose
[01:30:16]: [200] Account Communication Success (6)
[01:30:16]: Received (KU_voGjEULK) from TokenPurpose
[01:35:13]: Server Unpaused	
[01:35:18]: New time stamps for everyone at	1639703836	
[01:35:20]: Registering master server in US lobby
[01:35:21]: Server Autopaused	
[01:35:31]: Server Unpaused	
[01:35:33]: [Steam] SendUserDisconnect for '76561199226859472'
[01:35:33]: [Shard] (KU_voGjEULK) disconnected from [SHDMASTER](1)
[01:35:33]: Registering master server in US lobby
[01:35:33]: [IPC] Received shutdown signal.
[01:35:33]: Available disk space for save files: 315380 MB
[01:35:33]: Serializing user: session/2139020B54A00472/A7N74GMJJPAK/0000000055
[01:35:33]: Serializing world: session/2139020B54A00472/0000000055
[01:35:33]: Truncating to snapshot #55...
[01:35:33]:  - session/2139020B54A00472/0000000048
[01:35:33]:  - session/2139020B54A00472/0000000049
[01:35:33]:  - session/2139020B54A00472/A7ILL29CBGFH/0000000044
[01:35:33]:  - session/2139020B54A00472/A7ILL29CCEAB/0000000049
[01:35:33]:  - session/2139020B54A00472/A7ILL29CCEAB/0000000048
[01:35:33]:  - session/2139020B54A00472/A7N74GMJJPAK/0000000049
[01:35:33]:  - session/2139020B54A00472/A7N74GMJJPAK/0000000048
[01:35:33]:    7 file(s) removed
[01:35:33]: Removing server from US lobby
[01:35:33]: [Shard] Stopping shard mode
[01:35:33]: [Steam] SendUserDisconnect for ''
[01:35:34]: Collecting garbage...
[01:35:34]: lua_gc took 0.35 seconds
[01:35:34]: ~ShardLuaProxy()
[01:35:34]: ~cEventLeaderboardProxy()
[01:35:34]: ~ItemServerLuaProxy()
[01:35:34]: ~InventoryLuaProxy()
[01:35:34]: ~NetworkLuaProxy()
[01:35:34]: ~SimLuaProxy()
[01:35:34]: Cancelling LuaQueryCallback handle [5]
[01:35:35]: lua_close took 0.59 seconds
[01:35:35]: Orphaned unnamed resource. This resource must have used Add( resource ) to insert itself into the manager. 
[01:35:35]: CurlRequestManager::ClientThread::Main() complete
[01:35:35]: HttpClient2 discarded 0 callbacks.
[01:35:35]: Shutting down
